﻿Log file open, 07/06/21 16:07:57
LogInit: LLM is enabled
LogInit: LLM CsvWriter: off TraceWriter: off
LogInit: Display: Running engine for game: MT_TK
LogPlatformFile: Not using cached read wrapper
LogTaskGraph: Started task graph with 5 named threads and 35 total threads with 3 sets of task threads.
LogStats: Stats thread started at 0.342098
LogD3D11RHI: Loaded GFSDK_Aftermath_Lib.x64.dll
LogICUInternationalization: ICU TimeZone Detection - Raw Offset: +3:00, Platform Override: ''
LogPluginManager: Mounting plugin MeshPainting
LogPluginManager: Mounting plugin XGEController
LogPluginManager: Mounting plugin Paper2D
LogPluginManager: Mounting plugin AISupport
LogPluginManager: Mounting plugin EnvironmentQueryEditor
LogPluginManager: Mounting plugin LightPropagationVolume
LogPluginManager: Mounting plugin CameraShakePreviewer
LogPluginManager: Mounting plugin AnimationSharing
LogPluginManager: Mounting plugin CodeLiteSourceCodeAccess
LogPluginManager: Mounting plugin CLionSourceCodeAccess
LogPluginManager: Mounting plugin NullSourceCodeAccess
LogPluginManager: Mounting plugin GitSourceControl
LogPluginManager: Mounting plugin PlasticSourceControl
LogPluginManager: Mounting plugin PerforceSourceControl
LogPluginManager: Mounting plugin PluginUtils
LogPluginManager: Mounting plugin PropertyAccessNode
LogPluginManager: Mounting plugin KDevelopSourceCodeAccess
LogPluginManager: Mounting plugin RiderSourceCodeAccess
LogPluginManager: Mounting plugin SubversionSourceControl
LogPluginManager: Mounting plugin UObjectPlugin
LogPluginManager: Mounting plugin XCodeSourceCodeAccess
LogPluginManager: Mounting plugin VisualStudioSourceCodeAccess
LogPluginManager: Mounting plugin VisualStudioCodeSourceCodeAccess
LogPluginManager: Mounting plugin DatasmithContent
LogPluginManager: Mounting plugin AlembicImporter
LogPluginManager: Mounting plugin VariantManagerContent
LogPluginManager: Mounting plugin AutomationUtils
LogPluginManager: Mounting plugin BackChannel
LogPluginManager: Mounting plugin ChaosClothEditor
LogPluginManager: Mounting plugin ChaosCloth
LogPluginManager: Mounting plugin ChaosEditor
LogPluginManager: Mounting plugin ChaosNiagara
LogPluginManager: Mounting plugin Niagara
LogPluginManager: Mounting plugin ChaosSolverPlugin
LogPluginManager: Mounting plugin CharacterAI
LogPluginManager: Mounting plugin AssetManagerEditor
LogPluginManager: Mounting plugin GeometryCache
LogPluginManager: Mounting plugin GeometryCollectionPlugin
LogPluginManager: Mounting plugin GeometryProcessing
LogPluginManager: Mounting plugin CryptoKeys
LogPluginManager: Mounting plugin CurveEditorTools
LogPluginManager: Mounting plugin DataValidation
LogPluginManager: Mounting plugin FacialAnimation
LogPluginManager: Mounting plugin GameplayTagsEditor
LogPluginManager: Mounting plugin GeometryMode
LogPluginManager: Mounting plugin MacGraphicsSwitching
LogPluginManager: Mounting plugin MaterialAnalyzer
LogPluginManager: Mounting plugin MobileLauncherProfileWizard
LogPluginManager: Mounting plugin PluginBrowser
LogPluginManager: Mounting plugin SpeedTreeImporter
LogPluginManager: Mounting plugin MotoSynth
LogPluginManager: Mounting plugin PlanarCut
LogPluginManager: Mounting plugin ProxyLODPlugin
LogPluginManager: Mounting plugin PlatformCrypto
LogPluginManager: Mounting plugin SkeletalReduction
LogPluginManager: Mounting plugin LuminPlatformFeatures
LogPluginManager: Mounting plugin MagicLeap
LogPluginManager: Mounting plugin MagicLeapMedia
LogPluginManager: Mounting plugin MagicLeapLightEstimation
LogPluginManager: Mounting plugin MagicLeapPassableWorld
LogPluginManager: Mounting plugin MLSDK
LogPluginManager: Mounting plugin AndroidMedia
LogPluginManager: Mounting plugin AvfMedia
LogPluginManager: Mounting plugin MediaCompositing
LogPluginManager: Mounting plugin ImgMedia
LogPluginManager: Mounting plugin MediaPlayerEditor
LogPluginManager: Mounting plugin WebMMedia
LogPluginManager: Mounting plugin WmfMedia
LogPluginManager: Mounting plugin TcpMessaging
LogPluginManager: Mounting plugin LevelSequenceEditor
LogPluginManager: Mounting plugin UdpMessaging
LogPluginManager: Mounting plugin ActorSequence
LogPluginManager: Mounting plugin MatineeToLevelSequence
LogPluginManager: Mounting plugin TemplateSequence
LogPluginManager: Mounting plugin OnlineSubsystem
LogPluginManager: Mounting plugin OnlineSubsystemNull
LogPluginManager: Mounting plugin OnlineSubsystemUtils
LogPluginManager: Mounting plugin LauncherChunkInstaller
LogPluginManager: Mounting plugin ActorLayerUtilities
LogPluginManager: Mounting plugin AndroidDeviceProfileSelector
LogPluginManager: Mounting plugin AndroidMoviePlayer
LogPluginManager: Mounting plugin AndroidPermission
LogPluginManager: Mounting plugin AppleImageUtils
LogPluginManager: Mounting plugin AppleMoviePlayer
LogPluginManager: Mounting plugin ArchVisCharacter
LogPluginManager: Mounting plugin AudioCapture
LogPluginManager: Mounting plugin AssetTags
LogPluginManager: Mounting plugin ChunkDownloader
LogPluginManager: Mounting plugin CustomMeshComponent
LogPluginManager: Mounting plugin ExampleDeviceProfileSelector
LogPluginManager: Mounting plugin EditableMesh
LogPluginManager: Mounting plugin CableComponent
LogPluginManager: Mounting plugin AudioSynesthesia
LogPluginManager: Mounting plugin GoogleCloudMessaging
LogPluginManager: Mounting plugin GooglePAD
LogPluginManager: Mounting plugin IOSDeviceProfileSelector
LogPluginManager: Mounting plugin LinuxDeviceProfileSelector
LogPluginManager: Mounting plugin LocationServicesBPLibrary
LogPluginManager: Mounting plugin MobilePatchingUtils
LogPluginManager: Mounting plugin PostSplashScreen
LogPluginManager: Mounting plugin PhysXVehicles
LogPluginManager: Mounting plugin PropertyAccessEditor
LogPluginManager: Mounting plugin ProceduralMeshComponent
LogPluginManager: Mounting plugin RuntimePhysXCooking
LogPluginManager: Mounting plugin SignificanceManager
LogPluginManager: Mounting plugin SoundFields
LogPluginManager: Mounting plugin Synthesis
LogPluginManager: Mounting plugin WebMMoviePlayer
LogPluginManager: Mounting plugin WindowsMoviePlayer
LogPluginManager: Mounting plugin ScreenshotTools
LogPluginManager: Mounting plugin ContentBrowserAssetDataSource
LogPluginManager: Mounting plugin ContentBrowserClassDataSource
LogPluginManager: Mounting plugin OnlineSubsystemIOS
LogPluginManager: Mounting plugin OnlineSubsystemGooglePlay
LogPluginManager: Mounting plugin OculusVR
LogPluginManager: Mounting plugin SteamVR
LogXGEController: Cleaning working directory: C:/Users/alexk/AppData/Local/Temp/UnrealXGEWorkingDir/
LogXGEController: Cannot use XGE Controller as Incredibuild is not installed on this machine.
LogInit: Using libcurl 7.55.1-DEV
LogInit:  - built for x86_64-pc-win32
LogInit:  - supports SSL with OpenSSL/1.1.1
LogInit:  - supports HTTP deflate (compression) using libz 1.2.8
LogInit:  - other features:
LogInit:      CURL_VERSION_SSL
LogInit:      CURL_VERSION_LIBZ
LogInit:      CURL_VERSION_IPV6
LogInit:      CURL_VERSION_ASYNCHDNS
LogInit:      CURL_VERSION_LARGEFILE
LogInit:      CURL_VERSION_IDN
LogInit:  CurlRequestOptions (configurable via config and command line):
LogInit:  - bVerifyPeer = true  - Libcurl will verify peer certificate
LogInit:  - bUseHttpProxy = false  - Libcurl will NOT use HTTP proxy
LogInit:  - bDontReuseConnections = false  - Libcurl will reuse connections
LogInit:  - MaxHostConnections = 16  - Libcurl will limit the number of connections to a host
LogInit:  - LocalHostAddr = Default
LogInit:  - BufferSize = 65536
LogOnline: OSS: Creating online subsystem instance for: NULL
LogInit: WinSock: version 1.1 (2.2), MaxSocks=32767, MaxUdp=65467
LogOnline: OSS: TryLoadSubsystemAndSetDefault: Loaded subsystem for module [NULL]
LogInit: Build: ++UE4+Release-4.26-CL-15973114
LogInit: Engine Version: 4.26.2-15973114+++UE4+Release-4.26
LogInit: Compatible Engine Version: 4.26.0-14830424+++UE4+Release-4.26
LogInit: Net CL: 14830424
LogInit: OS: Windows 10 (Release 2009) (), CPU: Intel(R) Core(TM) i7-8700K CPU @ 3.70GHz, GPU: NVIDIA GeForce RTX 2060
LogInit: Compiled (64-bit): Apr 12 2021 06:14:10
LogInit: Compiled with Visual C++: 19.24.28315.00
LogInit: Build Configuration: Development
LogInit: Branch Name: ++UE4+Release-4.26
LogInit: Command Line: 
LogInit: Base Directory: T:/Autistic Stuff/Epic Games/Games/UE_4.26/Engine/Binaries/Win64/
LogInit: Allocator: TBB
LogInit: Installed Engine Build: 1
LogDevObjectVersion: Number of dev versions registered: 29
LogDevObjectVersion:   Dev-Blueprints (B0D832E4-1F89-4F0D-ACCF-7EB736FD4AA2): 10
LogDevObjectVersion:   Dev-Build (E1C64328-A22C-4D53-A36C-8E866417BD8C): 0
LogDevObjectVersion:   Dev-Core (375EC13C-06E4-48FB-B500-84F0262A717E): 4
LogDevObjectVersion:   Dev-Editor (E4B068ED-F494-42E9-A231-DA0B2E46BB41): 40
LogDevObjectVersion:   Dev-Framework (CFFC743F-43B0-4480-9391-14DF171D2073): 37
LogDevObjectVersion:   Dev-Mobile (B02B49B5-BB20-44E9-A304-32B752E40360): 3
LogDevObjectVersion:   Dev-Networking (A4E4105C-59A1-49B5-A7C5-40C4547EDFEE): 0
LogDevObjectVersion:   Dev-Online (39C831C9-5AE6-47DC-9A44-9C173E1C8E7C): 0
LogDevObjectVersion:   Dev-Physics (78F01B33-EBEA-4F98-B9B4-84EACCB95AA2): 4
LogDevObjectVersion:   Dev-Platform (6631380F-2D4D-43E0-8009-CF276956A95A): 0
LogDevObjectVersion:   Dev-Rendering (12F88B9F-8875-4AFC-A67C-D90C383ABD29): 44
LogDevObjectVersion:   Dev-Sequencer (7B5AE74C-D270-4C10-A958-57980B212A5A): 12
LogDevObjectVersion:   Dev-VR (D7296918-1DD6-4BDD-9DE2-64A83CC13884): 3
LogDevObjectVersion:   Dev-LoadTimes (C2A15278-BFE7-4AFE-6C17-90FF531DF755): 1
LogDevObjectVersion:   Private-Geometry (6EACA3D4-40EC-4CC1-B786-8BED09428FC5): 3
LogDevObjectVersion:   Dev-AnimPhys (29E575DD-E0A3-4627-9D10-D276232CDCEA): 17
LogDevObjectVersion:   Dev-Anim (AF43A65D-7FD3-4947-9873-3E8ED9C1BB05): 15
LogDevObjectVersion:   Dev-ReflectionCapture (6B266CEC-1EC7-4B8F-A30B-E4D90942FC07): 1
LogDevObjectVersion:   Dev-Automation (0DF73D61-A23F-47EA-B727-89E90C41499A): 1
LogDevObjectVersion:   FortniteMain (601D1886-AC64-4F84-AA16-D3DE0DEAC7D6): 43
LogDevObjectVersion:   FortniteRelease (E7086368-6B23-4C58-8439-1B7016265E91): 1
LogDevObjectVersion:   Dev-Enterprise (9DFFBCD6-494F-0158-E221-12823C92A888): 10
LogDevObjectVersion:   Dev-Niagara (F2AED0AC-9AFE-416F-8664-AA7FFA26D6FC): 1
LogDevObjectVersion:   Dev-Destruction (174F1F0B-B4C6-45A5-B13F-2EE8D0FB917D): 10
LogDevObjectVersion:   Dev-Physics-Ext (35F94A83-E258-406C-A318-09F59610247C): 40
LogDevObjectVersion:   Dev-PhysicsMaterial-Chaos (B68FC16E-8B1B-42E2-B453-215C058844FE): 1
LogDevObjectVersion:   Dev-CineCamera (B2E18506-4273-CFC2-A54E-F4BB758BBA07): 1
LogDevObjectVersion:   Dev-VirtualProduction (64F58936-FD1B-42BA-BA96-7289D5D0FA4E): 1
LogDevObjectVersion:   Dev-MediaFramework (6F0ED827-A609-4895-9C91-998D90180EA4): 2
LogInit: Presizing for max 25165824 objects, including 0 objects not considered by GC, pre-allocating 0 bytes for permanent pool.
LogConfig: Applying CVar settings from Section [/Script/Engine.StreamingSettings] File [C:/Users/alexk/Desktop/MT_Task/MT_TK/Saved/Config/Windows/Engine.ini]
LogConfig: Setting CVar [[s.MinBulkDataSizeForAsyncLoading:131072]]
LogConfig: Setting CVar [[s.AsyncLoadingThreadEnabled:0]]
LogConfig: Setting CVar [[s.EventDrivenLoaderEnabled:1]]
LogConfig: Setting CVar [[s.WarnIfTimeLimitExceeded:0]]
LogConfig: Setting CVar [[s.TimeLimitExceededMultiplier:1.5]]
LogConfig: Setting CVar [[s.TimeLimitExceededMinTime:0.005]]
LogConfig: Setting CVar [[s.UseBackgroundLevelStreaming:1]]
LogConfig: Setting CVar [[s.PriorityAsyncLoadingExtraTime:15.0]]
LogConfig: Setting CVar [[s.LevelStreamingActorsUpdateTimeLimit:5.0]]
LogConfig: Setting CVar [[s.PriorityLevelStreamingActorsUpdateExtraTime:5.0]]
LogConfig: Setting CVar [[s.LevelStreamingComponentsRegistrationGranularity:10]]
LogConfig: Setting CVar [[s.UnregisterComponentsTimeLimit:1.0]]
LogConfig: Setting CVar [[s.LevelStreamingComponentsUnregistrationGranularity:5]]
LogConfig: Setting CVar [[s.FlushStreamingOnExit:1]]
LogInit: Object subsystem initialized
LogConfig: Setting CVar [[con.DebugEarlyDefault:1]]
LogConfig: Setting CVar [[r.setres:1280x720]]
[2021.07.06-13.07.59:994][  0]LogConfig: Setting CVar [[r.VSync:0]]
[2021.07.06-13.07.59:994][  0]LogConfig: Setting CVar [[r.RHICmdBypass:0]]
[2021.07.06-13.07.59:994][  0]LogConfig: Applying CVar settings from Section [/Script/Engine.RendererSettings] File [C:/Users/alexk/Desktop/MT_Task/MT_TK/Saved/Config/Windows/Engine.ini]
[2021.07.06-13.07.59:994][  0]LogConfig: Setting CVar [[r.GPUCrashDebugging:0]]
[2021.07.06-13.07.59:994][  0]LogConfig: Applying CVar settings from Section [/Script/Engine.RendererOverrideSettings] File [C:/Users/alexk/Desktop/MT_Task/MT_TK/Saved/Config/Windows/Engine.ini]
[2021.07.06-13.07.59:994][  0]LogConfig: Applying CVar settings from Section [/Script/Engine.StreamingSettings] File [C:/Users/alexk/Desktop/MT_Task/MT_TK/Saved/Config/Windows/Engine.ini]
[2021.07.06-13.07.59:994][  0]LogConfig: Setting CVar [[s.MinBulkDataSizeForAsyncLoading:131072]]
[2021.07.06-13.07.59:994][  0]LogConfig: Setting CVar [[s.AsyncLoadingThreadEnabled:0]]
[2021.07.06-13.07.59:994][  0]LogConfig: Setting CVar [[s.EventDrivenLoaderEnabled:1]]
[2021.07.06-13.07.59:994][  0]LogConfig: Setting CVar [[s.WarnIfTimeLimitExceeded:0]]
[2021.07.06-13.07.59:994][  0]LogConfig: Setting CVar [[s.TimeLimitExceededMultiplier:1.5]]
[2021.07.06-13.07.59:994][  0]LogConfig: Setting CVar [[s.TimeLimitExceededMinTime:0.005]]
[2021.07.06-13.07.59:994][  0]LogConfig: Setting CVar [[s.UseBackgroundLevelStreaming:1]]
[2021.07.06-13.07.59:994][  0]LogConfig: Setting CVar [[s.PriorityAsyncLoadingExtraTime:15.0]]
[2021.07.06-13.07.59:994][  0]LogConfig: Setting CVar [[s.LevelStreamingActorsUpdateTimeLimit:5.0]]
[2021.07.06-13.07.59:994][  0]LogConfig: Setting CVar [[s.PriorityLevelStreamingActorsUpdateExtraTime:5.0]]
[2021.07.06-13.07.59:994][  0]LogConfig: Setting CVar [[s.LevelStreamingComponentsRegistrationGranularity:10]]
[2021.07.06-13.07.59:994][  0]LogConfig: Setting CVar [[s.UnregisterComponentsTimeLimit:1.0]]
[2021.07.06-13.07.59:994][  0]LogConfig: Setting CVar [[s.LevelStreamingComponentsUnregistrationGranularity:5]]
[2021.07.06-13.07.59:994][  0]LogConfig: Setting CVar [[s.FlushStreamingOnExit:1]]
[2021.07.06-13.07.59:994][  0]LogConfig: Applying CVar settings from Section [/Script/Engine.GarbageCollectionSettings] File [C:/Users/alexk/Desktop/MT_Task/MT_TK/Saved/Config/Windows/Engine.ini]
[2021.07.06-13.07.59:994][  0]LogConfig: Setting CVar [[gc.MaxObjectsNotConsideredByGC:1]]
[2021.07.06-13.07.59:994][  0]LogConfig: Setting CVar [[gc.SizeOfPermanentObjectPool:0]]
[2021.07.06-13.07.59:994][  0]LogConfig: Setting CVar [[gc.FlushStreamingOnGC:0]]
[2021.07.06-13.07.59:994][  0]LogConfig: Setting CVar [[gc.NumRetriesBeforeForcingGC:10]]
[2021.07.06-13.07.59:994][  0]LogConfig: Setting CVar [[gc.AllowParallelGC:1]]
[2021.07.06-13.07.59:994][  0]LogConfig: Setting CVar [[gc.TimeBetweenPurgingPendingKillObjects:61.1]]
[2021.07.06-13.07.59:994][  0]LogConfig: Setting CVar [[gc.MaxObjectsInEditor:25165824]]
[2021.07.06-13.07.59:994][  0]LogConfig: Setting CVar [[gc.IncrementalBeginDestroyEnabled:1]]
[2021.07.06-13.07.59:994][  0]LogConfig: Setting CVar [[gc.CreateGCClusters:1]]
[2021.07.06-13.07.59:994][  0]LogConfig: Setting CVar [[gc.MinGCClusterSize:5]]
[2021.07.06-13.07.59:994][  0]LogConfig: Setting CVar [[gc.ActorClusteringEnabled:0]]
[2021.07.06-13.07.59:994][  0]LogConfig: Setting CVar [[gc.BlueprintClusteringEnabled:0]]
[2021.07.06-13.07.59:994][  0]LogConfig: Setting CVar [[gc.UseDisregardForGCOnDedicatedServers:0]]
[2021.07.06-13.07.59:994][  0]LogConfig: Setting CVar [[gc.MultithreadedDestructionEnabled:1]]
[2021.07.06-13.07.59:994][  0]LogConfig: Applying CVar settings from Section [/Script/Engine.NetworkSettings] File [C:/Users/alexk/Desktop/MT_Task/MT_TK/Saved/Config/Windows/Engine.ini]
[2021.07.06-13.07.59:994][  0]LogConfig: Applying CVar settings from Section [/Script/UnrealEd.CookerSettings] File [C:/Users/alexk/Desktop/MT_Task/MT_TK/Saved/Config/Windows/Engine.ini]
[2021.07.06-13.08.00:083][  0]LogConfig: Applying CVar settings from Section [ViewDistanceQuality@3] File [C:/Users/alexk/Desktop/MT_Task/MT_TK/Saved/Config/Windows/Scalability.ini]
[2021.07.06-13.08.00:083][  0]LogConfig: Setting CVar [[r.SkeletalMeshLODBias:0]]
[2021.07.06-13.08.00:083][  0]LogConfig: Setting CVar [[r.ViewDistanceScale:1.0]]
[2021.07.06-13.08.00:083][  0]LogConfig: Applying CVar settings from Section [AntiAliasingQuality@3] File [C:/Users/alexk/Desktop/MT_Task/MT_TK/Saved/Config/Windows/Scalability.ini]
[2021.07.06-13.08.00:083][  0]LogConfig: Setting CVar [[r.PostProcessAAQuality:4]]
[2021.07.06-13.08.00:083][  0]LogConfig: Applying CVar settings from Section [ShadowQuality@3] File [C:/Users/alexk/Desktop/MT_Task/MT_TK/Saved/Config/Windows/Scalability.ini]
[2021.07.06-13.08.00:083][  0]LogConfig: Setting CVar [[r.LightFunctionQuality:1]]
[2021.07.06-13.08.00:083][  0]LogConfig: Setting CVar [[r.ShadowQuality:5]]
[2021.07.06-13.08.00:083][  0]LogConfig: Setting CVar [[r.Shadow.CSM.MaxCascades:10]]
[2021.07.06-13.08.00:083][  0]LogConfig: Setting CVar [[r.Shadow.MaxResolution:2048]]
[2021.07.06-13.08.00:083][  0]LogConfig: Setting CVar [[r.Shadow.MaxCSMResolution:2048]]
[2021.07.06-13.08.00:083][  0]LogConfig: Setting CVar [[r.Shadow.RadiusThreshold:0.01]]
[2021.07.06-13.08.00:083][  0]LogConfig: Setting CVar [[r.Shadow.DistanceScale:1.0]]
[2021.07.06-13.08.00:083][  0]LogConfig: Setting CVar [[r.Shadow.CSM.TransitionScale:1.0]]
[2021.07.06-13.08.00:083][  0]LogConfig: Setting CVar [[r.Shadow.PreShadowResolutionFactor:1.0]]
[2021.07.06-13.08.00:083][  0]LogConfig: Setting CVar [[r.DistanceFieldShadowing:1]]
[2021.07.06-13.08.00:083][  0]LogConfig: Setting CVar [[r.DistanceFieldAO:1]]
[2021.07.06-13.08.00:083][  0]LogConfig: Setting CVar [[r.AOQuality:2]]
[2021.07.06-13.08.00:083][  0]LogConfig: Setting CVar [[r.VolumetricFog:1]]
[2021.07.06-13.08.00:083][  0]LogConfig: Setting CVar [[r.VolumetricFog.GridPixelSize:8]]
[2021.07.06-13.08.00:083][  0]LogConfig: Setting CVar [[r.VolumetricFog.GridSizeZ:128]]
[2021.07.06-13.08.00:083][  0]LogConfig: Setting CVar [[r.VolumetricFog.HistoryMissSupersampleCount:4]]
[2021.07.06-13.08.00:083][  0]LogConfig: Setting CVar [[r.LightMaxDrawDistanceScale:1]]
[2021.07.06-13.08.00:083][  0]LogConfig: Setting CVar [[r.CapsuleShadows:1]]
[2021.07.06-13.08.00:083][  0]LogConfig: Applying CVar settings from Section [PostProcessQuality@3] File [C:/Users/alexk/Desktop/MT_Task/MT_TK/Saved/Config/Windows/Scalability.ini]
[2021.07.06-13.08.00:083][  0]LogConfig: Setting CVar [[r.MotionBlurQuality:4]]
[2021.07.06-13.08.00:083][  0]LogConfig: Setting CVar [[r.AmbientOcclusionMipLevelFactor:0.4]]
[2021.07.06-13.08.00:083][  0]LogConfig: Setting CVar [[r.AmbientOcclusionMaxQuality:100]]
[2021.07.06-13.08.00:084][  0]LogConfig: Setting CVar [[r.AmbientOcclusionLevels:-1]]
[2021.07.06-13.08.00:084][  0]LogConfig: Setting CVar [[r.AmbientOcclusionRadiusScale:1.0]]
[2021.07.06-13.08.00:084][  0]LogConfig: Setting CVar [[r.DepthOfFieldQuality:2]]
[2021.07.06-13.08.00:084][  0]LogConfig: Setting CVar [[r.RenderTargetPoolMin:400]]
[2021.07.06-13.08.00:084][  0]LogConfig: Setting CVar [[r.LensFlareQuality:2]]
[2021.07.06-13.08.00:084][  0]LogConfig: Setting CVar [[r.SceneColorFringeQuality:1]]
[2021.07.06-13.08.00:084][  0]LogConfig: Setting CVar [[r.EyeAdaptationQuality:2]]
[2021.07.06-13.08.00:084][  0]LogConfig: Setting CVar [[r.BloomQuality:5]]
[2021.07.06-13.08.00:084][  0]LogConfig: Setting CVar [[r.FastBlurThreshold:100]]
[2021.07.06-13.08.00:084][  0]LogConfig: Setting CVar [[r.Upscale.Quality:3]]
[2021.07.06-13.08.00:084][  0]LogConfig: Setting CVar [[r.Tonemapper.GrainQuantization:1]]
[2021.07.06-13.08.00:084][  0]LogConfig: Setting CVar [[r.LightShaftQuality:1]]
[2021.07.06-13.08.00:084][  0]LogConfig: Setting CVar [[r.Filter.SizeScale:1]]
[2021.07.06-13.08.00:084][  0]LogConfig: Setting CVar [[r.Tonemapper.Quality:5]]
[2021.07.06-13.08.00:084][  0]LogConfig: Setting CVar [[r.DOF.Gather.AccumulatorQuality:1        ; higher gathering accumulator quality]]
[2021.07.06-13.08.00:084][  0]LogConfig: Setting CVar [[r.DOF.Gather.PostfilterMethod:1          ; Median3x3 postfilering method]]
[2021.07.06-13.08.00:084][  0]LogConfig: Setting CVar [[r.DOF.Gather.EnableBokehSettings:0       ; no bokeh simulation when gathering]]
[2021.07.06-13.08.00:084][  0]LogConfig: Setting CVar [[r.DOF.Gather.RingCount:4                 ; medium number of samples when gathering]]
[2021.07.06-13.08.00:084][  0]LogConfig: Setting CVar [[r.DOF.Scatter.ForegroundCompositing:1    ; additive foreground scattering]]
[2021.07.06-13.08.00:084][  0]LogConfig: Setting CVar [[r.DOF.Scatter.BackgroundCompositing:2    ; additive background scattering]]
[2021.07.06-13.08.00:084][  0]LogConfig: Setting CVar [[r.DOF.Scatter.EnableBokehSettings:1      ; bokeh simulation when scattering]]
[2021.07.06-13.08.00:084][  0]LogConfig: Setting CVar [[r.DOF.Scatter.MaxSpriteRatio:0.1         ; only a maximum of 10% of scattered bokeh]]
[2021.07.06-13.08.00:084][  0]LogConfig: Setting CVar [[r.DOF.Recombine.Quality:1                ; cheap slight out of focus]]
[2021.07.06-13.08.00:084][  0]LogConfig: Setting CVar [[r.DOF.Recombine.EnableBokehSettings:0    ; no bokeh simulation on slight out of focus]]
[2021.07.06-13.08.00:084][  0]LogConfig: Setting CVar [[r.DOF.TemporalAAQuality:1                ; more stable temporal accumulation]]
[2021.07.06-13.08.00:084][  0]LogConfig: Setting CVar [[r.DOF.Kernel.MaxForegroundRadius:0.025]]
[2021.07.06-13.08.00:084][  0]LogConfig: Setting CVar [[r.DOF.Kernel.MaxBackgroundRadius:0.025]]
[2021.07.06-13.08.00:084][  0]LogConfig: Applying CVar settings from Section [TextureQuality@3] File [C:/Users/alexk/Desktop/MT_Task/MT_TK/Saved/Config/Windows/Scalability.ini]
[2021.07.06-13.08.00:084][  0]LogConfig: Setting CVar [[r.Streaming.MipBias:0]]
[2021.07.06-13.08.00:084][  0]LogConfig: Setting CVar [[r.Streaming.AmortizeCPUToGPUCopy:0]]
[2021.07.06-13.08.00:084][  0]LogConfig: Setting CVar [[r.Streaming.MaxNumTexturesToStreamPerFrame:0]]
[2021.07.06-13.08.00:084][  0]LogConfig: Setting CVar [[r.Streaming.Boost:1]]
[2021.07.06-13.08.00:084][  0]LogConfig: Setting CVar [[r.MaxAnisotropy:8]]
[2021.07.06-13.08.00:084][  0]LogConfig: Setting CVar [[r.VT.MaxAnisotropy:8]]
[2021.07.06-13.08.00:084][  0]LogConfig: Setting CVar [[r.Streaming.LimitPoolSizeToVRAM:0]]
[2021.07.06-13.08.00:084][  0]LogConfig: Setting CVar [[r.Streaming.PoolSize:1000]]
[2021.07.06-13.08.00:084][  0]LogConfig: Setting CVar [[r.Streaming.MaxEffectiveScreenSize:0]]
[2021.07.06-13.08.00:084][  0]LogConfig: Applying CVar settings from Section [EffectsQuality@3] File [C:/Users/alexk/Desktop/MT_Task/MT_TK/Saved/Config/Windows/Scalability.ini]
[2021.07.06-13.08.00:084][  0]LogConfig: Setting CVar [[r.TranslucencyLightingVolumeDim:64]]
[2021.07.06-13.08.00:084][  0]LogConfig: Setting CVar [[r.RefractionQuality:2]]
[2021.07.06-13.08.00:084][  0]LogConfig: Setting CVar [[r.SSR.Quality:3]]
[2021.07.06-13.08.00:084][  0]LogConfig: Setting CVar [[r.SSR.HalfResSceneColor:0]]
[2021.07.06-13.08.00:084][  0]LogConfig: Setting CVar [[r.SceneColorFormat:4]]
[2021.07.06-13.08.00:084][  0]LogConfig: Setting CVar [[r.DetailMode:2]]
[2021.07.06-13.08.00:084][  0]LogConfig: Setting CVar [[r.TranslucencyVolumeBlur:1]]
[2021.07.06-13.08.00:084][  0]LogConfig: Setting CVar [[r.MaterialQualityLevel:1 ; High quality]]
[2021.07.06-13.08.00:084][  0]LogConfig: Setting CVar [[r.AnisotropicMaterials:1]]
[2021.07.06-13.08.00:084][  0]LogConfig: Setting CVar [[r.SSS.Scale:1]]
[2021.07.06-13.08.00:084][  0]LogConfig: Setting CVar [[r.SSS.SampleSet:2]]
[2021.07.06-13.08.00:084][  0]LogConfig: Setting CVar [[r.SSS.Quality:1]]
[2021.07.06-13.08.00:084][  0]LogConfig: Setting CVar [[r.SSS.HalfRes:0]]
[2021.07.06-13.08.00:084][  0]LogConfig: Setting CVar [[r.SSGI.Quality:3]]
[2021.07.06-13.08.00:084][  0]LogConfig: Setting CVar [[r.EmitterSpawnRateScale:1.0]]
[2021.07.06-13.08.00:084][  0]LogConfig: Setting CVar [[r.ParticleLightQuality:2]]
[2021.07.06-13.08.00:084][  0]LogConfig: Setting CVar [[r.SkyAtmosphere.AerialPerspectiveLUT.FastApplyOnOpaque:1 ; Always have FastSkyLUT 1 in this case to avoid wrong sky]]
[2021.07.06-13.08.00:084][  0]LogConfig: Setting CVar [[r.SkyAtmosphere.AerialPerspectiveLUT.SampleCountMaxPerSlice:4]]
[2021.07.06-13.08.00:084][  0]LogConfig: Setting CVar [[r.SkyAtmosphere.AerialPerspectiveLUT.DepthResolution:16.0]]
[2021.07.06-13.08.00:084][  0]LogConfig: Setting CVar [[r.SkyAtmosphere.FastSkyLUT:1]]
[2021.07.06-13.08.00:084][  0]LogConfig: Setting CVar [[r.SkyAtmosphere.FastSkyLUT.SampleCountMin:4.0]]
[2021.07.06-13.08.00:084][  0]LogConfig: Setting CVar [[r.SkyAtmosphere.FastSkyLUT.SampleCountMax:128.0]]
[2021.07.06-13.08.00:084][  0]LogConfig: Setting CVar [[r.SkyAtmosphere.SampleCountMin:4.0]]
[2021.07.06-13.08.00:084][  0]LogConfig: Setting CVar [[r.SkyAtmosphere.SampleCountMax:128.0]]
[2021.07.06-13.08.00:084][  0]LogConfig: Setting CVar [[r.SkyAtmosphere.TransmittanceLUT.UseSmallFormat:0]]
[2021.07.06-13.08.00:084][  0]LogConfig: Setting CVar [[r.SkyAtmosphere.TransmittanceLUT.SampleCount:10.0]]
[2021.07.06-13.08.00:084][  0]LogConfig: Setting CVar [[r.SkyAtmosphere.MultiScatteringLUT.SampleCount:15.0]]
[2021.07.06-13.08.00:084][  0]LogConfig: Applying CVar settings from Section [FoliageQuality@3] File [C:/Users/alexk/Desktop/MT_Task/MT_TK/Saved/Config/Windows/Scalability.ini]
[2021.07.06-13.08.00:084][  0]LogConfig: Setting CVar [[foliage.DensityScale:1.0]]
[2021.07.06-13.08.00:084][  0]LogConfig: Setting CVar [[grass.DensityScale:1.0]]
[2021.07.06-13.08.00:084][  0]LogConfig: Applying CVar settings from Section [ShadingQuality@3] File [C:/Users/alexk/Desktop/MT_Task/MT_TK/Saved/Config/Windows/Scalability.ini]
[2021.07.06-13.08.00:084][  0]LogConfig: Setting CVar [[r.HairStrands.SkyLighting.IntegrationType:2]]
[2021.07.06-13.08.00:084][  0]LogConfig: Setting CVar [[r.HairStrands.SkyAO.SampleCount:4]]
[2021.07.06-13.08.00:084][  0]LogConfig: Setting CVar [[r.HairStrands.Visibility.MSAA.SamplePerPixel:4]]
[2021.07.06-13.08.00:092][  0]LogInit: Selected Device Profile: [Windows]
[2021.07.06-13.08.00:098][  0]LogInit: Applying CVar settings loaded from the selected device profile: [Windows]
[2021.07.06-13.08.00:116][  0]LogHAL: Display: Platform has ~ 16 GB [17100595200 / 17179869184 / 16], which maps to Larger [LargestMinGB=32, LargerMinGB=12, DefaultMinGB=8, SmallerMinGB=6, SmallestMinGB=0)
[2021.07.06-13.08.00:116][  0]LogInit: Going up to parent DeviceProfile []
[2021.07.06-13.08.00:116][  0]LogConfig: Applying CVar settings from Section [ViewDistanceQuality@3] File [C:/Users/alexk/Desktop/MT_Task/MT_TK/Saved/Config/Windows/Scalability.ini]
[2021.07.06-13.08.00:116][  0]LogConfig: Setting CVar [[r.SkeletalMeshLODBias:0]]
[2021.07.06-13.08.00:116][  0]LogConfig: Setting CVar [[r.ViewDistanceScale:1.0]]
[2021.07.06-13.08.00:116][  0]LogConfig: Applying CVar settings from Section [AntiAliasingQuality@3] File [C:/Users/alexk/Desktop/MT_Task/MT_TK/Saved/Config/Windows/Scalability.ini]
[2021.07.06-13.08.00:116][  0]LogConfig: Setting CVar [[r.PostProcessAAQuality:4]]
[2021.07.06-13.08.00:116][  0]LogConfig: Applying CVar settings from Section [ShadowQuality@3] File [C:/Users/alexk/Desktop/MT_Task/MT_TK/Saved/Config/Windows/Scalability.ini]
[2021.07.06-13.08.00:116][  0]LogConfig: Setting CVar [[r.LightFunctionQuality:1]]
[2021.07.06-13.08.00:116][  0]LogConfig: Setting CVar [[r.ShadowQuality:5]]
[2021.07.06-13.08.00:116][  0]LogConfig: Setting CVar [[r.Shadow.CSM.MaxCascades:10]]
[2021.07.06-13.08.00:116][  0]LogConfig: Setting CVar [[r.Shadow.MaxResolution:2048]]
[2021.07.06-13.08.00:116][  0]LogConfig: Setting CVar [[r.Shadow.MaxCSMResolution:2048]]
[2021.07.06-13.08.00:116][  0]LogConfig: Setting CVar [[r.Shadow.RadiusThreshold:0.01]]
[2021.07.06-13.08.00:116][  0]LogConfig: Setting CVar [[r.Shadow.DistanceScale:1.0]]
[2021.07.06-13.08.00:116][  0]LogConfig: Setting CVar [[r.Shadow.CSM.TransitionScale:1.0]]
[2021.07.06-13.08.00:116][  0]LogConfig: Setting CVar [[r.Shadow.PreShadowResolutionFactor:1.0]]
[2021.07.06-13.08.00:116][  0]LogConfig: Setting CVar [[r.DistanceFieldShadowing:1]]
[2021.07.06-13.08.00:116][  0]LogConfig: Setting CVar [[r.DistanceFieldAO:1]]
[2021.07.06-13.08.00:116][  0]LogConfig: Setting CVar [[r.AOQuality:2]]
[2021.07.06-13.08.00:116][  0]LogConfig: Setting CVar [[r.VolumetricFog:1]]
[2021.07.06-13.08.00:116][  0]LogConfig: Setting CVar [[r.VolumetricFog.GridPixelSize:8]]
[2021.07.06-13.08.00:116][  0]LogConfig: Setting CVar [[r.VolumetricFog.GridSizeZ:128]]
[2021.07.06-13.08.00:117][  0]LogConfig: Setting CVar [[r.VolumetricFog.HistoryMissSupersampleCount:4]]
[2021.07.06-13.08.00:117][  0]LogConfig: Setting CVar [[r.LightMaxDrawDistanceScale:1]]
[2021.07.06-13.08.00:117][  0]LogConfig: Setting CVar [[r.CapsuleShadows:1]]
[2021.07.06-13.08.00:117][  0]LogConfig: Applying CVar settings from Section [PostProcessQuality@3] File [C:/Users/alexk/Desktop/MT_Task/MT_TK/Saved/Config/Windows/Scalability.ini]
[2021.07.06-13.08.00:117][  0]LogConfig: Setting CVar [[r.MotionBlurQuality:4]]
[2021.07.06-13.08.00:117][  0]LogConfig: Setting CVar [[r.AmbientOcclusionMipLevelFactor:0.4]]
[2021.07.06-13.08.00:117][  0]LogConfig: Setting CVar [[r.AmbientOcclusionMaxQuality:100]]
[2021.07.06-13.08.00:117][  0]LogConfig: Setting CVar [[r.AmbientOcclusionLevels:-1]]
[2021.07.06-13.08.00:117][  0]LogConfig: Setting CVar [[r.AmbientOcclusionRadiusScale:1.0]]
[2021.07.06-13.08.00:117][  0]LogConfig: Setting CVar [[r.DepthOfFieldQuality:2]]
[2021.07.06-13.08.00:117][  0]LogConfig: Setting CVar [[r.RenderTargetPoolMin:400]]
[2021.07.06-13.08.00:117][  0]LogConfig: Setting CVar [[r.LensFlareQuality:2]]
[2021.07.06-13.08.00:117][  0]LogConfig: Setting CVar [[r.SceneColorFringeQuality:1]]
[2021.07.06-13.08.00:117][  0]LogConfig: Setting CVar [[r.EyeAdaptationQuality:2]]
[2021.07.06-13.08.00:117][  0]LogConfig: Setting CVar [[r.BloomQuality:5]]
[2021.07.06-13.08.00:117][  0]LogConfig: Setting CVar [[r.FastBlurThreshold:100]]
[2021.07.06-13.08.00:117][  0]LogConfig: Setting CVar [[r.Upscale.Quality:3]]
[2021.07.06-13.08.00:117][  0]LogConfig: Setting CVar [[r.Tonemapper.GrainQuantization:1]]
[2021.07.06-13.08.00:117][  0]LogConfig: Setting CVar [[r.LightShaftQuality:1]]
[2021.07.06-13.08.00:117][  0]LogConfig: Setting CVar [[r.Filter.SizeScale:1]]
[2021.07.06-13.08.00:117][  0]LogConfig: Setting CVar [[r.Tonemapper.Quality:5]]
[2021.07.06-13.08.00:117][  0]LogConfig: Setting CVar [[r.DOF.Gather.AccumulatorQuality:1        ; higher gathering accumulator quality]]
[2021.07.06-13.08.00:117][  0]LogConfig: Setting CVar [[r.DOF.Gather.PostfilterMethod:1          ; Median3x3 postfilering method]]
[2021.07.06-13.08.00:117][  0]LogConfig: Setting CVar [[r.DOF.Gather.EnableBokehSettings:0       ; no bokeh simulation when gathering]]
[2021.07.06-13.08.00:117][  0]LogConfig: Setting CVar [[r.DOF.Gather.RingCount:4                 ; medium number of samples when gathering]]
[2021.07.06-13.08.00:117][  0]LogConfig: Setting CVar [[r.DOF.Scatter.ForegroundCompositing:1    ; additive foreground scattering]]
[2021.07.06-13.08.00:117][  0]LogConfig: Setting CVar [[r.DOF.Scatter.BackgroundCompositing:2    ; additive background scattering]]
[2021.07.06-13.08.00:117][  0]LogConfig: Setting CVar [[r.DOF.Scatter.EnableBokehSettings:1      ; bokeh simulation when scattering]]
[2021.07.06-13.08.00:117][  0]LogConfig: Setting CVar [[r.DOF.Scatter.MaxSpriteRatio:0.1         ; only a maximum of 10% of scattered bokeh]]
[2021.07.06-13.08.00:117][  0]LogConfig: Setting CVar [[r.DOF.Recombine.Quality:1                ; cheap slight out of focus]]
[2021.07.06-13.08.00:117][  0]LogConfig: Setting CVar [[r.DOF.Recombine.EnableBokehSettings:0    ; no bokeh simulation on slight out of focus]]
[2021.07.06-13.08.00:117][  0]LogConfig: Setting CVar [[r.DOF.TemporalAAQuality:1                ; more stable temporal accumulation]]
[2021.07.06-13.08.00:117][  0]LogConfig: Setting CVar [[r.DOF.Kernel.MaxForegroundRadius:0.025]]
[2021.07.06-13.08.00:117][  0]LogConfig: Setting CVar [[r.DOF.Kernel.MaxBackgroundRadius:0.025]]
[2021.07.06-13.08.00:117][  0]LogConfig: Applying CVar settings from Section [TextureQuality@3] File [C:/Users/alexk/Desktop/MT_Task/MT_TK/Saved/Config/Windows/Scalability.ini]
[2021.07.06-13.08.00:117][  0]LogConfig: Setting CVar [[r.Streaming.MipBias:0]]
[2021.07.06-13.08.00:117][  0]LogConfig: Setting CVar [[r.Streaming.AmortizeCPUToGPUCopy:0]]
[2021.07.06-13.08.00:117][  0]LogConfig: Setting CVar [[r.Streaming.MaxNumTexturesToStreamPerFrame:0]]
[2021.07.06-13.08.00:117][  0]LogConfig: Setting CVar [[r.Streaming.Boost:1]]
[2021.07.06-13.08.00:117][  0]LogConfig: Setting CVar [[r.MaxAnisotropy:8]]
[2021.07.06-13.08.00:117][  0]LogConfig: Setting CVar [[r.VT.MaxAnisotropy:8]]
[2021.07.06-13.08.00:117][  0]LogConfig: Setting CVar [[r.Streaming.LimitPoolSizeToVRAM:0]]
[2021.07.06-13.08.00:117][  0]LogConfig: Setting CVar [[r.Streaming.PoolSize:1000]]
[2021.07.06-13.08.00:117][  0]LogConfig: Setting CVar [[r.Streaming.MaxEffectiveScreenSize:0]]
[2021.07.06-13.08.00:117][  0]LogConfig: Applying CVar settings from Section [EffectsQuality@3] File [C:/Users/alexk/Desktop/MT_Task/MT_TK/Saved/Config/Windows/Scalability.ini]
[2021.07.06-13.08.00:117][  0]LogConfig: Setting CVar [[r.TranslucencyLightingVolumeDim:64]]
[2021.07.06-13.08.00:117][  0]LogConfig: Setting CVar [[r.RefractionQuality:2]]
[2021.07.06-13.08.00:117][  0]LogConfig: Setting CVar [[r.SSR.Quality:3]]
[2021.07.06-13.08.00:117][  0]LogConfig: Setting CVar [[r.SSR.HalfResSceneColor:0]]
[2021.07.06-13.08.00:117][  0]LogConfig: Setting CVar [[r.SceneColorFormat:4]]
[2021.07.06-13.08.00:117][  0]LogConfig: Setting CVar [[r.DetailMode:2]]
[2021.07.06-13.08.00:117][  0]LogConfig: Setting CVar [[r.TranslucencyVolumeBlur:1]]
[2021.07.06-13.08.00:117][  0]LogConfig: Setting CVar [[r.MaterialQualityLevel:1 ; High quality]]
[2021.07.06-13.08.00:117][  0]LogConfig: Setting CVar [[r.AnisotropicMaterials:1]]
[2021.07.06-13.08.00:117][  0]LogConfig: Setting CVar [[r.SSS.Scale:1]]
[2021.07.06-13.08.00:117][  0]LogConfig: Setting CVar [[r.SSS.SampleSet:2]]
[2021.07.06-13.08.00:117][  0]LogConfig: Setting CVar [[r.SSS.Quality:1]]
[2021.07.06-13.08.00:117][  0]LogConfig: Setting CVar [[r.SSS.HalfRes:0]]
[2021.07.06-13.08.00:117][  0]LogConfig: Setting CVar [[r.SSGI.Quality:3]]
[2021.07.06-13.08.00:117][  0]LogConfig: Setting CVar [[r.EmitterSpawnRateScale:1.0]]
[2021.07.06-13.08.00:117][  0]LogConfig: Setting CVar [[r.ParticleLightQuality:2]]
[2021.07.06-13.08.00:117][  0]LogConfig: Setting CVar [[r.SkyAtmosphere.AerialPerspectiveLUT.FastApplyOnOpaque:1 ; Always have FastSkyLUT 1 in this case to avoid wrong sky]]
[2021.07.06-13.08.00:117][  0]LogConfig: Setting CVar [[r.SkyAtmosphere.AerialPerspectiveLUT.SampleCountMaxPerSlice:4]]
[2021.07.06-13.08.00:117][  0]LogConfig: Setting CVar [[r.SkyAtmosphere.AerialPerspectiveLUT.DepthResolution:16.0]]
[2021.07.06-13.08.00:117][  0]LogConfig: Setting CVar [[r.SkyAtmosphere.FastSkyLUT:1]]
[2021.07.06-13.08.00:117][  0]LogConfig: Setting CVar [[r.SkyAtmosphere.FastSkyLUT.SampleCountMin:4.0]]
[2021.07.06-13.08.00:117][  0]LogConfig: Setting CVar [[r.SkyAtmosphere.FastSkyLUT.SampleCountMax:128.0]]
[2021.07.06-13.08.00:117][  0]LogConfig: Setting CVar [[r.SkyAtmosphere.SampleCountMin:4.0]]
[2021.07.06-13.08.00:117][  0]LogConfig: Setting CVar [[r.SkyAtmosphere.SampleCountMax:128.0]]
[2021.07.06-13.08.00:117][  0]LogConfig: Setting CVar [[r.SkyAtmosphere.TransmittanceLUT.UseSmallFormat:0]]
[2021.07.06-13.08.00:117][  0]LogConfig: Setting CVar [[r.SkyAtmosphere.TransmittanceLUT.SampleCount:10.0]]
[2021.07.06-13.08.00:117][  0]LogConfig: Setting CVar [[r.SkyAtmosphere.MultiScatteringLUT.SampleCount:15.0]]
[2021.07.06-13.08.00:117][  0]LogConfig: Applying CVar settings from Section [FoliageQuality@3] File [C:/Users/alexk/Desktop/MT_Task/MT_TK/Saved/Config/Windows/Scalability.ini]
[2021.07.06-13.08.00:117][  0]LogConfig: Setting CVar [[foliage.DensityScale:1.0]]
[2021.07.06-13.08.00:117][  0]LogConfig: Setting CVar [[grass.DensityScale:1.0]]
[2021.07.06-13.08.00:117][  0]LogConfig: Applying CVar settings from Section [ShadingQuality@3] File [C:/Users/alexk/Desktop/MT_Task/MT_TK/Saved/Config/Windows/Scalability.ini]
[2021.07.06-13.08.00:117][  0]LogConfig: Setting CVar [[r.HairStrands.SkyLighting.IntegrationType:2]]
[2021.07.06-13.08.00:117][  0]LogConfig: Setting CVar [[r.HairStrands.SkyAO.SampleCount:4]]
[2021.07.06-13.08.00:117][  0]LogConfig: Setting CVar [[r.HairStrands.Visibility.MSAA.SamplePerPixel:4]]
[2021.07.06-13.08.00:117][  0]LogConfig: Applying CVar settings from Section [Startup] File [../../../Engine/Config/ConsoleVariables.ini]
[2021.07.06-13.08.00:118][  0]LogConfig: Setting CVar [[net.UseAdaptiveNetUpdateFrequency:0]]
[2021.07.06-13.08.00:118][  0]LogConfig: Setting CVar [[p.chaos.AllowCreatePhysxBodies:1]]
[2021.07.06-13.08.00:118][  0]LogConfig: Setting CVar [[fx.SkipVectorVMBackendOptimizations:1]]
[2021.07.06-13.08.00:118][  0]LogConfig: Applying CVar settings from Section [ConsoleVariables] File [C:/Users/alexk/Desktop/MT_Task/MT_TK/Saved/Config/Windows/Engine.ini]
[2021.07.06-13.08.00:118][  0]LogConfig: Applying CVar settings from Section [ConsoleVariables] File [C:/Users/alexk/Desktop/MT_Task/MT_TK/Saved/Config/Windows/Editor.ini]
[2021.07.06-13.08.00:125][  0]LogInit: Computer: KOSWA
[2021.07.06-13.08.00:125][  0]LogInit: User: alexk
[2021.07.06-13.08.00:125][  0]LogInit: CPU Page size=4096, Cores=6
[2021.07.06-13.08.00:125][  0]LogInit: High frequency timer resolution =10.000000 MHz
[2021.07.06-13.08.00:125][  0]LogMemory: Memory total: Physical=15.9GB (16GB approx)
[2021.07.06-13.08.00:125][  0]LogMemory: Platform Memory Stats for Windows
[2021.07.06-13.08.00:125][  0]LogMemory: Process Physical Memory: 133.33 MB used, 133.33 MB peak
[2021.07.06-13.08.00:125][  0]LogMemory: Process Virtual Memory: 112.38 MB used, 112.38 MB peak
[2021.07.06-13.08.00:125][  0]LogMemory: Physical Memory: 9766.21 MB used,  6542.18 MB free, 16308.40 MB total
[2021.07.06-13.08.00:125][  0]LogMemory: Virtual Memory: 134204536.00 MB used,  13193.38 MB free, 134217728.00 MB total
[2021.07.06-13.08.00:131][  0]LogWindows: WindowsPlatformFeatures enabled
[2021.07.06-13.08.00:507][  0]LogInit: Physics initialised using underlying interface: PhysX
[2021.07.06-13.08.00:519][  0]LogInit: Using OS detected language (ru-RU).
[2021.07.06-13.08.00:519][  0]LogInit: Using OS detected locale (ru-RU).
[2021.07.06-13.08.00:618][  0]LogTextLocalizationManager: No specific localization for 'ru-RU' exists, so the 'ru' localization will be used.
[2021.07.06-13.08.00:618][  0]LogTextLocalizationResource: LocRes '../../../Engine/Content/Localization/Editor/ru/Editor.locres' could not be opened for reading!
[2021.07.06-13.08.00:618][  0]LogTextLocalizationResource: LocRes '../../../Engine/Content/Localization/EditorTutorials/ru/EditorTutorials.locres' could not be opened for reading!
[2021.07.06-13.08.00:618][  0]LogTextLocalizationResource: LocRes '../../../Engine/Content/Localization/Keywords/ru/Keywords.locres' could not be opened for reading!
[2021.07.06-13.08.00:618][  0]LogTextLocalizationResource: LocRes '../../../Engine/Content/Localization/Category/ru/Category.locres' could not be opened for reading!
[2021.07.06-13.08.00:628][  0]LogTextLocalizationResource: LocRes '../../../Engine/Content/Localization/ToolTips/ru/ToolTips.locres' could not be opened for reading!
[2021.07.06-13.08.00:629][  0]LogTextLocalizationResource: LocRes '../../../Engine/Content/Localization/PropertyNames/ru/PropertyNames.locres' could not be opened for reading!
[2021.07.06-13.08.00:629][  0]LogTextLocalizationResource: LocRes '../../../Engine/Content/Localization/Engine/ru/Engine.locres' could not be opened for reading!
[2021.07.06-13.08.00:723][  0]LogInit: Setting process to per monitor DPI aware
[2021.07.06-13.08.00:768][  0]LogWindowsTextInputMethodSystem: Display: IME system deactivated.
[2021.07.06-13.08.00:954][  0]LogSlate: New Slate User Created.  User Index 0, Is Virtual User: 0
[2021.07.06-13.08.00:954][  0]LogSlate: Slate User Registered.  User Index 0, Is Virtual User: 0
[2021.07.06-13.08.04:856][  0]LogHMD: Failed to initialize OpenVR with code 110
[2021.07.06-13.08.04:856][  0]LogD3D11RHI: D3D11 min allowed feature level: 11_0
[2021.07.06-13.08.04:856][  0]LogD3D11RHI: D3D11 max allowed feature level: 11_0
[2021.07.06-13.08.04:856][  0]LogD3D11RHI: D3D11 adapters:
[2021.07.06-13.08.04:950][  0]LogD3D11RHI:    0. 'NVIDIA GeForce RTX 2060' (Feature Level 11_0)
[2021.07.06-13.08.04:950][  0]LogD3D11RHI:       5980/0/8154 MB DedicatedVideo/DedicatedSystem/SharedSystem, Outputs:2, VendorId:0x10de
[2021.07.06-13.08.04:953][  0]LogD3D11RHI:    1. 'Microsoft Basic Render Driver' (Feature Level 11_0)
[2021.07.06-13.08.04:953][  0]LogD3D11RHI:       0/0/8154 MB DedicatedVideo/DedicatedSystem/SharedSystem, Outputs:0, VendorId:0x1414
[2021.07.06-13.08.04:953][  0]LogD3D11RHI: Chosen D3D11 Adapter: 0
[2021.07.06-13.08.04:959][  0]LogD3D11RHI: Creating new Direct3DDevice
[2021.07.06-13.08.04:959][  0]LogD3D11RHI:     GPU DeviceId: 0x1f08 (for the marketing name, search the web for "GPU Device Id")
[2021.07.06-13.08.04:959][  0]LogWindows: EnumDisplayDevices:
[2021.07.06-13.08.04:960][  0]LogWindows:    0. 'NVIDIA GeForce RTX 2060' (P:0 D:1)
[2021.07.06-13.08.04:960][  0]LogWindows:    1. 'NVIDIA GeForce RTX 2060' (P:1 D:1)
[2021.07.06-13.08.04:960][  0]LogWindows:    2. 'NVIDIA GeForce RTX 2060' (P:0 D:0)
[2021.07.06-13.08.04:960][  0]LogWindows:    3. 'NVIDIA GeForce RTX 2060' (P:0 D:0)
[2021.07.06-13.08.04:960][  0]LogWindows: DebugString: FoundDriverCount:4 
[2021.07.06-13.08.04:960][  0]LogD3D11RHI:     Adapter Name: NVIDIA GeForce RTX 2060
[2021.07.06-13.08.04:960][  0]LogD3D11RHI:   Driver Version: 466.63 (internal:27.21.14.6663, unified:466.63)
[2021.07.06-13.08.04:960][  0]LogD3D11RHI:      Driver Date: 5-27-2021
[2021.07.06-13.08.04:960][  0]LogRHI: Texture pool is 4186 MB (70% of 5980 MB)
[2021.07.06-13.08.05:037][  0]LogD3D11RHI: RHI has support for 64 bit atomics
[2021.07.06-13.08.05:037][  0]LogD3D11RHI: Async texture creation enabled
[2021.07.06-13.08.05:037][  0]LogD3D11RHI: Array index from any shader is supported
[2021.07.06-13.08.05:038][  0]LogD3D11RHI: HDR output is supported on display 0 (NvId: 0x80061080).
[2021.07.06-13.08.05:244][  0]LogD3D11RHI: GPU Timing Frequency: 1000.000000 (Debug: 2 1)
[2021.07.06-13.08.05:246][  0]LogRHI: GeForceNow SDK initialized: 1
[2021.07.06-13.08.05:532][  0]LogTargetPlatformManager: Display: Loaded TargetPlatform 'AllDesktop'
[2021.07.06-13.08.05:564][  0]LogTargetPlatformManager: Display: Loaded TargetPlatform 'Android'
[2021.07.06-13.08.05:564][  0]LogTargetPlatformManager: Display: Loaded TargetPlatform 'Android_ASTC'
[2021.07.06-13.08.05:564][  0]LogTargetPlatformManager: Display: Loaded TargetPlatform 'Android_DXT'
[2021.07.06-13.08.05:564][  0]LogTargetPlatformManager: Display: Loaded TargetPlatform 'Android_ETC2'
[2021.07.06-13.08.05:564][  0]LogTargetPlatformManager: Display: Loaded TargetPlatform 'AndroidClient'
[2021.07.06-13.08.05:564][  0]LogTargetPlatformManager: Display: Loaded TargetPlatform 'Android_ASTCClient'
[2021.07.06-13.08.05:564][  0]LogTargetPlatformManager: Display: Loaded TargetPlatform 'Android_DXTClient'
[2021.07.06-13.08.05:564][  0]LogTargetPlatformManager: Display: Loaded TargetPlatform 'Android_ETC2Client'
[2021.07.06-13.08.05:564][  0]LogTargetPlatformManager: Display: Loaded TargetPlatform 'Android_Multi'
[2021.07.06-13.08.05:564][  0]LogTargetPlatformManager: Display: Loaded TargetPlatform 'Android_MultiClient'
[2021.07.06-13.08.05:609][  0]LogTargetPlatformManager: Display: Loaded TargetPlatform 'IOSClient'
[2021.07.06-13.08.05:609][  0]LogTargetPlatformManager: Display: Loaded TargetPlatform 'IOS'
[2021.07.06-13.08.05:658][  0]LogTargetPlatformManager: Display: Loaded TargetPlatform 'Linux'
[2021.07.06-13.08.05:671][  0]LogTargetPlatformManager: Display: Loaded TargetPlatform 'LinuxNoEditor'
[2021.07.06-13.08.05:687][  0]LogTargetPlatformManager: Display: Loaded TargetPlatform 'LinuxClient'
[2021.07.06-13.08.05:704][  0]LogTargetPlatformManager: Display: Loaded TargetPlatform 'LinuxServer'
[2021.07.06-13.08.05:716][  0]LogTargetPlatformManager: Display: Loaded TargetPlatform 'LinuxAArch64NoEditor'
[2021.07.06-13.08.05:724][  0]LogTargetPlatformManager: Display: Loaded TargetPlatform 'LinuxAArch64Client'
[2021.07.06-13.08.05:740][  0]LogTargetPlatformManager: Display: Loaded TargetPlatform 'LinuxAArch64Server'
[2021.07.06-13.08.05:766][  0]LogTargetPlatformManager: Display: Loaded TargetPlatform 'Lumin'
[2021.07.06-13.08.05:766][  0]LogTargetPlatformManager: Display: Loaded TargetPlatform 'LuminClient'
[2021.07.06-13.08.05:780][  0]LogTargetPlatformManager: Display: Loaded TargetPlatform 'MacNoEditor'
[2021.07.06-13.08.05:817][  0]LogTargetPlatformManager: Display: Loaded TargetPlatform 'Mac'
[2021.07.06-13.08.05:834][  0]LogTargetPlatformManager: Display: Loaded TargetPlatform 'MacClient'
[2021.07.06-13.08.05:856][  0]LogTargetPlatformManager: Display: Loaded TargetPlatform 'MacServer'
[2021.07.06-13.08.05:879][  0]LogTargetPlatformManager: Display: Loaded TargetPlatform 'TVOSClient'
[2021.07.06-13.08.05:879][  0]LogTargetPlatformManager: Display: Loaded TargetPlatform 'TVOS'
[2021.07.06-13.08.05:898][  0]LogTargetPlatformManager: Display: Loaded TargetPlatform 'WindowsNoEditor'
[2021.07.06-13.08.05:922][  0]LogTargetPlatformManager: Display: Loaded TargetPlatform 'Windows'
[2021.07.06-13.08.05:939][  0]LogTargetPlatformManager: Display: Loaded TargetPlatform 'WindowsClient'
[2021.07.06-13.08.05:953][  0]LogTargetPlatformManager: Display: Loaded TargetPlatform 'WindowsServer'
[2021.07.06-13.08.05:953][  0]LogTargetPlatformManager: Display: Building Assets For Windows
[2021.07.06-13.08.05:989][  0]LogAudioDebug: Display: Lib vorbis DLL was dynamically loaded.
[2021.07.06-13.08.06:566][  0]LogRendererCore: Ray tracing is disabled. Reason: r.RayTracing=0.
[2021.07.06-13.08.06:580][  0]LogShaderCompilers: Guid format shader working directory is 9 characters bigger than the processId version (C:/Users/alexk/Desktop/MT_Task/MT_TK/Intermediate/Shaders/WorkingDirectory/15032/).
[2021.07.06-13.08.06:580][  0]LogShaderCompilers: Cleaned the shader compiler working directory 'C:/Users/alexk/AppData/Local/Temp/UnrealShaderWorkingDir/6CDB87BC4805CA3C01230188EEA974EE/'.
[2021.07.06-13.08.06:580][  0]LogShaderCompilers: Cannot use XGE Shader Compiler as Incredibuild is not installed on this machine.
[2021.07.06-13.08.06:580][  0]LogShaderCompilers: Display: Using Local Shader Compiler.
[2021.07.06-13.08.11:703][  0]LogDerivedDataCache: Display: Max Cache Size: 512 MB
[2021.07.06-13.08.11:923][  0]LogDerivedDataCache: Loaded boot cache 0.21s 88MB C:/Users/alexk/AppData/Local/UnrealEngine/4.26/DerivedDataCache/Boot.ddc.
[2021.07.06-13.08.11:923][  0]LogDerivedDataCache: Display: Loaded Boot cache: C:/Users/alexk/AppData/Local/UnrealEngine/4.26/DerivedDataCache/Boot.ddc
[2021.07.06-13.08.11:924][  0]LogDerivedDataCache: FDerivedDataBackendGraph:  Pak pak cache file C:/Users/alexk/Desktop/MT_Task/MT_TK/DerivedDataCache/DDC.ddp not found, will not use a pak cache.
[2021.07.06-13.08.11:924][  0]LogDerivedDataCache: Unable to find inner node Pak for hierarchical cache Hierarchy.
[2021.07.06-13.08.11:924][  0]LogDerivedDataCache: FDerivedDataBackendGraph:  CompressedPak pak cache file C:/Users/alexk/Desktop/MT_Task/MT_TK/DerivedDataCache/Compressed.ddp not found, will not use a pak cache.
[2021.07.06-13.08.11:924][  0]LogDerivedDataCache: Unable to find inner node CompressedPak for hierarchical cache Hierarchy.
[2021.07.06-13.08.11:969][  0]LogDerivedDataCache: Display: Pak cache opened for reading ../../../Engine/DerivedDataCache/Compressed.ddp.
[2021.07.06-13.08.11:969][  0]LogDerivedDataCache: FDerivedDataBackendGraph:  EnterprisePak pak cache file ../../../Enterprise/DerivedDataCache/Compressed.ddp not found, will not use a pak cache.
[2021.07.06-13.08.11:969][  0]LogDerivedDataCache: Unable to find inner node EnterprisePak for hierarchical cache Hierarchy.
[2021.07.06-13.08.11:988][  0]LogDerivedDataCache: Speed tests for C:/Users/alexk/AppData/Local/UnrealEngine/Common/DerivedDataCache took 0.02 seconds
[2021.07.06-13.08.11:988][  0]LogDerivedDataCache: Display: Performance to C:/Users/alexk/AppData/Local/UnrealEngine/Common/DerivedDataCache: Latency=0.34ms. RandomReadSpeed=138.47MBs, RandomWriteSpeed=131.60MBs. Assigned SpeedClass 'Local'
[2021.07.06-13.08.11:988][  0]LogDerivedDataCache: Using Local data cache path C:/Users/alexk/AppData/Local/UnrealEngine/Common/DerivedDataCache: Writable
[2021.07.06-13.08.11:988][  0]LogDerivedDataCache: Shared data cache path not found in *engine.ini, will not use an Shared cache.
[2021.07.06-13.08.11:988][  0]LogDerivedDataCache: Unable to find inner node Shared for hierarchical cache Hierarchy.
[2021.07.06-13.08.12:038][  0]LogSlate: Using FreeType 2.10.0
[2021.07.06-13.08.12:038][  0]LogSlate: SlateFontServices - WITH_FREETYPE: 1, WITH_HARFBUZZ: 1
[2021.07.06-13.08.12:192][  0]LogAssetRegistry: FAssetRegistry took 0.0022 seconds to start up
[2021.07.06-13.08.15:654][  0]LogInit: Selected Device Profile: [Windows]
[2021.07.06-13.08.15:654][  0]LogInit: Active device profile: [000001FD26209F00][000001FD17592140 49] Windows
[2021.07.06-13.08.15:654][  0]LogInit: Profiles: [000001FD26209F00][000001FD17592140 49] Windows, [000001FD261CFC00][000001FD1759A2C0 49] WindowsNoEditor, [000001FD2620BA00][000001FD1C8B6440 49] WindowsServer, [000001FD261CC800][000001FD1C8BA5C0 49] WindowsClient, [000001FD26208900][000001FD1C8BE740 49] IOS, [000001FD261CED00][000001FD1C8C28C0 49] iPadAir, [000001FD26209600][000001FD1C8C6A40 49] iPadAir2, [000001FD27173600][000001FD1C8CED00 49] IPadPro, [000001FD27173700][000001FD1C8CAD40 49] iPadAir3, [000001FD26209300][000001FD2606CEC0 49] iPadAir4, [000001FD27173800][000001FD26071040 49] iPadMini2, [000001FD2620A300][000001FD260751C0 49] iPadMini3, [000001FD27172500][000001FD26079340 49] iPadMini4, [000001FD2620BD00][000001FD2607D4C0 49] iPadMini5, [000001FD261BEE00][000001FD26081700 49] iPhone6, [000001FD261BEF00][000001FD17597740 49] iPodTouch6, [000001FD27173F00][000001FD26089980 49] iPhone7, [000001FD27173500][000001FD260859C0 49] iPodTouch7, [000001FD261BE700][000001FD26091B40 49] iPhone5S, [000001FD27173400][000001FD26095CC0 49] iPhone6Plus, [000001FD261BFE00][000001FD26098180 49] iPhone6S, [000001FD27171000][000001FD2609C300 49] iPhone6SPlus, [000001FD261BE900][000001FD260A0480 49] iPhone7Plus, [000001FD27172800][000001FD260A4600 49] iPhoneSE, [000001FD261BE800][000001FD260A8780 49] iPhone8, [000001FD27171400][000001FD260AC900 49] iPhone8Plus, [000001FD261BDF00][000001FD260B0A80 49] iPhoneX, [000001FD27171B00][000001FD260B4C00 49] iPhoneXS, [000001FD261BC600][000001FD260B8D80 49] iPhoneXSMax, [000001FD27170200][000001FD260BCF00 49] iPhoneXR, [000001FD261BF400][000001FD260C1080 49] iPhone11, [000001FD27173300][000001FD260C5200 49] iPhone11Pro, [000001FD261BC700][000001FD260C9380 49] iPhone11ProMax, [000001FD27170800][000001FD260CD500 49] iPhoneSE2, [000001FD261BDC00][000001FD2608D640 49] iPhone12Mini, [000001FD27171D00][000001FD260D1780 49] iPhone12, [000001FD261BD600][000001FD260D58C0 49] iPhone12Pro, [000001FD27173100][000001FD260D9A00 49] iPhone12ProMax, [000001FD261BE400][000001FD260E1B80 49] iPadPro105, [000001FD27173B00][000001FD260E5D00 49] iPadPro129, [000001FD261BFC00][000001FD260E81C0 49] iPadPro97, [000001FD27171900][000001FD260EC340 49] iPadPro2_129, [000001FD261CD300][000001FD260F04C0 49] iPad5, [000001FD261BF700][000001FD260F4640 49] iPad6, [000001FD261CDE00][000001FD260F87C0 49] iPad7, [000001FD261BCB00][000001FD260FC940 49] iPad8, [000001FD261CF600][000001FD26100AC0 49] iPadPro11, [000001FD261BEB00][000001FD26104C40 49] iPadPro2_11, [000001FD261CF900][000001FD26108DC0 49] iPadPro3_129, [000001FD261BE000][000001FD2610CF40 49] iPadPro4_129, [000001FD261CDD00][000001FD261110C0 49] AppleTV, [000001FD261BDB00][000001FD26115240 49] AppleTV4K, [000001FD261CC400][000001FD261193C0 49] TVOS, [000001FD261BC800][000001FD2611D540 49] Mac, [000001FD27170D00][000001FD261216C0 49] MacClient, [000001FD261CFD00][000001FD260DD800 49] MacNoEditor, [000001FD27172600][000001FD26125940 49] MacServer, [000001FD261BC500][000001FD26129A80 49] Linux, [000001FD27171200][000001FD26131C00 49] LinuxAArch64, [000001FD261BE200][000001FD261340C0 49] LinuxNoEditor, [000001FD27171500][000001FD26138240 49] LinuxAArch64NoEditor, [000001FD261BD500][000001FD2613C3C0 49] LinuxClient, [000001FD27173200][000001FD26140540 49] LinuxAArch64Client, [000001FD261BDD00][000001FD261446C0 49] LinuxServer, [000001FD27172200][000001FD26148840 49] LinuxAArch64Server, [000001FD261BC400][000001FD2614C9C0 49] Android, [000001FD27171E00][000001FD26150B40 49] Android_Low, [000001FD261BF800][000001FD26154CC0 49] Android_Mid, [000001FD27171100][000001FD26158E40 49] Android_High, [000001FD261BD100][000001FD2615CFC0 49] Android_Default, [000001FD27170700][000001FD26161140 49] Android_Adreno4xx, [000001FD261BF300][000001FD261652C0 49] Android_Adreno5xx_Low, [000001FD27170900][000001FD26169440 49] Android_Adreno5xx, [000001FD261BFB00][000001FD2616D5C0 49] Android_Adreno6xx, [000001FD27171300][000001FD26171740 49] Android_Adreno6xx_Vulkan, [000001FD261BCD00][000001FD2612D880 49] Android_Mali_T6xx, [000001FD27172400][000001FD261759C0 49] Android_Mali_T7xx, [000001FD261BF600][000001FD26179B00 49] Android_Mali_T8xx, [000001FD27170C00][000001FD2617DC40 49] Android_Mali_G71, [000001FD261BD400][000001FD26184100 49] Android_Mali_G72, [000001FD27173900][000001FD26188280 49] Android_Mali_G72_Vulkan, [000001FD261BD200][000001FD2618C400 49] Android_Mali_G76, [000001FD27170300][000001FD271A0580 49] Android_Mali_G76_Vulkan, [000001FD261BEA00][000001FD271A4700 49] Android_Mali_G77, [000001FD27170100][000001FD271A8880 49] Android_Mali_G77_Vulkan, [000001FD261BC100][000001FD271ACA00 49] Android_Vulkan_SM5, [000001FD27171F00][000001FD271B0B80 49] Android_PowerVR_G6xxx, [000001FD261BF900][000001FD271B4D00 49] Android_PowerVR_GT7xxx, [000001FD27170B00][000001FD271B8E80 49] Android_PowerVR_GE8xxx, [000001FD261BED00][000001FD271BD000 49] Android_PowerVR_GM9xxx, [000001FD27173D00][000001FD271C1180 49] Android_PowerVR_GM9xxx_Vulkan, [000001FD261BDE00][000001FD271C5300 49] Android_TegraK1, [000001FD27172900][000001FD271C9480 49] Android_Unknown_Vulkan, [000001FD261BCE00][000001FD271CD600 49] Lumin, [000001FD27172700][000001FD271D1780 49] Lumin_Desktop, [000001FD261BCA00][000001FD261818C0 49] HoloLens, 
[2021.07.06-13.08.16:797][  0]LogMeshReduction: Using QuadricMeshReduction for automatic static mesh reduction
[2021.07.06-13.08.16:797][  0]LogMeshReduction: Using SimplygonMeshReduction for automatic skeletal mesh reduction
[2021.07.06-13.08.16:797][  0]LogMeshReduction: Using ProxyLODMeshReduction for automatic mesh merging
[2021.07.06-13.08.16:797][  0]LogMeshReduction: No distributed automatic mesh merging module available
[2021.07.06-13.08.16:797][  0]LogMeshMerging: No distributed automatic mesh merging module available
[2021.07.06-13.08.17:145][  0]LogNetVersion: MT_TK 1.0.0, NetCL: 14830424, EngineNetVer: 16, GameNetVer: 0 (Checksum: 3066448156)
[2021.07.06-13.08.24:434][  0]LogHMD: PokeAHoleMaterial loaded successfully
[2021.07.06-13.08.24:499][  0]LogPackageLocalizationCache: Processed 22 localized package path(s) for 1 prioritized culture(s) in 0.055582 seconds
[2021.07.06-13.08.24:504][  0]LogUObjectArray: 16831 objects as part of root set at end of initial load.
[2021.07.06-13.08.24:504][  0]LogUObjectAllocator: 4209728 out of 0 bytes used by permanent object pool.
[2021.07.06-13.08.24:504][  0]LogUObjectArray: CloseDisregardForGC: 0/0 objects in disregard for GC pool
[2021.07.06-13.08.28:603][  0]LogTcpMessaging: Initializing TcpMessaging bridge
[2021.07.06-13.08.28:628][  0]LogUdpMessaging: Initializing bridge on interface 0.0.0.0:0 to multicast group 230.0.0.1:6666.
[2021.07.06-13.08.29:527][  0]SourceControl: Source control is disabled
[2021.07.06-13.08.29:527][  0]SourceControl: Source control is disabled
[2021.07.06-13.08.29:552][  0]SourceControl: Source control is disabled
[2021.07.06-13.08.29:590][  0]SourceControl: Source control is disabled
[2021.07.06-13.08.29:620][  0]SourceControl: Source control is disabled
[2021.07.06-13.08.29:634][  0]LogUProjectInfo: Found projects:
[2021.07.06-13.08.31:601][  0]LogAndroidPermission: UAndroidPermissionCallbackProxy::GetInstance
[2021.07.06-13.08.31:675][  0]LogAudioCaptureCore: Display: No Audio Capture implementations found. Audio input will be silent.
[2021.07.06-13.08.31:675][  0]LogAudioCaptureCore: Display: No Audio Capture implementations found. Audio input will be silent.
[2021.07.06-13.08.31:983][  0]LogCollectionManager: Loaded 0 collections in 0.000802 seconds
[2021.07.06-13.08.32:057][  0]LogFileCache: Scanning file cache for directory 'C:/Users/alexk/Desktop/MT_Task/MT_TK/Saved/Collections/' took 0.00s
[2021.07.06-13.08.32:057][  0]LogFileCache: Scanning file cache for directory 'C:/Users/alexk/Desktop/MT_Task/MT_TK/Content/Developers/alexk/Collections/' took 0.00s
[2021.07.06-13.08.32:057][  0]LogFileCache: Scanning file cache for directory 'C:/Users/alexk/Desktop/MT_Task/MT_TK/Content/Collections/' took 0.00s
[2021.07.06-13.08.32:057][  0]LogOcInput: OculusInput pre-init called
[2021.07.06-13.08.32:115][  0]LogWindows: Failed to load 'OVRPlugin.dll' (GetLastError=126)
[2021.07.06-13.08.32:115][  0]LogWindows: File 'OVRPlugin.dll' does not exist
[2021.07.06-13.08.32:681][  0]LogEngine: Initializing Engine...
[2021.07.06-13.08.32:690][  0]LogHMD: Failed to initialize OpenVR with code 110
[2021.07.06-13.08.32:703][  0]LogMagicLeap: Warning: VR disabled because ZI is not enabled.  To enable, in the editor, Edit -> Project Settings -> Plugins -> Magic Leap Plugin -> Enable Zero Iteration
[2021.07.06-13.08.32:711][  0]LogStats: UGameplayTagsManager::InitializeManager -  0.000 s
[2021.07.06-13.08.32:940][  0]LogInit: Initializing FReadOnlyCVARCache
[2021.07.06-13.08.33:033][  0]LogAIModule: Creating AISystem for world Untitled
[2021.07.06-13.08.33:033][  0]LogAudio: Display: Initializing Audio Device Manager...
[2021.07.06-13.08.33:058][  0]LogAudio: Display: Audio Device Manager Initialized
[2021.07.06-13.08.33:058][  0]LogAudio: Display: Creating Audio Device:                 Id: 1, Scope: Shared, Realtime: True
[2021.07.06-13.08.33:058][  0]LogAudioMixer: Display: Audio Mixer Platform Settings:
[2021.07.06-13.08.33:058][  0]LogAudioMixer: Display: 	Sample Rate:						  48000
[2021.07.06-13.08.33:058][  0]LogAudioMixer: Display: 	Callback Buffer Frame Size Requested: 1024
[2021.07.06-13.08.33:058][  0]LogAudioMixer: Display: 	Callback Buffer Frame Size To Use:	  1024
[2021.07.06-13.08.33:058][  0]LogAudioMixer: Display: 	Number of buffers to queue:			  2
[2021.07.06-13.08.33:058][  0]LogAudioMixer: Display: 	Max Channels (voices):				  32
[2021.07.06-13.08.33:058][  0]LogAudioMixer: Display: 	Number of Async Source Workers:		  0
[2021.07.06-13.08.33:058][  0]LogAudio: Display: AudioDevice MaxSources: 32
[2021.07.06-13.08.33:058][  0]LogAudio: Display: Using built-in audio occlusion.
[2021.07.06-13.08.33:058][  0]LogAudioMixer: Display: Initializing audio mixer.
[2021.07.06-13.08.33:124][  0]LogAudioMixer: Display: 0: FrontLeft
[2021.07.06-13.08.33:124][  0]LogAudioMixer: Display: 1: FrontRight
[2021.07.06-13.08.33:124][  0]LogAudioMixer: Display: 2: FrontCenter
[2021.07.06-13.08.33:124][  0]LogAudioMixer: Display: 3: LowFrequency
[2021.07.06-13.08.33:124][  0]LogAudioMixer: Display: 4: BackLeft
[2021.07.06-13.08.33:124][  0]LogAudioMixer: Display: 5: BackRight
[2021.07.06-13.08.33:124][  0]LogAudioMixer: Display: 6: SideLeft
[2021.07.06-13.08.33:124][  0]LogAudioMixer: Display: 7: SideRight
[2021.07.06-13.08.33:165][  0]LogAudioMixer: Display: Using Audio Device Динамики (3- Logitech PRO X Wireless Gaming Headset)
[2021.07.06-13.08.33:166][  0]LogAudioMixer: Display: Initializing Sound Submixes...
[2021.07.06-13.08.33:180][  0]LogAudioMixer: Display: Creating Master Submix 'MasterSubmixDefault'
[2021.07.06-13.08.33:180][  0]LogAudioMixer: Display: Creating Master Submix 'MasterReverbSubmixDefault'
[2021.07.06-13.08.33:181][  0]LogAudioMixer: Display: Creating Master Submix 'MasterEQSubmixDefault'
[2021.07.06-13.08.33:181][  0]LogAudioMixer: FMixerPlatformXAudio2::StartAudioStream() called
[2021.07.06-13.08.33:181][  0]LogAudioMixer: Display: Output buffers initialized: Frames=1024, Channels=8, Samples=8192
[2021.07.06-13.08.33:182][  0]LogAudioMixer: Display: Starting AudioMixerPlatformInterface::RunInternal()
[2021.07.06-13.08.33:182][  0]LogAudioMixer: Display: FMixerPlatformXAudio2::SubmitBuffer() called for the first time
[2021.07.06-13.08.33:182][  0]LogInit: FAudioDevice initialized.
[2021.07.06-13.08.33:182][  0]LogAudio: Display: Audio Device (ID: 1) registered with world 'Untitled'.
[2021.07.06-13.08.33:182][  0]LogNetVersion: Set ProjectVersion to 1.0.0.0. Version Checksum will be recalculated on next use.
[2021.07.06-13.08.33:221][  0]LogDerivedDataCache: Saved boot cache 0.04s 88MB C:/Users/alexk/AppData/Local/UnrealEngine/4.26/DerivedDataCache/Boot.ddc.
[2021.07.06-13.08.33:222][  0]LogInit: Texture streaming: Enabled
[2021.07.06-13.08.33:274][  0]LogAnalytics: Display: [UEEditor.Rocket.Release] APIServer = https://datarouter.ol.epicgames.com/. AppVersion = 4.26.2-15973114+++UE4+Release-4.26
[2021.07.06-13.08.33:297][  0]LogEngineSessionManager: EngineSessionManager initialized
[2021.07.06-13.08.33:297][  0]LogEngineSessionManager: EngineSessionManager sent abnormal shutdown report. Type=Crashed, SessionId={6D63957F-4CF7-6121-E411-9693D1017C61}
[2021.07.06-13.08.33:297][  0]LogEditorSessionSummary: Verbose: Initializing EditorSessionSummaryWriter for editor session tracking
[2021.07.06-13.08.33:299][  0]LogEditorSessionSummary: EditorSessionSummaryWriter initialized
[2021.07.06-13.08.33:475][  0]LogInit: Transaction tracking system initialized
[2021.07.06-13.08.33:739][  0]BlueprintLog: New page: Editor Load
[2021.07.06-13.08.34:423][  0]LocalizationService: Localization service is disabled
[2021.07.06-13.08.34:743][  0]TimingProfiler: Initialize
[2021.07.06-13.08.34:747][  0]TimingProfiler: OnSessionChanged
[2021.07.06-13.08.34:747][  0]LoadingProfiler: Initialize
[2021.07.06-13.08.34:748][  0]LoadingProfiler: OnSessionChanged
[2021.07.06-13.08.34:748][  0]NetworkingProfiler: Initialize
[2021.07.06-13.08.34:752][  0]NetworkingProfiler: OnSessionChanged
[2021.07.06-13.08.34:752][  0]MemoryProfiler: Initialize
[2021.07.06-13.08.34:752][  0]MemoryProfiler: OnSessionChanged
[2021.07.06-13.08.35:862][  0]LogFileCache: Scanning file cache for directory 'C:/Users/alexk/Desktop/MT_Task/MT_TK/Content/' took 0.01s
[2021.07.06-13.08.35:862][  0]LogCook: Display: CookSettings for Memory: MemoryMaxUsedVirtual 0MiB, MemoryMaxUsedPhysical 16384MiB, MemoryMinFreeVirtual 0MiB, MemoryMinFreePhysical 1024MiB
[2021.07.06-13.08.35:862][  0]LogCook: Display: Mobile HDR setting 1
[2021.07.06-13.08.37:917][  0]LogInit: Display: Engine is initialized. Leaving FEngineLoop::Init()
[2021.07.06-13.08.37:981][  0]SourceControl: Source control is disabled
[2021.07.06-13.08.37:991][  0]LogUnrealEdMisc: Loading editor; pre map load, took 40.917
[2021.07.06-13.08.37:991][  0]Cmd: MAP LOAD FILE="C:/Users/alexk/Desktop/MT_Task/MT_TK/Content/TopDownCPP/Maps/TopDownExampleMap.umap" TEMPLATE=0 SHOWPROGRESS=1 FEATURELEVEL=3
[2021.07.06-13.08.37:997][  0]LightingResults: New page: Lighting Build
[2021.07.06-13.08.38:010][  0]LogWorld: UWorld::CleanupWorld for Untitled, bSessionEnded=true, bCleanupResources=true
[2021.07.06-13.08.38:052][  0]LogSlate: InvalidateAllWidgets triggered.  All widgets were invalidated
[2021.07.06-13.08.38:073][  0]MapCheck: New page: Map Check
[2021.07.06-13.08.38:073][  0]LightingResults: New page: Lighting Build
[2021.07.06-13.08.38:117][  0]LogUObjectHash: Compacting FUObjectHashTables data took   0.77ms
[2021.07.06-13.08.38:418][  0]LogAudio: Display: Audio Device (ID: 1) registered with world 'TopDownExampleMap'.
[2021.07.06-13.08.38:419][  0]LogAIModule: Creating AISystem for world TopDownExampleMap
[2021.07.06-13.08.38:502][  0]LogEditorServer: Finished looking for orphan Actors (0.000 secs)
[2021.07.06-13.08.38:525][  0]LogUObjectHash: Compacting FUObjectHashTables data took   0.70ms
[2021.07.06-13.08.38:529][  0]Cmd: MAP CHECKDEP NOCLEARLOG
[2021.07.06-13.08.38:539][  0]MapCheck: Map check complete: 0 Error(s), 0 Warning(s), took 0,15ms to complete.
[2021.07.06-13.08.38:539][  0]LogFileHelpers: Loading map 'TopDownExampleMap' took 0.547
[2021.07.06-13.08.38:549][  0]LogUnrealEdMisc: Total Editor Startup Time, took 41.475
[2021.07.06-13.08.38:932][  0]LogSlate: Updating window title bar state: overlay mode, drag disabled, window buttons hidden, title bar hidden
[2021.07.06-13.08.38:939][  0]LogSlate: Updating window title bar state: overlay mode, drag disabled, window buttons hidden, title bar hidden
[2021.07.06-13.08.38:944][  0]LogSlate: Updating window title bar state: overlay mode, drag disabled, window buttons hidden, title bar hidden
[2021.07.06-13.08.38:949][  0]LogSlate: Updating window title bar state: overlay mode, drag disabled, window buttons hidden, title bar hidden
[2021.07.06-13.08.39:055][  0]LogNativeClassHierarchy: Verbose: Native class hierarchy populated in 0.0084 seconds. Added 3618 classes and 861 folders.
[2021.07.06-13.08.39:124][  0]LogNativeClassHierarchy: Verbose: Native class hierarchy updated for 'WidgetCarousel' in 0.0003 seconds. Added 0 classes and 0 folders.
[2021.07.06-13.08.39:232][  0]LogPakFile: PakFile PrimaryIndexSize=187
[2021.07.06-13.08.39:232][  0]LogPakFile: PakFile PathHashIndexSize=101
[2021.07.06-13.08.39:232][  0]LogPakFile: PakFile FullDirectoryIndexSize=148
[2021.07.06-13.08.39:232][  0]LogPakFile: OnPakFileMounted2Time == 0.000008
[2021.07.06-13.08.39:240][  0]LogPakFile: PakFile PrimaryIndexSize=189
[2021.07.06-13.08.39:240][  0]LogPakFile: PakFile PathHashIndexSize=101
[2021.07.06-13.08.39:240][  0]LogPakFile: PakFile FullDirectoryIndexSize=152
[2021.07.06-13.08.39:240][  0]LogPakFile: OnPakFileMounted2Time == 0.000011
[2021.07.06-13.08.39:246][  0]LogPakFile: PakFile PrimaryIndexSize=191
[2021.07.06-13.08.39:246][  0]LogPakFile: PakFile PathHashIndexSize=101
[2021.07.06-13.08.39:246][  0]LogPakFile: PakFile FullDirectoryIndexSize=160
[2021.07.06-13.08.39:246][  0]LogPakFile: OnPakFileMounted2Time == 0.000014
[2021.07.06-13.08.39:253][  0]LogPakFile: PakFile PrimaryIndexSize=185
[2021.07.06-13.08.39:253][  0]LogPakFile: PakFile PathHashIndexSize=101
[2021.07.06-13.08.39:253][  0]LogPakFile: PakFile FullDirectoryIndexSize=148
[2021.07.06-13.08.39:253][  0]LogPakFile: OnPakFileMounted2Time == 0.000017
[2021.07.06-13.08.39:260][  0]LogPakFile: PakFile PrimaryIndexSize=190
[2021.07.06-13.08.39:260][  0]LogPakFile: PakFile PathHashIndexSize=101
[2021.07.06-13.08.39:260][  0]LogPakFile: PakFile FullDirectoryIndexSize=154
[2021.07.06-13.08.39:260][  0]LogPakFile: OnPakFileMounted2Time == 0.000020
[2021.07.06-13.08.39:266][  0]LogPakFile: PakFile PrimaryIndexSize=192
[2021.07.06-13.08.39:266][  0]LogPakFile: PakFile PathHashIndexSize=101
[2021.07.06-13.08.39:266][  0]LogPakFile: PakFile FullDirectoryIndexSize=158
[2021.07.06-13.08.39:266][  0]LogPakFile: OnPakFileMounted2Time == 0.000022
[2021.07.06-13.08.39:272][  0]LogPakFile: PakFile PrimaryIndexSize=182
[2021.07.06-13.08.39:272][  0]LogPakFile: PakFile PathHashIndexSize=101
[2021.07.06-13.08.39:272][  0]LogPakFile: PakFile FullDirectoryIndexSize=138
[2021.07.06-13.08.39:273][  0]LogPakFile: OnPakFileMounted2Time == 0.000025
[2021.07.06-13.08.39:279][  0]LogPakFile: PakFile PrimaryIndexSize=184
[2021.07.06-13.08.39:279][  0]LogPakFile: PakFile PathHashIndexSize=101
[2021.07.06-13.08.39:279][  0]LogPakFile: PakFile FullDirectoryIndexSize=142
[2021.07.06-13.08.39:279][  0]LogPakFile: OnPakFileMounted2Time == 0.000027
[2021.07.06-13.08.39:287][  0]LogPakFile: PakFile PrimaryIndexSize=188
[2021.07.06-13.08.39:287][  0]LogPakFile: PakFile PathHashIndexSize=101
[2021.07.06-13.08.39:287][  0]LogPakFile: PakFile FullDirectoryIndexSize=150
[2021.07.06-13.08.39:287][  0]LogPakFile: OnPakFileMounted2Time == 0.000029
[2021.07.06-13.08.39:296][  0]LogPakFile: PakFile PrimaryIndexSize=182
[2021.07.06-13.08.39:296][  0]LogPakFile: PakFile PathHashIndexSize=101
[2021.07.06-13.08.39:296][  0]LogPakFile: PakFile FullDirectoryIndexSize=138
[2021.07.06-13.08.39:296][  0]LogPakFile: OnPakFileMounted2Time == 0.000032
[2021.07.06-13.08.39:302][  0]LogPakFile: PakFile PrimaryIndexSize=184
[2021.07.06-13.08.39:302][  0]LogPakFile: PakFile PathHashIndexSize=101
[2021.07.06-13.08.39:302][  0]LogPakFile: PakFile FullDirectoryIndexSize=142
[2021.07.06-13.08.39:302][  0]LogPakFile: OnPakFileMounted2Time == 0.000034
[2021.07.06-13.08.39:311][  0]LogPakFile: PakFile PrimaryIndexSize=183
[2021.07.06-13.08.39:311][  0]LogPakFile: PakFile PathHashIndexSize=101
[2021.07.06-13.08.39:311][  0]LogPakFile: PakFile FullDirectoryIndexSize=140
[2021.07.06-13.08.39:311][  0]LogPakFile: OnPakFileMounted2Time == 0.000037
[2021.07.06-13.08.39:318][  0]LogPakFile: PakFile PrimaryIndexSize=185
[2021.07.06-13.08.39:318][  0]LogPakFile: PakFile PathHashIndexSize=101
[2021.07.06-13.08.39:318][  0]LogPakFile: PakFile FullDirectoryIndexSize=144
[2021.07.06-13.08.39:318][  0]LogPakFile: OnPakFileMounted2Time == 0.000039
[2021.07.06-13.08.39:325][  0]LogPakFile: PakFile PrimaryIndexSize=188
[2021.07.06-13.08.39:325][  0]LogPakFile: PakFile PathHashIndexSize=101
[2021.07.06-13.08.39:325][  0]LogPakFile: PakFile FullDirectoryIndexSize=150
[2021.07.06-13.08.39:325][  0]LogPakFile: OnPakFileMounted2Time == 0.000042
[2021.07.06-13.08.39:331][  0]LogPakFile: PakFile PrimaryIndexSize=190
[2021.07.06-13.08.39:331][  0]LogPakFile: PakFile PathHashIndexSize=101
[2021.07.06-13.08.39:331][  0]LogPakFile: PakFile FullDirectoryIndexSize=154
[2021.07.06-13.08.39:331][  0]LogPakFile: OnPakFileMounted2Time == 0.000045
[2021.07.06-13.08.39:340][  0]LogPakFile: PakFile PrimaryIndexSize=187
[2021.07.06-13.08.39:340][  0]LogPakFile: PakFile PathHashIndexSize=101
[2021.07.06-13.08.39:340][  0]LogPakFile: PakFile FullDirectoryIndexSize=148
[2021.07.06-13.08.39:340][  0]LogPakFile: OnPakFileMounted2Time == 0.000047
[2021.07.06-13.08.39:347][  0]LogPakFile: PakFile PrimaryIndexSize=189
[2021.07.06-13.08.39:347][  0]LogPakFile: PakFile PathHashIndexSize=101
[2021.07.06-13.08.39:347][  0]LogPakFile: PakFile FullDirectoryIndexSize=152
[2021.07.06-13.08.39:348][  0]LogPakFile: OnPakFileMounted2Time == 0.000050
[2021.07.06-13.08.39:356][  0]LogPakFile: PakFile PrimaryIndexSize=183
[2021.07.06-13.08.39:356][  0]LogPakFile: PakFile PathHashIndexSize=101
[2021.07.06-13.08.39:356][  0]LogPakFile: PakFile FullDirectoryIndexSize=140
[2021.07.06-13.08.39:356][  0]LogPakFile: OnPakFileMounted2Time == 0.000052
[2021.07.06-13.08.39:363][  0]LogPakFile: PakFile PrimaryIndexSize=185
[2021.07.06-13.08.39:363][  0]LogPakFile: PakFile PathHashIndexSize=101
[2021.07.06-13.08.39:363][  0]LogPakFile: PakFile FullDirectoryIndexSize=144
[2021.07.06-13.08.39:363][  0]LogPakFile: OnPakFileMounted2Time == 0.000055
[2021.07.06-13.08.39:375][  0]LogPakFile: PakFile PrimaryIndexSize=185
[2021.07.06-13.08.39:375][  0]LogPakFile: PakFile PathHashIndexSize=101
[2021.07.06-13.08.39:375][  0]LogPakFile: PakFile FullDirectoryIndexSize=144
[2021.07.06-13.08.39:375][  0]LogPakFile: OnPakFileMounted2Time == 0.000057
[2021.07.06-13.08.39:382][  0]LogPakFile: PakFile PrimaryIndexSize=187
[2021.07.06-13.08.39:382][  0]LogPakFile: PakFile PathHashIndexSize=101
[2021.07.06-13.08.39:382][  0]LogPakFile: PakFile FullDirectoryIndexSize=148
[2021.07.06-13.08.39:382][  0]LogPakFile: OnPakFileMounted2Time == 0.000060
[2021.07.06-13.08.39:391][  0]LogPakFile: PakFile PrimaryIndexSize=183
[2021.07.06-13.08.39:391][  0]LogPakFile: PakFile PathHashIndexSize=101
[2021.07.06-13.08.39:391][  0]LogPakFile: PakFile FullDirectoryIndexSize=140
[2021.07.06-13.08.39:391][  0]LogPakFile: OnPakFileMounted2Time == 0.000062
[2021.07.06-13.08.39:399][  0]LogPakFile: PakFile PrimaryIndexSize=186
[2021.07.06-13.08.39:399][  0]LogPakFile: PakFile PathHashIndexSize=101
[2021.07.06-13.08.39:399][  0]LogPakFile: PakFile FullDirectoryIndexSize=146
[2021.07.06-13.08.39:399][  0]LogPakFile: OnPakFileMounted2Time == 0.000065
[2021.07.06-13.08.39:408][  0]LogPakFile: PakFile PrimaryIndexSize=188
[2021.07.06-13.08.39:408][  0]LogPakFile: PakFile PathHashIndexSize=101
[2021.07.06-13.08.39:408][  0]LogPakFile: PakFile FullDirectoryIndexSize=150
[2021.07.06-13.08.39:408][  0]LogPakFile: OnPakFileMounted2Time == 0.000068
[2021.07.06-13.08.39:417][  0]LogPakFile: PakFile PrimaryIndexSize=185
[2021.07.06-13.08.39:417][  0]LogPakFile: PakFile PathHashIndexSize=101
[2021.07.06-13.08.39:417][  0]LogPakFile: PakFile FullDirectoryIndexSize=144
[2021.07.06-13.08.39:417][  0]LogPakFile: OnPakFileMounted2Time == 0.000070
[2021.07.06-13.08.39:426][  0]LogPakFile: PakFile PrimaryIndexSize=192
[2021.07.06-13.08.39:426][  0]LogPakFile: PakFile PathHashIndexSize=101
[2021.07.06-13.08.39:426][  0]LogPakFile: PakFile FullDirectoryIndexSize=158
[2021.07.06-13.08.39:426][  0]LogPakFile: OnPakFileMounted2Time == 0.000073
[2021.07.06-13.08.40:236][  0]LogNativeClassHierarchy: Verbose: Native class hierarchy updated for 'AddContentDialog' in 0.0003 seconds. Added 0 classes and 0 folders.
[2021.07.06-13.08.40:237][  0]LogNativeClassHierarchy: Verbose: Native class hierarchy updated for 'SceneOutliner' in 0.0002 seconds. Added 2 classes and 0 folders.
[2021.07.06-13.08.40:479][  0]LogNativeClassHierarchy: Verbose: Native class hierarchy updated for 'HierarchicalLODOutliner' in 0.0003 seconds. Added 0 classes and 0 folders.
[2021.07.06-13.08.40:479][  0]LogInput: Warning: Action SetDestination uses invalid key OculusGo_Left_Trigger_Click.
[2021.07.06-13.08.40:479][  0]LogInput: Warning: Action ResetVR uses invalid key OculusGo_Left_Back_Click.
[2021.07.06-13.08.40:479][  0]LogInput: Warning: Use -RemoveInvalidKeys to remove instances of these keys from the action mapping.
[2021.07.06-13.08.40:479][  0]LogLoad: (Engine Initialization) Total time: 43.41 seconds
[2021.07.06-13.08.40:479][  0]LogLoad: (Engine Initialization) Total Blueprint compile time: 0.00 seconds
[2021.07.06-13.08.40:480][  0]LogInit: First time updating LLM stats...
[2021.07.06-13.08.40:527][  0]LogAssetRegistry: Asset discovery search completed in 28.3349 seconds
[2021.07.06-13.08.40:528][  0]LogCollectionManager: Fixed up redirectors for 0 collections in 0.000004 seconds (updated 0 objects)
[2021.07.06-13.08.40:550][  0]LogContentStreaming: Texture pool size now 1000 MB
[2021.07.06-13.08.40:555][  0]LogSlate: Took 0.000137 seconds to synchronously load lazily loaded font '../../../Engine/Content/Slate/Fonts/Roboto-Regular.ttf' (155K)
[2021.07.06-13.08.40:556][  0]LogSlate: Took 0.000089 seconds to synchronously load lazily loaded font '../../../Engine/Content/Slate/Fonts/Roboto-Bold.ttf' (160K)
[2021.07.06-13.08.40:577][  0]LogSlate: Took 0.017033 seconds to synchronously load lazily loaded font '../../../Engine/Content/Editor/Slate/Fonts/FontAwesome.ttf' (139K)
[2021.07.06-13.08.40:885][  1]LogRenderer: Reallocating scene render targets to support 1224x360 Format 10 NumSamples 1 (Frame:1).
[2021.07.06-13.09.35:442][522]LogEditorViewport: Clicking on Actor (LMB): StaticMeshActor (Floor)
[2021.07.06-13.09.36:565][626]LogRenderer: Reallocating scene render targets to support 2464x808 Format 10 NumSamples 1 (Frame:6617).
[2021.07.06-13.09.43:343][400]LogTemp: Repeating last play command: Selected Viewport
[2021.07.06-13.09.43:348][400]LogPlayLevel: PlayLevel: No blueprints needed recompiling
[2021.07.06-13.09.43:348][400]PIE: New page: PIE session: TopDownExampleMap (6 июл. 2021 г., 19:09:43)
[2021.07.06-13.09.43:349][400]LogOnline: OSS: Creating online subsystem instance for: NULL
[2021.07.06-13.09.43:350][400]LogOnline: OSS: TryLoadSubsystemAndSetDefault: Loaded subsystem for module [NULL]
[2021.07.06-13.09.43:350][400]LogPlayLevel: Creating play world package: /Game/TopDownCPP/Maps/UEDPIE_0_TopDownExampleMap
[2021.07.06-13.09.43:362][400]LogPlayLevel: PIE: StaticDuplicateObject took: (0.011355s)
[2021.07.06-13.09.43:363][400]LogAIModule: Creating AISystem for world TopDownExampleMap
[2021.07.06-13.09.43:363][400]LogPlayLevel: PIE: World Init took: (0.001433s)
[2021.07.06-13.09.43:363][400]LogPlayLevel: PIE: Created PIE world by copying editor world from /Game/TopDownCPP/Maps/TopDownExampleMap.TopDownExampleMap to /Game/TopDownCPP/Maps/UEDPIE_0_TopDownExampleMap.TopDownExampleMap (0.013008s)
[2021.07.06-13.09.43:369][400]LogUObjectHash: Compacting FUObjectHashTables data took   0.68ms
[2021.07.06-13.09.43:369][400]LogAudio: Display: Creating Audio Device:                 Id: 2, Scope: Unique, Realtime: True
[2021.07.06-13.09.43:369][400]LogAudioMixer: Display: Audio Mixer Platform Settings:
[2021.07.06-13.09.43:369][400]LogAudioMixer: Display: 	Sample Rate:						  48000
[2021.07.06-13.09.43:369][400]LogAudioMixer: Display: 	Callback Buffer Frame Size Requested: 1024
[2021.07.06-13.09.43:369][400]LogAudioMixer: Display: 	Callback Buffer Frame Size To Use:	  1024
[2021.07.06-13.09.43:370][400]LogAudioMixer: Display: 	Number of buffers to queue:			  2
[2021.07.06-13.09.43:370][400]LogAudioMixer: Display: 	Max Channels (voices):				  32
[2021.07.06-13.09.43:370][400]LogAudioMixer: Display: 	Number of Async Source Workers:		  0
[2021.07.06-13.09.43:370][400]LogAudio: Display: AudioDevice MaxSources: 32
[2021.07.06-13.09.43:370][400]LogAudio: Display: Using built-in audio occlusion.
[2021.07.06-13.09.43:370][400]LogAudioMixer: Display: Initializing audio mixer.
[2021.07.06-13.09.43:377][400]LogAudioMixer: Display: 0: FrontLeft
[2021.07.06-13.09.43:377][400]LogAudioMixer: Display: 1: FrontRight
[2021.07.06-13.09.43:377][400]LogAudioMixer: Display: 2: FrontCenter
[2021.07.06-13.09.43:377][400]LogAudioMixer: Display: 3: LowFrequency
[2021.07.06-13.09.43:377][400]LogAudioMixer: Display: 4: BackLeft
[2021.07.06-13.09.43:377][400]LogAudioMixer: Display: 5: BackRight
[2021.07.06-13.09.43:377][400]LogAudioMixer: Display: 6: SideLeft
[2021.07.06-13.09.43:377][400]LogAudioMixer: Display: 7: SideRight
[2021.07.06-13.09.43:390][400]LogAudioMixer: Display: Using Audio Device Динамики (3- Logitech PRO X Wireless Gaming Headset)
[2021.07.06-13.09.43:391][400]LogAudioMixer: Display: Initializing Sound Submixes...
[2021.07.06-13.09.43:391][400]LogAudioMixer: Display: Creating Master Submix 'MasterSubmixDefault'
[2021.07.06-13.09.43:391][400]LogAudioMixer: Display: Creating Master Submix 'MasterReverbSubmixDefault'
[2021.07.06-13.09.43:391][400]LogAudioMixer: Display: Creating Master Submix 'MasterEQSubmixDefault'
[2021.07.06-13.09.43:391][400]LogAudioMixer: FMixerPlatformXAudio2::StartAudioStream() called
[2021.07.06-13.09.43:391][400]LogAudioMixer: Display: Output buffers initialized: Frames=1024, Channels=8, Samples=8192
[2021.07.06-13.09.43:404][400]LogAudioMixer: Display: Starting AudioMixerPlatformInterface::RunInternal()
[2021.07.06-13.09.43:404][400]LogAudioMixer: Display: FMixerPlatformXAudio2::SubmitBuffer() called for the first time
[2021.07.06-13.09.43:404][400]LogInit: FAudioDevice initialized.
[2021.07.06-13.09.43:404][400]LogAudio: Display: Audio Device (ID: 2) registered with world 'TopDownExampleMap'.
[2021.07.06-13.09.43:412][400]LogLoad: Game class is 'MT_TKGameMode'
[2021.07.06-13.09.43:414][400]LogWorld: Bringing World /Game/TopDownCPP/Maps/UEDPIE_0_TopDownExampleMap.TopDownExampleMap up for play (max tick rate 0) at 2021.07.06-16.09.43
[2021.07.06-13.09.43:414][400]LogWorld: Bringing up level for play took: 0.000760
[2021.07.06-13.09.43:414][400]LogOnline: OSS: Creating online subsystem instance for: :Context_8
[2021.07.06-13.09.43:416][400]LogNativeClassHierarchy: Verbose: Native class hierarchy updated for 'MovieSceneCapture' in 0.0003 seconds. Added 20 classes and 0 folders.
[2021.07.06-13.09.43:418][400]PIE: Server logged in
[2021.07.06-13.09.43:419][400]PIE: Play in editor total start time 0,073 seconds.
