﻿Log file open, 07/11/21 05:12:21
LogInit: LLM is enabled
LogInit: LLM CsvWriter: off TraceWriter: off
LogInit: Display: Running engine for game: MT_TK
LogPlatformFile: Not using cached read wrapper
LogTaskGraph: Started task graph with 5 named threads and 35 total threads with 3 sets of task threads.
LogStats: Stats thread started at 0.643999
LogD3D11RHI: Loaded GFSDK_Aftermath_Lib.x64.dll
LogICUInternationalization: ICU TimeZone Detection - Raw Offset: +3:00, Platform Override: ''
LogPluginManager: Mounting plugin MeshPainting
LogPluginManager: Mounting plugin XGEController
LogPluginManager: Mounting plugin Paper2D
LogPluginManager: Mounting plugin AISupport
LogPluginManager: Mounting plugin EnvironmentQueryEditor
LogPluginManager: Mounting plugin LightPropagationVolume
LogPluginManager: Mounting plugin CameraShakePreviewer
LogPluginManager: Mounting plugin AnimationSharing
LogPluginManager: Mounting plugin CLionSourceCodeAccess
LogPluginManager: Mounting plugin CodeLiteSourceCodeAccess
LogPluginManager: Mounting plugin GitSourceControl
LogPluginManager: Mounting plugin NullSourceCodeAccess
LogPluginManager: Mounting plugin KDevelopSourceCodeAccess
LogPluginManager: Mounting plugin PerforceSourceControl
LogPluginManager: Mounting plugin PlasticSourceControl
LogPluginManager: Mounting plugin PluginUtils
LogPluginManager: Mounting plugin PropertyAccessNode
LogPluginManager: Mounting plugin RiderSourceCodeAccess
LogPluginManager: Mounting plugin SubversionSourceControl
LogPluginManager: Mounting plugin UObjectPlugin
LogPluginManager: Mounting plugin VisualStudioCodeSourceCodeAccess
LogPluginManager: Mounting plugin XCodeSourceCodeAccess
LogPluginManager: Mounting plugin AssetManagerEditor
LogPluginManager: Mounting plugin VisualStudioSourceCodeAccess
LogPluginManager: Mounting plugin CryptoKeys
LogPluginManager: Mounting plugin CurveEditorTools
LogPluginManager: Mounting plugin DataValidation
LogPluginManager: Mounting plugin FacialAnimation
LogPluginManager: Mounting plugin GameplayTagsEditor
LogPluginManager: Mounting plugin GeometryMode
LogPluginManager: Mounting plugin MacGraphicsSwitching
LogPluginManager: Mounting plugin MaterialAnalyzer
LogPluginManager: Mounting plugin MobileLauncherProfileWizard
LogPluginManager: Mounting plugin PluginBrowser
LogPluginManager: Mounting plugin SpeedTreeImporter
LogPluginManager: Mounting plugin AlembicImporter
LogPluginManager: Mounting plugin AutomationUtils
LogPluginManager: Mounting plugin BackChannel
LogPluginManager: Mounting plugin ChaosCloth
LogPluginManager: Mounting plugin ChaosClothEditor
LogPluginManager: Mounting plugin ChaosNiagara
LogPluginManager: Mounting plugin ChaosEditor
LogPluginManager: Mounting plugin ChaosSolverPlugin
LogPluginManager: Mounting plugin CharacterAI
LogPluginManager: Mounting plugin Niagara
LogPluginManager: Mounting plugin GeometryCache
LogPluginManager: Mounting plugin GeometryProcessing
LogPluginManager: Mounting plugin GeometryCollectionPlugin
LogPluginManager: Mounting plugin MotoSynth
LogPluginManager: Mounting plugin PlanarCut
LogPluginManager: Mounting plugin PlatformCrypto
LogPluginManager: Mounting plugin ProxyLODPlugin
LogPluginManager: Mounting plugin SkeletalReduction
LogPluginManager: Mounting plugin MagicLeap
LogPluginManager: Mounting plugin LuminPlatformFeatures
LogPluginManager: Mounting plugin MagicLeapLightEstimation
LogPluginManager: Mounting plugin DatasmithContent
LogPluginManager: Mounting plugin MagicLeapMedia
LogPluginManager: Mounting plugin MagicLeapPassableWorld
LogPluginManager: Mounting plugin MLSDK
LogPluginManager: Mounting plugin VariantManagerContent
LogPluginManager: Mounting plugin AndroidMedia
LogPluginManager: Mounting plugin AvfMedia
LogPluginManager: Mounting plugin ImgMedia
LogPluginManager: Mounting plugin MediaCompositing
LogPluginManager: Mounting plugin MediaPlayerEditor
LogPluginManager: Mounting plugin WebMMedia
LogPluginManager: Mounting plugin WmfMedia
LogPluginManager: Mounting plugin UdpMessaging
LogPluginManager: Mounting plugin TcpMessaging
LogPluginManager: Mounting plugin ActorSequence
LogPluginManager: Mounting plugin LevelSequenceEditor
LogPluginManager: Mounting plugin MatineeToLevelSequence
LogPluginManager: Mounting plugin TemplateSequence
LogPluginManager: Mounting plugin OnlineSubsystem
LogPluginManager: Mounting plugin OnlineSubsystemNull
LogPluginManager: Mounting plugin ActorLayerUtilities
LogPluginManager: Mounting plugin LauncherChunkInstaller
LogPluginManager: Mounting plugin OnlineSubsystemUtils
LogPluginManager: Mounting plugin AndroidDeviceProfileSelector
LogPluginManager: Mounting plugin AndroidMoviePlayer
LogPluginManager: Mounting plugin AndroidPermission
LogPluginManager: Mounting plugin AppleMoviePlayer
LogPluginManager: Mounting plugin AppleImageUtils
LogPluginManager: Mounting plugin ArchVisCharacter
LogPluginManager: Mounting plugin AssetTags
LogPluginManager: Mounting plugin AudioCapture
LogPluginManager: Mounting plugin AudioSynesthesia
LogPluginManager: Mounting plugin CableComponent
LogPluginManager: Mounting plugin CustomMeshComponent
LogPluginManager: Mounting plugin ChunkDownloader
LogPluginManager: Mounting plugin EditableMesh
LogPluginManager: Mounting plugin ExampleDeviceProfileSelector
LogPluginManager: Mounting plugin GoogleCloudMessaging
LogPluginManager: Mounting plugin GooglePAD
LogPluginManager: Mounting plugin IOSDeviceProfileSelector
LogPluginManager: Mounting plugin LinuxDeviceProfileSelector
LogPluginManager: Mounting plugin LocationServicesBPLibrary
LogPluginManager: Mounting plugin MobilePatchingUtils
LogPluginManager: Mounting plugin PhysXVehicles
LogPluginManager: Mounting plugin PostSplashScreen
LogPluginManager: Mounting plugin ProceduralMeshComponent
LogPluginManager: Mounting plugin PropertyAccessEditor
LogPluginManager: Mounting plugin ScreenshotTools
LogPluginManager: Mounting plugin RuntimePhysXCooking
LogPluginManager: Mounting plugin SignificanceManager
LogPluginManager: Mounting plugin SoundFields
LogPluginManager: Mounting plugin Synthesis
LogPluginManager: Mounting plugin WebMMoviePlayer
LogPluginManager: Mounting plugin WindowsMoviePlayer
LogPluginManager: Mounting plugin ContentBrowserAssetDataSource
LogPluginManager: Mounting plugin ContentBrowserClassDataSource
LogPluginManager: Mounting plugin OnlineSubsystemGooglePlay
LogPluginManager: Mounting plugin OnlineSubsystemIOS
LogPluginManager: Mounting plugin OculusVR
LogPluginManager: Mounting plugin SteamVR
LogXGEController: Cleaning working directory: C:/Users/alexk/AppData/Local/Temp/UnrealXGEWorkingDir/
LogXGEController: Cannot use XGE Controller as Incredibuild is not installed on this machine.
LogInit: Using libcurl 7.55.1-DEV
LogInit:  - built for x86_64-pc-win32
LogInit:  - supports SSL with OpenSSL/1.1.1
LogInit:  - supports HTTP deflate (compression) using libz 1.2.8
LogInit:  - other features:
LogInit:      CURL_VERSION_SSL
LogInit:      CURL_VERSION_LIBZ
LogInit:      CURL_VERSION_IPV6
LogInit:      CURL_VERSION_ASYNCHDNS
LogInit:      CURL_VERSION_LARGEFILE
LogInit:      CURL_VERSION_IDN
LogInit:  CurlRequestOptions (configurable via config and command line):
LogInit:  - bVerifyPeer = true  - Libcurl will verify peer certificate
LogInit:  - bUseHttpProxy = false  - Libcurl will NOT use HTTP proxy
LogInit:  - bDontReuseConnections = false  - Libcurl will reuse connections
LogInit:  - MaxHostConnections = 16  - Libcurl will limit the number of connections to a host
LogInit:  - LocalHostAddr = Default
LogInit:  - BufferSize = 65536
LogOnline: OSS: Creating online subsystem instance for: NULL
LogInit: WinSock: version 1.1 (2.2), MaxSocks=32767, MaxUdp=65467
LogOnline: OSS: TryLoadSubsystemAndSetDefault: Loaded subsystem for module [NULL]
LogInit: Build: ++UE4+Release-4.26-CL-15973114
LogInit: Engine Version: 4.26.2-15973114+++UE4+Release-4.26
LogInit: Compatible Engine Version: 4.26.0-14830424+++UE4+Release-4.26
LogInit: Net CL: 14830424
LogInit: OS: Windows 10 (Release 2009) (), CPU: Intel(R) Core(TM) i7-8700K CPU @ 3.70GHz, GPU: NVIDIA GeForce RTX 2060
LogInit: Compiled (64-bit): Apr 12 2021 06:14:10
LogInit: Compiled with Visual C++: 19.24.28315.00
LogInit: Build Configuration: Development
LogInit: Branch Name: ++UE4+Release-4.26
LogInit: Command Line: 
LogInit: Base Directory: T:/Autistic Stuff/Epic Games/Games/UE_4.26/Engine/Binaries/Win64/
LogInit: Allocator: TBB
LogInit: Installed Engine Build: 1
LogDevObjectVersion: Number of dev versions registered: 29
LogDevObjectVersion:   Dev-Blueprints (B0D832E4-1F89-4F0D-ACCF-7EB736FD4AA2): 10
LogDevObjectVersion:   Dev-Build (E1C64328-A22C-4D53-A36C-8E866417BD8C): 0
LogDevObjectVersion:   Dev-Core (375EC13C-06E4-48FB-B500-84F0262A717E): 4
LogDevObjectVersion:   Dev-Editor (E4B068ED-F494-42E9-A231-DA0B2E46BB41): 40
LogDevObjectVersion:   Dev-Framework (CFFC743F-43B0-4480-9391-14DF171D2073): 37
LogDevObjectVersion:   Dev-Mobile (B02B49B5-BB20-44E9-A304-32B752E40360): 3
LogDevObjectVersion:   Dev-Networking (A4E4105C-59A1-49B5-A7C5-40C4547EDFEE): 0
LogDevObjectVersion:   Dev-Online (39C831C9-5AE6-47DC-9A44-9C173E1C8E7C): 0
LogDevObjectVersion:   Dev-Physics (78F01B33-EBEA-4F98-B9B4-84EACCB95AA2): 4
LogDevObjectVersion:   Dev-Platform (6631380F-2D4D-43E0-8009-CF276956A95A): 0
LogDevObjectVersion:   Dev-Rendering (12F88B9F-8875-4AFC-A67C-D90C383ABD29): 44
LogDevObjectVersion:   Dev-Sequencer (7B5AE74C-D270-4C10-A958-57980B212A5A): 12
LogDevObjectVersion:   Dev-VR (D7296918-1DD6-4BDD-9DE2-64A83CC13884): 3
LogDevObjectVersion:   Dev-LoadTimes (C2A15278-BFE7-4AFE-6C17-90FF531DF755): 1
LogDevObjectVersion:   Private-Geometry (6EACA3D4-40EC-4CC1-B786-8BED09428FC5): 3
LogDevObjectVersion:   Dev-AnimPhys (29E575DD-E0A3-4627-9D10-D276232CDCEA): 17
LogDevObjectVersion:   Dev-Anim (AF43A65D-7FD3-4947-9873-3E8ED9C1BB05): 15
LogDevObjectVersion:   Dev-ReflectionCapture (6B266CEC-1EC7-4B8F-A30B-E4D90942FC07): 1
LogDevObjectVersion:   Dev-Automation (0DF73D61-A23F-47EA-B727-89E90C41499A): 1
LogDevObjectVersion:   FortniteMain (601D1886-AC64-4F84-AA16-D3DE0DEAC7D6): 43
LogDevObjectVersion:   FortniteRelease (E7086368-6B23-4C58-8439-1B7016265E91): 1
LogDevObjectVersion:   Dev-Enterprise (9DFFBCD6-494F-0158-E221-12823C92A888): 10
LogDevObjectVersion:   Dev-Niagara (F2AED0AC-9AFE-416F-8664-AA7FFA26D6FC): 1
LogDevObjectVersion:   Dev-Destruction (174F1F0B-B4C6-45A5-B13F-2EE8D0FB917D): 10
LogDevObjectVersion:   Dev-Physics-Ext (35F94A83-E258-406C-A318-09F59610247C): 40
LogDevObjectVersion:   Dev-PhysicsMaterial-Chaos (B68FC16E-8B1B-42E2-B453-215C058844FE): 1
LogDevObjectVersion:   Dev-CineCamera (B2E18506-4273-CFC2-A54E-F4BB758BBA07): 1
LogDevObjectVersion:   Dev-VirtualProduction (64F58936-FD1B-42BA-BA96-7289D5D0FA4E): 1
LogDevObjectVersion:   Dev-MediaFramework (6F0ED827-A609-4895-9C91-998D90180EA4): 2
LogInit: Presizing for max 25165824 objects, including 0 objects not considered by GC, pre-allocating 0 bytes for permanent pool.
LogConfig: Applying CVar settings from Section [/Script/Engine.StreamingSettings] File [C:/Users/alexk/Desktop/MT_Task/MT_TK/Saved/Config/Windows/Engine.ini]
LogConfig: Setting CVar [[s.MinBulkDataSizeForAsyncLoading:131072]]
LogConfig: Setting CVar [[s.AsyncLoadingThreadEnabled:0]]
LogConfig: Setting CVar [[s.EventDrivenLoaderEnabled:1]]
LogConfig: Setting CVar [[s.WarnIfTimeLimitExceeded:0]]
LogConfig: Setting CVar [[s.TimeLimitExceededMultiplier:1.5]]
LogConfig: Setting CVar [[s.TimeLimitExceededMinTime:0.005]]
LogConfig: Setting CVar [[s.UseBackgroundLevelStreaming:1]]
LogConfig: Setting CVar [[s.PriorityAsyncLoadingExtraTime:15.0]]
LogConfig: Setting CVar [[s.LevelStreamingActorsUpdateTimeLimit:5.0]]
LogConfig: Setting CVar [[s.PriorityLevelStreamingActorsUpdateExtraTime:5.0]]
LogConfig: Setting CVar [[s.LevelStreamingComponentsRegistrationGranularity:10]]
LogConfig: Setting CVar [[s.UnregisterComponentsTimeLimit:1.0]]
LogConfig: Setting CVar [[s.LevelStreamingComponentsUnregistrationGranularity:5]]
LogConfig: Setting CVar [[s.FlushStreamingOnExit:1]]
LogInit: Object subsystem initialized
LogConfig: Setting CVar [[con.DebugEarlyDefault:1]]
LogConfig: Setting CVar [[r.setres:1280x720]]
[2021.07.11-02.12.24:114][  0]LogConfig: Setting CVar [[r.VSync:0]]
[2021.07.11-02.12.24:114][  0]LogConfig: Setting CVar [[r.RHICmdBypass:0]]
[2021.07.11-02.12.24:115][  0]LogConfig: Applying CVar settings from Section [/Script/Engine.RendererSettings] File [C:/Users/alexk/Desktop/MT_Task/MT_TK/Saved/Config/Windows/Engine.ini]
[2021.07.11-02.12.24:115][  0]LogConfig: Setting CVar [[r.GPUCrashDebugging:0]]
[2021.07.11-02.12.24:115][  0]LogConfig: Applying CVar settings from Section [/Script/Engine.RendererOverrideSettings] File [C:/Users/alexk/Desktop/MT_Task/MT_TK/Saved/Config/Windows/Engine.ini]
[2021.07.11-02.12.24:115][  0]LogConfig: Applying CVar settings from Section [/Script/Engine.StreamingSettings] File [C:/Users/alexk/Desktop/MT_Task/MT_TK/Saved/Config/Windows/Engine.ini]
[2021.07.11-02.12.24:115][  0]LogConfig: Setting CVar [[s.MinBulkDataSizeForAsyncLoading:131072]]
[2021.07.11-02.12.24:115][  0]LogConfig: Setting CVar [[s.AsyncLoadingThreadEnabled:0]]
[2021.07.11-02.12.24:115][  0]LogConfig: Setting CVar [[s.EventDrivenLoaderEnabled:1]]
[2021.07.11-02.12.24:115][  0]LogConfig: Setting CVar [[s.WarnIfTimeLimitExceeded:0]]
[2021.07.11-02.12.24:115][  0]LogConfig: Setting CVar [[s.TimeLimitExceededMultiplier:1.5]]
[2021.07.11-02.12.24:115][  0]LogConfig: Setting CVar [[s.TimeLimitExceededMinTime:0.005]]
[2021.07.11-02.12.24:115][  0]LogConfig: Setting CVar [[s.UseBackgroundLevelStreaming:1]]
[2021.07.11-02.12.24:115][  0]LogConfig: Setting CVar [[s.PriorityAsyncLoadingExtraTime:15.0]]
[2021.07.11-02.12.24:115][  0]LogConfig: Setting CVar [[s.LevelStreamingActorsUpdateTimeLimit:5.0]]
[2021.07.11-02.12.24:115][  0]LogConfig: Setting CVar [[s.PriorityLevelStreamingActorsUpdateExtraTime:5.0]]
[2021.07.11-02.12.24:115][  0]LogConfig: Setting CVar [[s.LevelStreamingComponentsRegistrationGranularity:10]]
[2021.07.11-02.12.24:115][  0]LogConfig: Setting CVar [[s.UnregisterComponentsTimeLimit:1.0]]
[2021.07.11-02.12.24:115][  0]LogConfig: Setting CVar [[s.LevelStreamingComponentsUnregistrationGranularity:5]]
[2021.07.11-02.12.24:115][  0]LogConfig: Setting CVar [[s.FlushStreamingOnExit:1]]
[2021.07.11-02.12.24:115][  0]LogConfig: Applying CVar settings from Section [/Script/Engine.GarbageCollectionSettings] File [C:/Users/alexk/Desktop/MT_Task/MT_TK/Saved/Config/Windows/Engine.ini]
[2021.07.11-02.12.24:115][  0]LogConfig: Setting CVar [[gc.MaxObjectsNotConsideredByGC:1]]
[2021.07.11-02.12.24:115][  0]LogConfig: Setting CVar [[gc.SizeOfPermanentObjectPool:0]]
[2021.07.11-02.12.24:115][  0]LogConfig: Setting CVar [[gc.FlushStreamingOnGC:0]]
[2021.07.11-02.12.24:115][  0]LogConfig: Setting CVar [[gc.NumRetriesBeforeForcingGC:10]]
[2021.07.11-02.12.24:115][  0]LogConfig: Setting CVar [[gc.AllowParallelGC:1]]
[2021.07.11-02.12.24:115][  0]LogConfig: Setting CVar [[gc.TimeBetweenPurgingPendingKillObjects:61.1]]
[2021.07.11-02.12.24:115][  0]LogConfig: Setting CVar [[gc.MaxObjectsInEditor:25165824]]
[2021.07.11-02.12.24:115][  0]LogConfig: Setting CVar [[gc.IncrementalBeginDestroyEnabled:1]]
[2021.07.11-02.12.24:115][  0]LogConfig: Setting CVar [[gc.CreateGCClusters:1]]
[2021.07.11-02.12.24:115][  0]LogConfig: Setting CVar [[gc.MinGCClusterSize:5]]
[2021.07.11-02.12.24:115][  0]LogConfig: Setting CVar [[gc.ActorClusteringEnabled:0]]
[2021.07.11-02.12.24:115][  0]LogConfig: Setting CVar [[gc.BlueprintClusteringEnabled:0]]
[2021.07.11-02.12.24:115][  0]LogConfig: Setting CVar [[gc.UseDisregardForGCOnDedicatedServers:0]]
[2021.07.11-02.12.24:115][  0]LogConfig: Setting CVar [[gc.MultithreadedDestructionEnabled:1]]
[2021.07.11-02.12.24:115][  0]LogConfig: Applying CVar settings from Section [/Script/Engine.NetworkSettings] File [C:/Users/alexk/Desktop/MT_Task/MT_TK/Saved/Config/Windows/Engine.ini]
[2021.07.11-02.12.24:115][  0]LogConfig: Applying CVar settings from Section [/Script/UnrealEd.CookerSettings] File [C:/Users/alexk/Desktop/MT_Task/MT_TK/Saved/Config/Windows/Engine.ini]
[2021.07.11-02.12.24:165][  0]LogConfig: Applying CVar settings from Section [ViewDistanceQuality@3] File [C:/Users/alexk/Desktop/MT_Task/MT_TK/Saved/Config/Windows/Scalability.ini]
[2021.07.11-02.12.24:165][  0]LogConfig: Setting CVar [[r.SkeletalMeshLODBias:0]]
[2021.07.11-02.12.24:165][  0]LogConfig: Setting CVar [[r.ViewDistanceScale:1.0]]
[2021.07.11-02.12.24:165][  0]LogConfig: Applying CVar settings from Section [AntiAliasingQuality@3] File [C:/Users/alexk/Desktop/MT_Task/MT_TK/Saved/Config/Windows/Scalability.ini]
[2021.07.11-02.12.24:165][  0]LogConfig: Setting CVar [[r.PostProcessAAQuality:4]]
[2021.07.11-02.12.24:165][  0]LogConfig: Applying CVar settings from Section [ShadowQuality@3] File [C:/Users/alexk/Desktop/MT_Task/MT_TK/Saved/Config/Windows/Scalability.ini]
[2021.07.11-02.12.24:165][  0]LogConfig: Setting CVar [[r.LightFunctionQuality:1]]
[2021.07.11-02.12.24:165][  0]LogConfig: Setting CVar [[r.ShadowQuality:5]]
[2021.07.11-02.12.24:165][  0]LogConfig: Setting CVar [[r.Shadow.CSM.MaxCascades:10]]
[2021.07.11-02.12.24:165][  0]LogConfig: Setting CVar [[r.Shadow.MaxResolution:2048]]
[2021.07.11-02.12.24:165][  0]LogConfig: Setting CVar [[r.Shadow.MaxCSMResolution:2048]]
[2021.07.11-02.12.24:165][  0]LogConfig: Setting CVar [[r.Shadow.RadiusThreshold:0.01]]
[2021.07.11-02.12.24:165][  0]LogConfig: Setting CVar [[r.Shadow.DistanceScale:1.0]]
[2021.07.11-02.12.24:165][  0]LogConfig: Setting CVar [[r.Shadow.CSM.TransitionScale:1.0]]
[2021.07.11-02.12.24:165][  0]LogConfig: Setting CVar [[r.Shadow.PreShadowResolutionFactor:1.0]]
[2021.07.11-02.12.24:165][  0]LogConfig: Setting CVar [[r.DistanceFieldShadowing:1]]
[2021.07.11-02.12.24:165][  0]LogConfig: Setting CVar [[r.DistanceFieldAO:1]]
[2021.07.11-02.12.24:165][  0]LogConfig: Setting CVar [[r.AOQuality:2]]
[2021.07.11-02.12.24:165][  0]LogConfig: Setting CVar [[r.VolumetricFog:1]]
[2021.07.11-02.12.24:165][  0]LogConfig: Setting CVar [[r.VolumetricFog.GridPixelSize:8]]
[2021.07.11-02.12.24:165][  0]LogConfig: Setting CVar [[r.VolumetricFog.GridSizeZ:128]]
[2021.07.11-02.12.24:165][  0]LogConfig: Setting CVar [[r.VolumetricFog.HistoryMissSupersampleCount:4]]
[2021.07.11-02.12.24:165][  0]LogConfig: Setting CVar [[r.LightMaxDrawDistanceScale:1]]
[2021.07.11-02.12.24:165][  0]LogConfig: Setting CVar [[r.CapsuleShadows:1]]
[2021.07.11-02.12.24:165][  0]LogConfig: Applying CVar settings from Section [PostProcessQuality@3] File [C:/Users/alexk/Desktop/MT_Task/MT_TK/Saved/Config/Windows/Scalability.ini]
[2021.07.11-02.12.24:165][  0]LogConfig: Setting CVar [[r.MotionBlurQuality:4]]
[2021.07.11-02.12.24:165][  0]LogConfig: Setting CVar [[r.AmbientOcclusionMipLevelFactor:0.4]]
[2021.07.11-02.12.24:165][  0]LogConfig: Setting CVar [[r.AmbientOcclusionMaxQuality:100]]
[2021.07.11-02.12.24:165][  0]LogConfig: Setting CVar [[r.AmbientOcclusionLevels:-1]]
[2021.07.11-02.12.24:165][  0]LogConfig: Setting CVar [[r.AmbientOcclusionRadiusScale:1.0]]
[2021.07.11-02.12.24:165][  0]LogConfig: Setting CVar [[r.DepthOfFieldQuality:2]]
[2021.07.11-02.12.24:165][  0]LogConfig: Setting CVar [[r.RenderTargetPoolMin:400]]
[2021.07.11-02.12.24:165][  0]LogConfig: Setting CVar [[r.LensFlareQuality:2]]
[2021.07.11-02.12.24:165][  0]LogConfig: Setting CVar [[r.SceneColorFringeQuality:1]]
[2021.07.11-02.12.24:165][  0]LogConfig: Setting CVar [[r.EyeAdaptationQuality:2]]
[2021.07.11-02.12.24:165][  0]LogConfig: Setting CVar [[r.BloomQuality:5]]
[2021.07.11-02.12.24:165][  0]LogConfig: Setting CVar [[r.FastBlurThreshold:100]]
[2021.07.11-02.12.24:165][  0]LogConfig: Setting CVar [[r.Upscale.Quality:3]]
[2021.07.11-02.12.24:165][  0]LogConfig: Setting CVar [[r.Tonemapper.GrainQuantization:1]]
[2021.07.11-02.12.24:165][  0]LogConfig: Setting CVar [[r.LightShaftQuality:1]]
[2021.07.11-02.12.24:165][  0]LogConfig: Setting CVar [[r.Filter.SizeScale:1]]
[2021.07.11-02.12.24:165][  0]LogConfig: Setting CVar [[r.Tonemapper.Quality:5]]
[2021.07.11-02.12.24:165][  0]LogConfig: Setting CVar [[r.DOF.Gather.AccumulatorQuality:1        ; higher gathering accumulator quality]]
[2021.07.11-02.12.24:165][  0]LogConfig: Setting CVar [[r.DOF.Gather.PostfilterMethod:1          ; Median3x3 postfilering method]]
[2021.07.11-02.12.24:165][  0]LogConfig: Setting CVar [[r.DOF.Gather.EnableBokehSettings:0       ; no bokeh simulation when gathering]]
[2021.07.11-02.12.24:165][  0]LogConfig: Setting CVar [[r.DOF.Gather.RingCount:4                 ; medium number of samples when gathering]]
[2021.07.11-02.12.24:165][  0]LogConfig: Setting CVar [[r.DOF.Scatter.ForegroundCompositing:1    ; additive foreground scattering]]
[2021.07.11-02.12.24:165][  0]LogConfig: Setting CVar [[r.DOF.Scatter.BackgroundCompositing:2    ; additive background scattering]]
[2021.07.11-02.12.24:165][  0]LogConfig: Setting CVar [[r.DOF.Scatter.EnableBokehSettings:1      ; bokeh simulation when scattering]]
[2021.07.11-02.12.24:165][  0]LogConfig: Setting CVar [[r.DOF.Scatter.MaxSpriteRatio:0.1         ; only a maximum of 10% of scattered bokeh]]
[2021.07.11-02.12.24:165][  0]LogConfig: Setting CVar [[r.DOF.Recombine.Quality:1                ; cheap slight out of focus]]
[2021.07.11-02.12.24:165][  0]LogConfig: Setting CVar [[r.DOF.Recombine.EnableBokehSettings:0    ; no bokeh simulation on slight out of focus]]
[2021.07.11-02.12.24:165][  0]LogConfig: Setting CVar [[r.DOF.TemporalAAQuality:1                ; more stable temporal accumulation]]
[2021.07.11-02.12.24:165][  0]LogConfig: Setting CVar [[r.DOF.Kernel.MaxForegroundRadius:0.025]]
[2021.07.11-02.12.24:165][  0]LogConfig: Setting CVar [[r.DOF.Kernel.MaxBackgroundRadius:0.025]]
[2021.07.11-02.12.24:165][  0]LogConfig: Applying CVar settings from Section [TextureQuality@3] File [C:/Users/alexk/Desktop/MT_Task/MT_TK/Saved/Config/Windows/Scalability.ini]
[2021.07.11-02.12.24:165][  0]LogConfig: Setting CVar [[r.Streaming.MipBias:0]]
[2021.07.11-02.12.24:165][  0]LogConfig: Setting CVar [[r.Streaming.AmortizeCPUToGPUCopy:0]]
[2021.07.11-02.12.24:165][  0]LogConfig: Setting CVar [[r.Streaming.MaxNumTexturesToStreamPerFrame:0]]
[2021.07.11-02.12.24:165][  0]LogConfig: Setting CVar [[r.Streaming.Boost:1]]
[2021.07.11-02.12.24:165][  0]LogConfig: Setting CVar [[r.MaxAnisotropy:8]]
[2021.07.11-02.12.24:165][  0]LogConfig: Setting CVar [[r.VT.MaxAnisotropy:8]]
[2021.07.11-02.12.24:165][  0]LogConfig: Setting CVar [[r.Streaming.LimitPoolSizeToVRAM:0]]
[2021.07.11-02.12.24:165][  0]LogConfig: Setting CVar [[r.Streaming.PoolSize:1000]]
[2021.07.11-02.12.24:165][  0]LogConfig: Setting CVar [[r.Streaming.MaxEffectiveScreenSize:0]]
[2021.07.11-02.12.24:165][  0]LogConfig: Applying CVar settings from Section [EffectsQuality@3] File [C:/Users/alexk/Desktop/MT_Task/MT_TK/Saved/Config/Windows/Scalability.ini]
[2021.07.11-02.12.24:165][  0]LogConfig: Setting CVar [[r.TranslucencyLightingVolumeDim:64]]
[2021.07.11-02.12.24:165][  0]LogConfig: Setting CVar [[r.RefractionQuality:2]]
[2021.07.11-02.12.24:165][  0]LogConfig: Setting CVar [[r.SSR.Quality:3]]
[2021.07.11-02.12.24:165][  0]LogConfig: Setting CVar [[r.SSR.HalfResSceneColor:0]]
[2021.07.11-02.12.24:165][  0]LogConfig: Setting CVar [[r.SceneColorFormat:4]]
[2021.07.11-02.12.24:165][  0]LogConfig: Setting CVar [[r.DetailMode:2]]
[2021.07.11-02.12.24:165][  0]LogConfig: Setting CVar [[r.TranslucencyVolumeBlur:1]]
[2021.07.11-02.12.24:165][  0]LogConfig: Setting CVar [[r.MaterialQualityLevel:1 ; High quality]]
[2021.07.11-02.12.24:166][  0]LogConfig: Setting CVar [[r.AnisotropicMaterials:1]]
[2021.07.11-02.12.24:166][  0]LogConfig: Setting CVar [[r.SSS.Scale:1]]
[2021.07.11-02.12.24:166][  0]LogConfig: Setting CVar [[r.SSS.SampleSet:2]]
[2021.07.11-02.12.24:166][  0]LogConfig: Setting CVar [[r.SSS.Quality:1]]
[2021.07.11-02.12.24:166][  0]LogConfig: Setting CVar [[r.SSS.HalfRes:0]]
[2021.07.11-02.12.24:166][  0]LogConfig: Setting CVar [[r.SSGI.Quality:3]]
[2021.07.11-02.12.24:166][  0]LogConfig: Setting CVar [[r.EmitterSpawnRateScale:1.0]]
[2021.07.11-02.12.24:166][  0]LogConfig: Setting CVar [[r.ParticleLightQuality:2]]
[2021.07.11-02.12.24:166][  0]LogConfig: Setting CVar [[r.SkyAtmosphere.AerialPerspectiveLUT.FastApplyOnOpaque:1 ; Always have FastSkyLUT 1 in this case to avoid wrong sky]]
[2021.07.11-02.12.24:166][  0]LogConfig: Setting CVar [[r.SkyAtmosphere.AerialPerspectiveLUT.SampleCountMaxPerSlice:4]]
[2021.07.11-02.12.24:166][  0]LogConfig: Setting CVar [[r.SkyAtmosphere.AerialPerspectiveLUT.DepthResolution:16.0]]
[2021.07.11-02.12.24:166][  0]LogConfig: Setting CVar [[r.SkyAtmosphere.FastSkyLUT:1]]
[2021.07.11-02.12.24:166][  0]LogConfig: Setting CVar [[r.SkyAtmosphere.FastSkyLUT.SampleCountMin:4.0]]
[2021.07.11-02.12.24:166][  0]LogConfig: Setting CVar [[r.SkyAtmosphere.FastSkyLUT.SampleCountMax:128.0]]
[2021.07.11-02.12.24:166][  0]LogConfig: Setting CVar [[r.SkyAtmosphere.SampleCountMin:4.0]]
[2021.07.11-02.12.24:166][  0]LogConfig: Setting CVar [[r.SkyAtmosphere.SampleCountMax:128.0]]
[2021.07.11-02.12.24:166][  0]LogConfig: Setting CVar [[r.SkyAtmosphere.TransmittanceLUT.UseSmallFormat:0]]
[2021.07.11-02.12.24:166][  0]LogConfig: Setting CVar [[r.SkyAtmosphere.TransmittanceLUT.SampleCount:10.0]]
[2021.07.11-02.12.24:166][  0]LogConfig: Setting CVar [[r.SkyAtmosphere.MultiScatteringLUT.SampleCount:15.0]]
[2021.07.11-02.12.24:166][  0]LogConfig: Applying CVar settings from Section [FoliageQuality@3] File [C:/Users/alexk/Desktop/MT_Task/MT_TK/Saved/Config/Windows/Scalability.ini]
[2021.07.11-02.12.24:166][  0]LogConfig: Setting CVar [[foliage.DensityScale:1.0]]
[2021.07.11-02.12.24:166][  0]LogConfig: Setting CVar [[grass.DensityScale:1.0]]
[2021.07.11-02.12.24:166][  0]LogConfig: Applying CVar settings from Section [ShadingQuality@3] File [C:/Users/alexk/Desktop/MT_Task/MT_TK/Saved/Config/Windows/Scalability.ini]
[2021.07.11-02.12.24:166][  0]LogConfig: Setting CVar [[r.HairStrands.SkyLighting.IntegrationType:2]]
[2021.07.11-02.12.24:166][  0]LogConfig: Setting CVar [[r.HairStrands.SkyAO.SampleCount:4]]
[2021.07.11-02.12.24:166][  0]LogConfig: Setting CVar [[r.HairStrands.Visibility.MSAA.SamplePerPixel:4]]
[2021.07.11-02.12.24:180][  0]LogInit: Selected Device Profile: [Windows]
[2021.07.11-02.12.24:180][  0]LogInit: Applying CVar settings loaded from the selected device profile: [Windows]
[2021.07.11-02.12.24:180][  0]LogHAL: Display: Platform has ~ 16 GB [17100595200 / 17179869184 / 16], which maps to Larger [LargestMinGB=32, LargerMinGB=12, DefaultMinGB=8, SmallerMinGB=6, SmallestMinGB=0)
[2021.07.11-02.12.24:180][  0]LogInit: Going up to parent DeviceProfile []
[2021.07.11-02.12.24:180][  0]LogConfig: Applying CVar settings from Section [ViewDistanceQuality@3] File [C:/Users/alexk/Desktop/MT_Task/MT_TK/Saved/Config/Windows/Scalability.ini]
[2021.07.11-02.12.24:180][  0]LogConfig: Setting CVar [[r.SkeletalMeshLODBias:0]]
[2021.07.11-02.12.24:180][  0]LogConfig: Setting CVar [[r.ViewDistanceScale:1.0]]
[2021.07.11-02.12.24:180][  0]LogConfig: Applying CVar settings from Section [AntiAliasingQuality@3] File [C:/Users/alexk/Desktop/MT_Task/MT_TK/Saved/Config/Windows/Scalability.ini]
[2021.07.11-02.12.24:180][  0]LogConfig: Setting CVar [[r.PostProcessAAQuality:4]]
[2021.07.11-02.12.24:180][  0]LogConfig: Applying CVar settings from Section [ShadowQuality@3] File [C:/Users/alexk/Desktop/MT_Task/MT_TK/Saved/Config/Windows/Scalability.ini]
[2021.07.11-02.12.24:180][  0]LogConfig: Setting CVar [[r.LightFunctionQuality:1]]
[2021.07.11-02.12.24:180][  0]LogConfig: Setting CVar [[r.ShadowQuality:5]]
[2021.07.11-02.12.24:180][  0]LogConfig: Setting CVar [[r.Shadow.CSM.MaxCascades:10]]
[2021.07.11-02.12.24:180][  0]LogConfig: Setting CVar [[r.Shadow.MaxResolution:2048]]
[2021.07.11-02.12.24:180][  0]LogConfig: Setting CVar [[r.Shadow.MaxCSMResolution:2048]]
[2021.07.11-02.12.24:180][  0]LogConfig: Setting CVar [[r.Shadow.RadiusThreshold:0.01]]
[2021.07.11-02.12.24:180][  0]LogConfig: Setting CVar [[r.Shadow.DistanceScale:1.0]]
[2021.07.11-02.12.24:180][  0]LogConfig: Setting CVar [[r.Shadow.CSM.TransitionScale:1.0]]
[2021.07.11-02.12.24:180][  0]LogConfig: Setting CVar [[r.Shadow.PreShadowResolutionFactor:1.0]]
[2021.07.11-02.12.24:180][  0]LogConfig: Setting CVar [[r.DistanceFieldShadowing:1]]
[2021.07.11-02.12.24:180][  0]LogConfig: Setting CVar [[r.DistanceFieldAO:1]]
[2021.07.11-02.12.24:180][  0]LogConfig: Setting CVar [[r.AOQuality:2]]
[2021.07.11-02.12.24:180][  0]LogConfig: Setting CVar [[r.VolumetricFog:1]]
[2021.07.11-02.12.24:180][  0]LogConfig: Setting CVar [[r.VolumetricFog.GridPixelSize:8]]
[2021.07.11-02.12.24:180][  0]LogConfig: Setting CVar [[r.VolumetricFog.GridSizeZ:128]]
[2021.07.11-02.12.24:180][  0]LogConfig: Setting CVar [[r.VolumetricFog.HistoryMissSupersampleCount:4]]
[2021.07.11-02.12.24:180][  0]LogConfig: Setting CVar [[r.LightMaxDrawDistanceScale:1]]
[2021.07.11-02.12.24:180][  0]LogConfig: Setting CVar [[r.CapsuleShadows:1]]
[2021.07.11-02.12.24:180][  0]LogConfig: Applying CVar settings from Section [PostProcessQuality@3] File [C:/Users/alexk/Desktop/MT_Task/MT_TK/Saved/Config/Windows/Scalability.ini]
[2021.07.11-02.12.24:180][  0]LogConfig: Setting CVar [[r.MotionBlurQuality:4]]
[2021.07.11-02.12.24:180][  0]LogConfig: Setting CVar [[r.AmbientOcclusionMipLevelFactor:0.4]]
[2021.07.11-02.12.24:180][  0]LogConfig: Setting CVar [[r.AmbientOcclusionMaxQuality:100]]
[2021.07.11-02.12.24:181][  0]LogConfig: Setting CVar [[r.AmbientOcclusionLevels:-1]]
[2021.07.11-02.12.24:181][  0]LogConfig: Setting CVar [[r.AmbientOcclusionRadiusScale:1.0]]
[2021.07.11-02.12.24:181][  0]LogConfig: Setting CVar [[r.DepthOfFieldQuality:2]]
[2021.07.11-02.12.24:181][  0]LogConfig: Setting CVar [[r.RenderTargetPoolMin:400]]
[2021.07.11-02.12.24:181][  0]LogConfig: Setting CVar [[r.LensFlareQuality:2]]
[2021.07.11-02.12.24:181][  0]LogConfig: Setting CVar [[r.SceneColorFringeQuality:1]]
[2021.07.11-02.12.24:181][  0]LogConfig: Setting CVar [[r.EyeAdaptationQuality:2]]
[2021.07.11-02.12.24:181][  0]LogConfig: Setting CVar [[r.BloomQuality:5]]
[2021.07.11-02.12.24:181][  0]LogConfig: Setting CVar [[r.FastBlurThreshold:100]]
[2021.07.11-02.12.24:181][  0]LogConfig: Setting CVar [[r.Upscale.Quality:3]]
[2021.07.11-02.12.24:181][  0]LogConfig: Setting CVar [[r.Tonemapper.GrainQuantization:1]]
[2021.07.11-02.12.24:181][  0]LogConfig: Setting CVar [[r.LightShaftQuality:1]]
[2021.07.11-02.12.24:181][  0]LogConfig: Setting CVar [[r.Filter.SizeScale:1]]
[2021.07.11-02.12.24:181][  0]LogConfig: Setting CVar [[r.Tonemapper.Quality:5]]
[2021.07.11-02.12.24:181][  0]LogConfig: Setting CVar [[r.DOF.Gather.AccumulatorQuality:1        ; higher gathering accumulator quality]]
[2021.07.11-02.12.24:181][  0]LogConfig: Setting CVar [[r.DOF.Gather.PostfilterMethod:1          ; Median3x3 postfilering method]]
[2021.07.11-02.12.24:181][  0]LogConfig: Setting CVar [[r.DOF.Gather.EnableBokehSettings:0       ; no bokeh simulation when gathering]]
[2021.07.11-02.12.24:181][  0]LogConfig: Setting CVar [[r.DOF.Gather.RingCount:4                 ; medium number of samples when gathering]]
[2021.07.11-02.12.24:181][  0]LogConfig: Setting CVar [[r.DOF.Scatter.ForegroundCompositing:1    ; additive foreground scattering]]
[2021.07.11-02.12.24:181][  0]LogConfig: Setting CVar [[r.DOF.Scatter.BackgroundCompositing:2    ; additive background scattering]]
[2021.07.11-02.12.24:181][  0]LogConfig: Setting CVar [[r.DOF.Scatter.EnableBokehSettings:1      ; bokeh simulation when scattering]]
[2021.07.11-02.12.24:181][  0]LogConfig: Setting CVar [[r.DOF.Scatter.MaxSpriteRatio:0.1         ; only a maximum of 10% of scattered bokeh]]
[2021.07.11-02.12.24:181][  0]LogConfig: Setting CVar [[r.DOF.Recombine.Quality:1                ; cheap slight out of focus]]
[2021.07.11-02.12.24:181][  0]LogConfig: Setting CVar [[r.DOF.Recombine.EnableBokehSettings:0    ; no bokeh simulation on slight out of focus]]
[2021.07.11-02.12.24:181][  0]LogConfig: Setting CVar [[r.DOF.TemporalAAQuality:1                ; more stable temporal accumulation]]
[2021.07.11-02.12.24:181][  0]LogConfig: Setting CVar [[r.DOF.Kernel.MaxForegroundRadius:0.025]]
[2021.07.11-02.12.24:181][  0]LogConfig: Setting CVar [[r.DOF.Kernel.MaxBackgroundRadius:0.025]]
[2021.07.11-02.12.24:181][  0]LogConfig: Applying CVar settings from Section [TextureQuality@3] File [C:/Users/alexk/Desktop/MT_Task/MT_TK/Saved/Config/Windows/Scalability.ini]
[2021.07.11-02.12.24:181][  0]LogConfig: Setting CVar [[r.Streaming.MipBias:0]]
[2021.07.11-02.12.24:181][  0]LogConfig: Setting CVar [[r.Streaming.AmortizeCPUToGPUCopy:0]]
[2021.07.11-02.12.24:181][  0]LogConfig: Setting CVar [[r.Streaming.MaxNumTexturesToStreamPerFrame:0]]
[2021.07.11-02.12.24:181][  0]LogConfig: Setting CVar [[r.Streaming.Boost:1]]
[2021.07.11-02.12.24:181][  0]LogConfig: Setting CVar [[r.MaxAnisotropy:8]]
[2021.07.11-02.12.24:181][  0]LogConfig: Setting CVar [[r.VT.MaxAnisotropy:8]]
[2021.07.11-02.12.24:181][  0]LogConfig: Setting CVar [[r.Streaming.LimitPoolSizeToVRAM:0]]
[2021.07.11-02.12.24:181][  0]LogConfig: Setting CVar [[r.Streaming.PoolSize:1000]]
[2021.07.11-02.12.24:181][  0]LogConfig: Setting CVar [[r.Streaming.MaxEffectiveScreenSize:0]]
[2021.07.11-02.12.24:181][  0]LogConfig: Applying CVar settings from Section [EffectsQuality@3] File [C:/Users/alexk/Desktop/MT_Task/MT_TK/Saved/Config/Windows/Scalability.ini]
[2021.07.11-02.12.24:181][  0]LogConfig: Setting CVar [[r.TranslucencyLightingVolumeDim:64]]
[2021.07.11-02.12.24:181][  0]LogConfig: Setting CVar [[r.RefractionQuality:2]]
[2021.07.11-02.12.24:181][  0]LogConfig: Setting CVar [[r.SSR.Quality:3]]
[2021.07.11-02.12.24:181][  0]LogConfig: Setting CVar [[r.SSR.HalfResSceneColor:0]]
[2021.07.11-02.12.24:181][  0]LogConfig: Setting CVar [[r.SceneColorFormat:4]]
[2021.07.11-02.12.24:181][  0]LogConfig: Setting CVar [[r.DetailMode:2]]
[2021.07.11-02.12.24:181][  0]LogConfig: Setting CVar [[r.TranslucencyVolumeBlur:1]]
[2021.07.11-02.12.24:181][  0]LogConfig: Setting CVar [[r.MaterialQualityLevel:1 ; High quality]]
[2021.07.11-02.12.24:181][  0]LogConfig: Setting CVar [[r.AnisotropicMaterials:1]]
[2021.07.11-02.12.24:181][  0]LogConfig: Setting CVar [[r.SSS.Scale:1]]
[2021.07.11-02.12.24:181][  0]LogConfig: Setting CVar [[r.SSS.SampleSet:2]]
[2021.07.11-02.12.24:181][  0]LogConfig: Setting CVar [[r.SSS.Quality:1]]
[2021.07.11-02.12.24:181][  0]LogConfig: Setting CVar [[r.SSS.HalfRes:0]]
[2021.07.11-02.12.24:181][  0]LogConfig: Setting CVar [[r.SSGI.Quality:3]]
[2021.07.11-02.12.24:181][  0]LogConfig: Setting CVar [[r.EmitterSpawnRateScale:1.0]]
[2021.07.11-02.12.24:181][  0]LogConfig: Setting CVar [[r.ParticleLightQuality:2]]
[2021.07.11-02.12.24:181][  0]LogConfig: Setting CVar [[r.SkyAtmosphere.AerialPerspectiveLUT.FastApplyOnOpaque:1 ; Always have FastSkyLUT 1 in this case to avoid wrong sky]]
[2021.07.11-02.12.24:181][  0]LogConfig: Setting CVar [[r.SkyAtmosphere.AerialPerspectiveLUT.SampleCountMaxPerSlice:4]]
[2021.07.11-02.12.24:181][  0]LogConfig: Setting CVar [[r.SkyAtmosphere.AerialPerspectiveLUT.DepthResolution:16.0]]
[2021.07.11-02.12.24:181][  0]LogConfig: Setting CVar [[r.SkyAtmosphere.FastSkyLUT:1]]
[2021.07.11-02.12.24:181][  0]LogConfig: Setting CVar [[r.SkyAtmosphere.FastSkyLUT.SampleCountMin:4.0]]
[2021.07.11-02.12.24:181][  0]LogConfig: Setting CVar [[r.SkyAtmosphere.FastSkyLUT.SampleCountMax:128.0]]
[2021.07.11-02.12.24:181][  0]LogConfig: Setting CVar [[r.SkyAtmosphere.SampleCountMin:4.0]]
[2021.07.11-02.12.24:181][  0]LogConfig: Setting CVar [[r.SkyAtmosphere.SampleCountMax:128.0]]
[2021.07.11-02.12.24:181][  0]LogConfig: Setting CVar [[r.SkyAtmosphere.TransmittanceLUT.UseSmallFormat:0]]
[2021.07.11-02.12.24:181][  0]LogConfig: Setting CVar [[r.SkyAtmosphere.TransmittanceLUT.SampleCount:10.0]]
[2021.07.11-02.12.24:181][  0]LogConfig: Setting CVar [[r.SkyAtmosphere.MultiScatteringLUT.SampleCount:15.0]]
[2021.07.11-02.12.24:181][  0]LogConfig: Applying CVar settings from Section [FoliageQuality@3] File [C:/Users/alexk/Desktop/MT_Task/MT_TK/Saved/Config/Windows/Scalability.ini]
[2021.07.11-02.12.24:181][  0]LogConfig: Setting CVar [[foliage.DensityScale:1.0]]
[2021.07.11-02.12.24:181][  0]LogConfig: Setting CVar [[grass.DensityScale:1.0]]
[2021.07.11-02.12.24:181][  0]LogConfig: Applying CVar settings from Section [ShadingQuality@3] File [C:/Users/alexk/Desktop/MT_Task/MT_TK/Saved/Config/Windows/Scalability.ini]
[2021.07.11-02.12.24:181][  0]LogConfig: Setting CVar [[r.HairStrands.SkyLighting.IntegrationType:2]]
[2021.07.11-02.12.24:181][  0]LogConfig: Setting CVar [[r.HairStrands.SkyAO.SampleCount:4]]
[2021.07.11-02.12.24:181][  0]LogConfig: Setting CVar [[r.HairStrands.Visibility.MSAA.SamplePerPixel:4]]
[2021.07.11-02.12.24:181][  0]LogConfig: Applying CVar settings from Section [Startup] File [../../../Engine/Config/ConsoleVariables.ini]
[2021.07.11-02.12.24:191][  0]LogConfig: Setting CVar [[net.UseAdaptiveNetUpdateFrequency:0]]
[2021.07.11-02.12.24:191][  0]LogConfig: Setting CVar [[p.chaos.AllowCreatePhysxBodies:1]]
[2021.07.11-02.12.24:191][  0]LogConfig: Setting CVar [[fx.SkipVectorVMBackendOptimizations:1]]
[2021.07.11-02.12.24:191][  0]LogConfig: Applying CVar settings from Section [ConsoleVariables] File [C:/Users/alexk/Desktop/MT_Task/MT_TK/Saved/Config/Windows/Engine.ini]
[2021.07.11-02.12.24:191][  0]LogConfig: Applying CVar settings from Section [ConsoleVariables] File [C:/Users/alexk/Desktop/MT_Task/MT_TK/Saved/Config/Windows/Editor.ini]
[2021.07.11-02.12.24:205][  0]LogInit: Computer: KOSWA
[2021.07.11-02.12.24:205][  0]LogInit: User: alexk
[2021.07.11-02.12.24:205][  0]LogInit: CPU Page size=4096, Cores=6
[2021.07.11-02.12.24:205][  0]LogInit: High frequency timer resolution =10.000000 MHz
[2021.07.11-02.12.24:205][  0]LogMemory: Memory total: Physical=15.9GB (16GB approx)
[2021.07.11-02.12.24:217][  0]LogMemory: Platform Memory Stats for Windows
[2021.07.11-02.12.24:217][  0]LogMemory: Process Physical Memory: 132.98 MB used, 132.99 MB peak
[2021.07.11-02.12.24:217][  0]LogMemory: Process Virtual Memory: 112.63 MB used, 112.63 MB peak
[2021.07.11-02.12.24:217][  0]LogMemory: Physical Memory: 6268.26 MB used,  10040.14 MB free, 16308.40 MB total
[2021.07.11-02.12.24:217][  0]LogMemory: Virtual Memory: 134199416.00 MB used,  18313.68 MB free, 134217728.00 MB total
[2021.07.11-02.12.24:224][  0]LogWindows: WindowsPlatformFeatures enabled
[2021.07.11-02.12.24:579][  0]LogInit: Physics initialised using underlying interface: PhysX
[2021.07.11-02.12.24:591][  0]LogInit: Using OS detected language (ru-RU).
[2021.07.11-02.12.24:591][  0]LogInit: Using OS detected locale (ru-RU).
[2021.07.11-02.12.24:730][  0]LogTextLocalizationManager: No specific localization for 'ru-RU' exists, so the 'ru' localization will be used.
[2021.07.11-02.12.24:730][  0]LogTextLocalizationResource: LocRes '../../../Engine/Content/Localization/Editor/ru/Editor.locres' could not be opened for reading!
[2021.07.11-02.12.24:730][  0]LogTextLocalizationResource: LocRes '../../../Engine/Content/Localization/EditorTutorials/ru/EditorTutorials.locres' could not be opened for reading!
[2021.07.11-02.12.24:730][  0]LogTextLocalizationResource: LocRes '../../../Engine/Content/Localization/Keywords/ru/Keywords.locres' could not be opened for reading!
[2021.07.11-02.12.24:730][  0]LogTextLocalizationResource: LocRes '../../../Engine/Content/Localization/Category/ru/Category.locres' could not be opened for reading!
[2021.07.11-02.12.24:731][  0]LogTextLocalizationResource: LocRes '../../../Engine/Content/Localization/ToolTips/ru/ToolTips.locres' could not be opened for reading!
[2021.07.11-02.12.24:731][  0]LogTextLocalizationResource: LocRes '../../../Engine/Content/Localization/PropertyNames/ru/PropertyNames.locres' could not be opened for reading!
[2021.07.11-02.12.24:731][  0]LogTextLocalizationResource: LocRes '../../../Engine/Content/Localization/Engine/ru/Engine.locres' could not be opened for reading!
[2021.07.11-02.12.24:818][  0]LogInit: Setting process to per monitor DPI aware
[2021.07.11-02.12.24:870][  0]LogWindowsTextInputMethodSystem: Display: IME system deactivated.
[2021.07.11-02.12.25:274][  0]LogSlate: New Slate User Created.  User Index 0, Is Virtual User: 0
[2021.07.11-02.12.25:274][  0]LogSlate: Slate User Registered.  User Index 0, Is Virtual User: 0
[2021.07.11-02.12.26:412][  0]LogHMD: Failed to initialize OpenVR with code 110
[2021.07.11-02.12.26:412][  0]LogD3D11RHI: D3D11 min allowed feature level: 11_0
[2021.07.11-02.12.26:412][  0]LogD3D11RHI: D3D11 max allowed feature level: 11_0
[2021.07.11-02.12.26:412][  0]LogD3D11RHI: D3D11 adapters:
[2021.07.11-02.12.26:513][  0]LogD3D11RHI:    0. 'NVIDIA GeForce RTX 2060' (Feature Level 11_0)
[2021.07.11-02.12.26:513][  0]LogD3D11RHI:       5980/0/8154 MB DedicatedVideo/DedicatedSystem/SharedSystem, Outputs:2, VendorId:0x10de
[2021.07.11-02.12.26:517][  0]LogD3D11RHI:    1. 'Microsoft Basic Render Driver' (Feature Level 11_0)
[2021.07.11-02.12.26:517][  0]LogD3D11RHI:       0/0/8154 MB DedicatedVideo/DedicatedSystem/SharedSystem, Outputs:0, VendorId:0x1414
[2021.07.11-02.12.26:517][  0]LogD3D11RHI: Chosen D3D11 Adapter: 0
[2021.07.11-02.12.26:523][  0]LogD3D11RHI: Creating new Direct3DDevice
[2021.07.11-02.12.26:523][  0]LogD3D11RHI:     GPU DeviceId: 0x1f08 (for the marketing name, search the web for "GPU Device Id")
[2021.07.11-02.12.26:523][  0]LogWindows: EnumDisplayDevices:
[2021.07.11-02.12.26:523][  0]LogWindows:    0. 'NVIDIA GeForce RTX 2060' (P:1 D:1)
[2021.07.11-02.12.26:523][  0]LogWindows:    1. 'NVIDIA GeForce RTX 2060' (P:0 D:1)
[2021.07.11-02.12.26:524][  0]LogWindows:    2. 'NVIDIA GeForce RTX 2060' (P:0 D:0)
[2021.07.11-02.12.26:524][  0]LogWindows:    3. 'NVIDIA GeForce RTX 2060' (P:0 D:0)
[2021.07.11-02.12.26:524][  0]LogWindows: DebugString: FoundDriverCount:4 
[2021.07.11-02.12.26:524][  0]LogD3D11RHI:     Adapter Name: NVIDIA GeForce RTX 2060
[2021.07.11-02.12.26:524][  0]LogD3D11RHI:   Driver Version: 471.11 (internal:30.0.14.7111, unified:471.11)
[2021.07.11-02.12.26:524][  0]LogD3D11RHI:      Driver Date: 6-21-2021
[2021.07.11-02.12.26:524][  0]LogRHI: Texture pool is 4186 MB (70% of 5980 MB)
[2021.07.11-02.12.26:628][  0]LogD3D11RHI: RHI has support for 64 bit atomics
[2021.07.11-02.12.26:628][  0]LogD3D11RHI: Async texture creation enabled
[2021.07.11-02.12.26:628][  0]LogD3D11RHI: Array index from any shader is supported
[2021.07.11-02.12.26:631][  0]LogD3D11RHI: HDR output is supported on display 0 (NvId: 0x80061080).
[2021.07.11-02.12.26:920][  0]LogD3D11RHI: GPU Timing Frequency: 1000.000000 (Debug: 2 1)
[2021.07.11-02.12.26:955][  0]LogRHI: GeForceNow SDK initialized: 1
[2021.07.11-02.12.27:271][  0]LogTargetPlatformManager: Display: Loaded TargetPlatform 'AllDesktop'
[2021.07.11-02.12.27:295][  0]LogTargetPlatformManager: Display: Loaded TargetPlatform 'Android'
[2021.07.11-02.12.27:295][  0]LogTargetPlatformManager: Display: Loaded TargetPlatform 'Android_ASTC'
[2021.07.11-02.12.27:295][  0]LogTargetPlatformManager: Display: Loaded TargetPlatform 'Android_DXT'
[2021.07.11-02.12.27:295][  0]LogTargetPlatformManager: Display: Loaded TargetPlatform 'Android_ETC2'
[2021.07.11-02.12.27:295][  0]LogTargetPlatformManager: Display: Loaded TargetPlatform 'AndroidClient'
[2021.07.11-02.12.27:295][  0]LogTargetPlatformManager: Display: Loaded TargetPlatform 'Android_ASTCClient'
[2021.07.11-02.12.27:295][  0]LogTargetPlatformManager: Display: Loaded TargetPlatform 'Android_DXTClient'
[2021.07.11-02.12.27:295][  0]LogTargetPlatformManager: Display: Loaded TargetPlatform 'Android_ETC2Client'
[2021.07.11-02.12.27:295][  0]LogTargetPlatformManager: Display: Loaded TargetPlatform 'Android_Multi'
[2021.07.11-02.12.27:296][  0]LogTargetPlatformManager: Display: Loaded TargetPlatform 'Android_MultiClient'
[2021.07.11-02.12.27:345][  0]LogTargetPlatformManager: Display: Loaded TargetPlatform 'IOSClient'
[2021.07.11-02.12.27:345][  0]LogTargetPlatformManager: Display: Loaded TargetPlatform 'IOS'
[2021.07.11-02.12.27:380][  0]LogTargetPlatformManager: Display: Loaded TargetPlatform 'Linux'
[2021.07.11-02.12.27:393][  0]LogTargetPlatformManager: Display: Loaded TargetPlatform 'LinuxNoEditor'
[2021.07.11-02.12.27:409][  0]LogTargetPlatformManager: Display: Loaded TargetPlatform 'LinuxClient'
[2021.07.11-02.12.27:426][  0]LogTargetPlatformManager: Display: Loaded TargetPlatform 'LinuxServer'
[2021.07.11-02.12.27:439][  0]LogTargetPlatformManager: Display: Loaded TargetPlatform 'LinuxAArch64NoEditor'
[2021.07.11-02.12.27:469][  0]LogTargetPlatformManager: Display: Loaded TargetPlatform 'LinuxAArch64Client'
[2021.07.11-02.12.27:502][  0]LogTargetPlatformManager: Display: Loaded TargetPlatform 'LinuxAArch64Server'
[2021.07.11-02.12.27:528][  0]LogTargetPlatformManager: Display: Loaded TargetPlatform 'Lumin'
[2021.07.11-02.12.27:528][  0]LogTargetPlatformManager: Display: Loaded TargetPlatform 'LuminClient'
[2021.07.11-02.12.27:561][  0]LogTargetPlatformManager: Display: Loaded TargetPlatform 'MacNoEditor'
[2021.07.11-02.12.27:593][  0]LogTargetPlatformManager: Display: Loaded TargetPlatform 'Mac'
[2021.07.11-02.12.27:615][  0]LogTargetPlatformManager: Display: Loaded TargetPlatform 'MacClient'
[2021.07.11-02.12.27:636][  0]LogTargetPlatformManager: Display: Loaded TargetPlatform 'MacServer'
[2021.07.11-02.12.27:659][  0]LogTargetPlatformManager: Display: Loaded TargetPlatform 'TVOSClient'
[2021.07.11-02.12.27:659][  0]LogTargetPlatformManager: Display: Loaded TargetPlatform 'TVOS'
[2021.07.11-02.12.27:677][  0]LogTargetPlatformManager: Display: Loaded TargetPlatform 'WindowsNoEditor'
[2021.07.11-02.12.27:702][  0]LogTargetPlatformManager: Display: Loaded TargetPlatform 'Windows'
[2021.07.11-02.12.27:719][  0]LogTargetPlatformManager: Display: Loaded TargetPlatform 'WindowsClient'
[2021.07.11-02.12.27:733][  0]LogTargetPlatformManager: Display: Loaded TargetPlatform 'WindowsServer'
[2021.07.11-02.12.27:733][  0]LogTargetPlatformManager: Display: Building Assets For Windows
[2021.07.11-02.12.27:769][  0]LogAudioDebug: Display: Lib vorbis DLL was dynamically loaded.
[2021.07.11-02.12.28:416][  0]LogRendererCore: Ray tracing is disabled. Reason: r.RayTracing=0.
[2021.07.11-02.12.28:416][  0]LogShaderCompilers: Guid format shader working directory is 9 characters bigger than the processId version (C:/Users/alexk/Desktop/MT_Task/MT_TK/Intermediate/Shaders/WorkingDirectory/24040/).
[2021.07.11-02.12.28:416][  0]LogShaderCompilers: Cleaned the shader compiler working directory 'C:/Users/alexk/AppData/Local/Temp/UnrealShaderWorkingDir/5C55E8404E31CB35BEFCC786E87C8846/'.
[2021.07.11-02.12.28:416][  0]LogShaderCompilers: Cannot use XGE Shader Compiler as Incredibuild is not installed on this machine.
[2021.07.11-02.12.28:416][  0]LogShaderCompilers: Display: Using Local Shader Compiler.
[2021.07.11-02.12.31:865][  0]LogDerivedDataCache: Display: Max Cache Size: 512 MB
[2021.07.11-02.12.32:096][  0]LogDerivedDataCache: Loaded boot cache 0.23s 92MB C:/Users/alexk/AppData/Local/UnrealEngine/4.26/DerivedDataCache/Boot.ddc.
[2021.07.11-02.12.32:096][  0]LogDerivedDataCache: Display: Loaded Boot cache: C:/Users/alexk/AppData/Local/UnrealEngine/4.26/DerivedDataCache/Boot.ddc
[2021.07.11-02.12.32:096][  0]LogDerivedDataCache: FDerivedDataBackendGraph:  Pak pak cache file C:/Users/alexk/Desktop/MT_Task/MT_TK/DerivedDataCache/DDC.ddp not found, will not use a pak cache.
[2021.07.11-02.12.32:096][  0]LogDerivedDataCache: Unable to find inner node Pak for hierarchical cache Hierarchy.
[2021.07.11-02.12.32:108][  0]LogDerivedDataCache: FDerivedDataBackendGraph:  CompressedPak pak cache file C:/Users/alexk/Desktop/MT_Task/MT_TK/DerivedDataCache/Compressed.ddp not found, will not use a pak cache.
[2021.07.11-02.12.32:108][  0]LogDerivedDataCache: Unable to find inner node CompressedPak for hierarchical cache Hierarchy.
[2021.07.11-02.12.32:158][  0]LogDerivedDataCache: Display: Pak cache opened for reading ../../../Engine/DerivedDataCache/Compressed.ddp.
[2021.07.11-02.12.32:158][  0]LogDerivedDataCache: FDerivedDataBackendGraph:  EnterprisePak pak cache file ../../../Enterprise/DerivedDataCache/Compressed.ddp not found, will not use a pak cache.
[2021.07.11-02.12.32:158][  0]LogDerivedDataCache: Unable to find inner node EnterprisePak for hierarchical cache Hierarchy.
[2021.07.11-02.12.32:194][  0]LogDerivedDataCache: Speed tests for C:/Users/alexk/AppData/Local/UnrealEngine/Common/DerivedDataCache took 0.02 seconds
[2021.07.11-02.12.32:194][  0]LogDerivedDataCache: Display: Performance to C:/Users/alexk/AppData/Local/UnrealEngine/Common/DerivedDataCache: Latency=0.38ms. RandomReadSpeed=178.00MBs, RandomWriteSpeed=152.14MBs. Assigned SpeedClass 'Local'
[2021.07.11-02.12.32:196][  0]LogDerivedDataCache: Using Local data cache path C:/Users/alexk/AppData/Local/UnrealEngine/Common/DerivedDataCache: Writable
[2021.07.11-02.12.32:196][  0]LogDerivedDataCache: Shared data cache path not found in *engine.ini, will not use an Shared cache.
[2021.07.11-02.12.32:196][  0]LogDerivedDataCache: Unable to find inner node Shared for hierarchical cache Hierarchy.
[2021.07.11-02.12.32:319][  0]LogSlate: Using FreeType 2.10.0
[2021.07.11-02.12.32:320][  0]LogSlate: SlateFontServices - WITH_FREETYPE: 1, WITH_HARFBUZZ: 1
[2021.07.11-02.12.32:722][  0]LogAssetRegistry: FAssetRegistry took 0.0847 seconds to start up
[2021.07.11-02.12.36:008][  0]LogInit: Selected Device Profile: [Windows]
[2021.07.11-02.12.36:008][  0]LogInit: Active device profile: [0000020CCE266200][0000020CBEAE0580 49] Windows
[2021.07.11-02.12.36:008][  0]LogInit: Profiles: [0000020CCE266200][0000020CBEAE0580 49] Windows, [0000020CCE20F700][0000020CBEAE8700 49] WindowsNoEditor, [0000020CCE264900][0000020CBEAEC880 49] WindowsServer, [0000020CCE20CD00][0000020CBEAF0A00 49] WindowsClient, [0000020CCE267100][0000020CBEAF4B80 49] IOS, [0000020CCE20D700][0000020CBEAF8D00 49] iPadAir, [0000020CCE265300][0000020CCC4AAE80 49] iPadAir2, [0000020CCF1B3300][0000020CCC4B3140 49] IPadPro, [0000020CCF1B3400][0000020CCC4AF180 49] iPadAir3, [0000020CCE267C00][0000020CCC4B7300 49] iPadAir4, [0000020CCF1B3700][0000020CCC4BB480 49] iPadMini2, [0000020CCE264C00][0000020CBEAE55C0 49] iPadMini3, [0000020CCF1B1600][0000020CCC4BF700 49] iPadMini4, [0000020CCE266D00][0000020CCC4C3840 49] iPadMini5, [0000020CCE20AC00][0000020CCC4CFAC0 49] iPhone6, [0000020CCE20AD00][0000020CCC4C7B00 49] iPodTouch6, [0000020CCF1B3E00][0000020CCC4D6100 49] iPhone7, [0000020CCF1B3F00][0000020CCC4D2140 49] iPodTouch7, [0000020CCE20A700][0000020CCC4DA2C0 49] iPhone5S, [0000020CCF1B3200][0000020CCC4DE440 49] iPhone6Plus, [0000020CCE20BC00][0000020CCC4E25C0 49] iPhone6S, [0000020CCF1B0100][0000020CCC4E6740 49] iPhone6SPlus, [0000020CCE20A900][0000020CCC4EA8C0 49] iPhone7Plus, [0000020CCF1B3C00][0000020CCC4EEA40 49] iPhoneSE, [0000020CCE20A800][0000020CCC4F2BC0 49] iPhone8, [0000020CCF1B3800][0000020CCC4F6D40 49] iPhone8Plus, [0000020CCE209F00][0000020CCC4FAEC0 49] iPhoneX, [0000020CCF1B1A00][0000020CCC4FF040 49] iPhoneXS, [0000020CCE208600][0000020CCC5031C0 49] iPhoneXSMax, [0000020CCF1B0A00][0000020CCC507340 49] iPhoneXR, [0000020CCE20B200][0000020CCC50B4C0 49] iPhone11, [0000020CCF1B3100][0000020CCC50F640 49] iPhone11Pro, [0000020CCE208700][0000020CCC4CB780 49] iPhone11ProMax, [0000020CCF1B0E00][0000020CCC5138C0 49] iPhoneSE2, [0000020CCE209C00][0000020CCC517A00 49] iPhone12Mini, [0000020CCF1B1D00][0000020CCC51FB80 49] iPhone12, [0000020CCE209600][0000020CCC523D00 49] iPhone12Pro, [0000020CCF1B2E00][0000020CCC5261C0 49] iPhone12ProMax, [0000020CCE20A400][0000020CCC52A340 49] iPadPro105, [0000020CCF1B3B00][0000020CCC52E4C0 49] iPadPro129, [0000020CCE20BA00][0000020CCC532640 49] iPadPro97, [0000020CCF1B1900][0000020CCC5367C0 49] iPadPro2_129, [0000020CCE20D400][0000020CCC53A940 49] iPad5, [0000020CCE20B500][0000020CCC53EAC0 49] iPad6, [0000020CCE20DD00][0000020CCC542C40 49] iPad7, [0000020CCE208B00][0000020CCC546DC0 49] iPad8, [0000020CCE20E600][0000020CCC54AF40 49] iPadPro11, [0000020CCE20AB00][0000020CCC54F0C0 49] iPadPro2_11, [0000020CCE20F600][0000020CCC553240 49] iPadPro3_129, [0000020CCE20A000][0000020CCC5573C0 49] iPadPro4_129, [0000020CCE20DC00][0000020CCC55B540 49] AppleTV, [0000020CCE209B00][0000020CCC55F6C0 49] AppleTV4K, [0000020CCE20C600][0000020CCC51B800 49] TVOS, [0000020CCE208800][0000020CCC563940 49] Mac, [0000020CCF1B0F00][0000020CCC567A80 49] MacClient, [0000020CCE20E000][0000020CCC56FC00 49] MacNoEditor, [0000020CCF1B2500][0000020CCC5720C0 49] MacServer, [0000020CCE208500][0000020CCC576240 49] Linux, [0000020CCF1B3500][0000020CCC57A3C0 49] LinuxAArch64, [0000020CCE20A200][0000020CCC57E540 49] LinuxNoEditor, [0000020CCF1B2800][0000020CCC5826C0 49] LinuxAArch64NoEditor, [0000020CCE209500][0000020CCC586840 49] LinuxClient, [0000020CCF1B3000][0000020CCC58A9C0 49] LinuxAArch64Client, [0000020CCE209D00][0000020CCCEC2B40 49] LinuxServer, [0000020CCF1B2200][0000020CCCEC6CC0 49] LinuxAArch64Server, [0000020CCE208400][0000020CCCECAE40 49] Android, [0000020CCF1B1E00][0000020CCCECEFC0 49] Android_Low, [0000020CCE20B600][0000020CCCED3140 49] Android_Mid, [0000020CCF1B2F00][0000020CCCED72C0 49] Android_High, [0000020CCE209100][0000020CCCEDB440 49] Android_Default, [0000020CCF1B0D00][0000020CCCEDF5C0 49] Android_Adreno4xx, [0000020CCE20B100][0000020CCCEE3740 49] Android_Adreno5xx_Low, [0000020CCF1B1000][0000020CCC56B880 49] Android_Adreno5xx, [0000020CCE20B900][0000020CCCEE79C0 49] Android_Adreno6xx, [0000020CCF1B3900][0000020CCCEEBB00 49] Android_Adreno6xx_Vulkan, [0000020CCE208D00][0000020CCCEEFC40 49] Android_Mali_T6xx, [0000020CCF1B2400][0000020CCCEF6100 49] Android_Mali_T7xx, [0000020CCE20B400][0000020CCCEFA280 49] Android_Mali_T8xx, [0000020CCF1B1300][0000020CCCEFE400 49] Android_Mali_G71, [0000020CCE209400][0000020CCCF02580 49] Android_Mali_G72, [0000020CCF1B3A00][0000020CCCF06700 49] Android_Mali_G72_Vulkan, [0000020CCE209200][0000020CCCF0A880 49] Android_Mali_G76, [0000020CCF1B2600][0000020CCCF0EA00 49] Android_Mali_G76_Vulkan, [0000020CCE20AA00][0000020CCCF12B80 49] Android_Mali_G77, [0000020CCF1B0700][0000020CCCF16D00 49] Android_Mali_G77_Vulkan, [0000020CCE208100][0000020CCCF1AE80 49] Android_Vulkan_SM5, [0000020CCF1B1F00][0000020CCCF1F000 49] Android_PowerVR_G6xxx, [0000020CCE20B700][0000020CCCF23180 49] Android_PowerVR_GT7xxx, [0000020CCF1B1200][0000020CCCF27300 49] Android_PowerVR_GE8xxx, [0000020CCE20BE00][0000020CCCF2B480 49] Android_PowerVR_GM9xxx, [0000020CCF1B3D00][0000020CCCF2F600 49] Android_PowerVR_GM9xxx_Vulkan, [0000020CCE209E00][0000020CCCF33780 49] Android_TegraK1, [0000020CCF1B0300][0000020CCCEF38C0 49] Android_Unknown_Vulkan, [0000020CCE208E00][0000020CCCF37A00 49] Lumin, [0000020CCF1B1400][0000020CCCF3BB40 49] Lumin_Desktop, [0000020CCE208A00][0000020CCCF3FC80 49] HoloLens, 
[2021.07.11-02.12.37:727][  0]LogMeshReduction: Using QuadricMeshReduction for automatic static mesh reduction
[2021.07.11-02.12.37:727][  0]LogMeshReduction: Using SimplygonMeshReduction for automatic skeletal mesh reduction
[2021.07.11-02.12.37:727][  0]LogMeshReduction: Using ProxyLODMeshReduction for automatic mesh merging
[2021.07.11-02.12.37:727][  0]LogMeshReduction: No distributed automatic mesh merging module available
[2021.07.11-02.12.37:729][  0]LogMeshMerging: No distributed automatic mesh merging module available
[2021.07.11-02.12.38:326][  0]LogNetVersion: MT_TK 1.0.0, NetCL: 14830424, EngineNetVer: 16, GameNetVer: 0 (Checksum: 3066448156)
[2021.07.11-02.12.50:373][  0]LogHMD: PokeAHoleMaterial loaded successfully
[2021.07.11-02.12.50:496][  0]LogPackageLocalizationCache: Processed 22 localized package path(s) for 1 prioritized culture(s) in 0.073981 seconds
[2021.07.11-02.12.50:502][  0]LogUObjectArray: 16831 objects as part of root set at end of initial load.
[2021.07.11-02.12.50:502][  0]LogUObjectAllocator: 4209728 out of 0 bytes used by permanent object pool.
[2021.07.11-02.12.50:502][  0]LogUObjectArray: CloseDisregardForGC: 0/0 objects in disregard for GC pool
[2021.07.11-02.12.56:381][  0]LogUdpMessaging: Initializing bridge on interface 0.0.0.0:0 to multicast group 230.0.0.1:6666.
[2021.07.11-02.12.56:428][  0]LogTcpMessaging: Initializing TcpMessaging bridge
[2021.07.11-02.12.59:803][  0]SourceControl: Source control is disabled
[2021.07.11-02.12.59:803][  0]SourceControl: Source control is disabled
[2021.07.11-02.12.59:848][  0]SourceControl: Source control is disabled
[2021.07.11-02.12.59:882][  0]SourceControl: Source control is disabled
[2021.07.11-02.12.59:901][  0]SourceControl: Source control is disabled
[2021.07.11-02.12.59:921][  0]LogUProjectInfo: Found projects:
[2021.07.11-02.13.02:533][  0]LogAndroidPermission: UAndroidPermissionCallbackProxy::GetInstance
[2021.07.11-02.13.02:606][  0]LogAudioCaptureCore: Display: No Audio Capture implementations found. Audio input will be silent.
[2021.07.11-02.13.02:606][  0]LogAudioCaptureCore: Display: No Audio Capture implementations found. Audio input will be silent.
[2021.07.11-02.13.02:988][  0]LogCollectionManager: Loaded 0 collections in 0.000935 seconds
[2021.07.11-02.13.03:148][  0]LogFileCache: Scanning file cache for directory 'C:/Users/alexk/Desktop/MT_Task/MT_TK/Saved/Collections/' took 0.03s
[2021.07.11-02.13.03:148][  0]LogFileCache: Scanning file cache for directory 'C:/Users/alexk/Desktop/MT_Task/MT_TK/Content/Developers/alexk/Collections/' took 0.00s
[2021.07.11-02.13.03:148][  0]LogFileCache: Scanning file cache for directory 'C:/Users/alexk/Desktop/MT_Task/MT_TK/Content/Collections/' took 0.00s
[2021.07.11-02.13.03:148][  0]LogOcInput: OculusInput pre-init called
[2021.07.11-02.13.03:204][  0]LogWindows: Failed to load 'OVRPlugin.dll' (GetLastError=126)
[2021.07.11-02.13.03:204][  0]LogWindows: File 'OVRPlugin.dll' does not exist
[2021.07.11-02.13.04:081][  0]LogEngine: Initializing Engine...
[2021.07.11-02.13.04:104][  0]LogHMD: Failed to initialize OpenVR with code 110
[2021.07.11-02.13.04:117][  0]LogMagicLeap: Warning: VR disabled because ZI is not enabled.  To enable, in the editor, Edit -> Project Settings -> Plugins -> Magic Leap Plugin -> Enable Zero Iteration
[2021.07.11-02.13.04:120][  0]LogStats: UGameplayTagsManager::InitializeManager -  0.001 s
[2021.07.11-02.13.04:570][  0]LogInit: Initializing FReadOnlyCVARCache
[2021.07.11-02.13.04:687][  0]LogAIModule: Creating AISystem for world Untitled
[2021.07.11-02.13.04:687][  0]LogAudio: Display: Initializing Audio Device Manager...
[2021.07.11-02.13.04:714][  0]LogAudio: Display: Audio Device Manager Initialized
[2021.07.11-02.13.04:714][  0]LogAudio: Display: Creating Audio Device:                 Id: 1, Scope: Shared, Realtime: True
[2021.07.11-02.13.04:714][  0]LogAudioMixer: Display: Audio Mixer Platform Settings:
[2021.07.11-02.13.04:714][  0]LogAudioMixer: Display: 	Sample Rate:						  48000
[2021.07.11-02.13.04:714][  0]LogAudioMixer: Display: 	Callback Buffer Frame Size Requested: 1024
[2021.07.11-02.13.04:714][  0]LogAudioMixer: Display: 	Callback Buffer Frame Size To Use:	  1024
[2021.07.11-02.13.04:714][  0]LogAudioMixer: Display: 	Number of buffers to queue:			  2
[2021.07.11-02.13.04:714][  0]LogAudioMixer: Display: 	Max Channels (voices):				  32
[2021.07.11-02.13.04:714][  0]LogAudioMixer: Display: 	Number of Async Source Workers:		  0
[2021.07.11-02.13.04:714][  0]LogAudio: Display: AudioDevice MaxSources: 32
[2021.07.11-02.13.04:714][  0]LogAudio: Display: Using built-in audio occlusion.
[2021.07.11-02.13.04:714][  0]LogAudioMixer: Display: Initializing audio mixer.
[2021.07.11-02.13.04:789][  0]LogAudioMixer: Display: 0: FrontLeft
[2021.07.11-02.13.04:789][  0]LogAudioMixer: Display: 1: FrontRight
[2021.07.11-02.13.04:789][  0]LogAudioMixer: Display: 2: FrontCenter
[2021.07.11-02.13.04:789][  0]LogAudioMixer: Display: 3: LowFrequency
[2021.07.11-02.13.04:789][  0]LogAudioMixer: Display: 4: BackLeft
[2021.07.11-02.13.04:789][  0]LogAudioMixer: Display: 5: BackRight
[2021.07.11-02.13.04:789][  0]LogAudioMixer: Display: 6: SideLeft
[2021.07.11-02.13.04:789][  0]LogAudioMixer: Display: 7: SideRight
[2021.07.11-02.13.04:863][  0]LogAudioMixer: Display: Using Audio Device Динамики (3- Logitech PRO X Wireless Gaming Headset)
[2021.07.11-02.13.04:864][  0]LogAudioMixer: Display: Initializing Sound Submixes...
[2021.07.11-02.13.04:888][  0]LogAudioMixer: Display: Creating Master Submix 'MasterSubmixDefault'
[2021.07.11-02.13.04:888][  0]LogAudioMixer: Display: Creating Master Submix 'MasterReverbSubmixDefault'
[2021.07.11-02.13.04:889][  0]LogAudioMixer: Display: Creating Master Submix 'MasterEQSubmixDefault'
[2021.07.11-02.13.04:889][  0]LogAudioMixer: FMixerPlatformXAudio2::StartAudioStream() called
[2021.07.11-02.13.04:889][  0]LogAudioMixer: Display: Output buffers initialized: Frames=1024, Channels=8, Samples=8192
[2021.07.11-02.13.04:890][  0]LogAudioMixer: Display: Starting AudioMixerPlatformInterface::RunInternal()
[2021.07.11-02.13.04:890][  0]LogAudioMixer: Display: FMixerPlatformXAudio2::SubmitBuffer() called for the first time
[2021.07.11-02.13.04:890][  0]LogInit: FAudioDevice initialized.
[2021.07.11-02.13.04:890][  0]LogAudio: Display: Audio Device (ID: 1) registered with world 'Untitled'.
[2021.07.11-02.13.04:890][  0]LogNetVersion: Set ProjectVersion to 1.0.0.0. Version Checksum will be recalculated on next use.
[2021.07.11-02.13.04:934][  0]LogDerivedDataCache: Saved boot cache 0.04s 89MB C:/Users/alexk/AppData/Local/UnrealEngine/4.26/DerivedDataCache/Boot.ddc.
[2021.07.11-02.13.04:939][  0]LogInit: Texture streaming: Enabled
[2021.07.11-02.13.05:005][  0]LogAnalytics: Display: [UEEditor.Rocket.Release] APIServer = https://datarouter.ol.epicgames.com/. AppVersion = 4.26.2-15973114+++UE4+Release-4.26
[2021.07.11-02.13.05:020][  0]LogEngineSessionManager: EngineSessionManager initialized
[2021.07.11-02.13.05:020][  0]LogEngineSessionManager: EngineSessionManager sent abnormal shutdown report. Type=Crashed, SessionId={C847F802-4690-02FB-7B92-9B83D5488D10}
[2021.07.11-02.13.05:020][  0]LogEditorSessionSummary: Verbose: Initializing EditorSessionSummaryWriter for editor session tracking
[2021.07.11-02.13.05:069][  0]LogEditorSessionSummary: EditorSessionSummaryWriter initialized
[2021.07.11-02.13.05:227][  0]LogInit: Transaction tracking system initialized
[2021.07.11-02.13.06:023][  0]BlueprintLog: New page: Editor Load
[2021.07.11-02.13.07:086][  0]LocalizationService: Localization service is disabled
[2021.07.11-02.13.07:451][  0]TimingProfiler: Initialize
[2021.07.11-02.13.07:453][  0]TimingProfiler: OnSessionChanged
[2021.07.11-02.13.07:453][  0]LoadingProfiler: Initialize
[2021.07.11-02.13.07:454][  0]LoadingProfiler: OnSessionChanged
[2021.07.11-02.13.07:454][  0]NetworkingProfiler: Initialize
[2021.07.11-02.13.07:466][  0]NetworkingProfiler: OnSessionChanged
[2021.07.11-02.13.07:466][  0]MemoryProfiler: Initialize
[2021.07.11-02.13.07:466][  0]MemoryProfiler: OnSessionChanged
[2021.07.11-02.13.10:326][  0]LogFileCache: Scanning file cache for directory 'C:/Users/alexk/Desktop/MT_Task/MT_TK/Content/' took 0.00s
[2021.07.11-02.13.10:326][  0]LogCook: Display: CookSettings for Memory: MemoryMaxUsedVirtual 0MiB, MemoryMaxUsedPhysical 16384MiB, MemoryMinFreeVirtual 0MiB, MemoryMinFreePhysical 1024MiB
[2021.07.11-02.13.10:326][  0]LogCook: Display: Mobile HDR setting 1
[2021.07.11-02.13.16:858][  0]LogInit: Display: Engine is initialized. Leaving FEngineLoop::Init()
[2021.07.11-02.13.16:999][  0]SourceControl: Source control is disabled
[2021.07.11-02.13.16:999][  0]LogUnrealEdMisc: Loading editor; pre map load, took 70.777
[2021.07.11-02.13.17:039][  0]Cmd: MAP LOAD FILE="C:/Users/alexk/Desktop/MT_Task/MT_TK/Content/TopDownCPP/Maps/TopDownExampleMap.umap" TEMPLATE=0 SHOWPROGRESS=1 FEATURELEVEL=3
[2021.07.11-02.13.17:079][  0]LightingResults: New page: Lighting Build
[2021.07.11-02.13.17:220][  0]LogWorld: UWorld::CleanupWorld for Untitled, bSessionEnded=true, bCleanupResources=true
[2021.07.11-02.13.17:220][  0]LogSlate: InvalidateAllWidgets triggered.  All widgets were invalidated
[2021.07.11-02.13.17:220][  0]MapCheck: New page: Map Check
[2021.07.11-02.13.17:220][  0]LightingResults: New page: Lighting Build
[2021.07.11-02.13.17:255][  0]LogUObjectHash: Compacting FUObjectHashTables data took   0.77ms
[2021.07.11-02.13.18:042][  0]LogAIModule: Creating AISystem for world TopDownExampleMap
[2021.07.11-02.13.18:333][  0]LogEditorServer: Finished looking for orphan Actors (0.000 secs)
[2021.07.11-02.13.18:381][  0]LogUObjectHash: Compacting FUObjectHashTables data took   0.66ms
[2021.07.11-02.13.18:408][  0]Cmd: MAP CHECKDEP NOCLEARLOG
[2021.07.11-02.13.18:408][  0]MapCheck: Map check complete: 0 Error(s), 0 Warning(s), took 0,159ms to complete.
[2021.07.11-02.13.18:409][  0]LogFileHelpers: Loading map 'TopDownExampleMap' took 1.398
[2021.07.11-02.13.18:581][  0]LogUnrealEdMisc: Total Editor Startup Time, took 72.359
[2021.07.11-02.13.19:328][  0]LogSlate: Updating window title bar state: overlay mode, drag disabled, window buttons hidden, title bar hidden
[2021.07.11-02.13.19:374][  0]LogSlate: Updating window title bar state: overlay mode, drag disabled, window buttons hidden, title bar hidden
[2021.07.11-02.13.19:380][  0]LogSlate: Updating window title bar state: overlay mode, drag disabled, window buttons hidden, title bar hidden
[2021.07.11-02.13.19:385][  0]LogSlate: Updating window title bar state: overlay mode, drag disabled, window buttons hidden, title bar hidden
[2021.07.11-02.13.19:817][  0]LogNativeClassHierarchy: Verbose: Native class hierarchy populated in 0.0086 seconds. Added 3621 classes and 861 folders.
[2021.07.11-02.13.19:940][  0]LogNativeClassHierarchy: Verbose: Native class hierarchy updated for 'WidgetCarousel' in 0.0003 seconds. Added 0 classes and 0 folders.
[2021.07.11-02.13.20:114][  0]LogPakFile: PakFile PrimaryIndexSize=187
[2021.07.11-02.13.20:114][  0]LogPakFile: PakFile PathHashIndexSize=101
[2021.07.11-02.13.20:114][  0]LogPakFile: PakFile FullDirectoryIndexSize=148
[2021.07.11-02.13.20:114][  0]LogPakFile: OnPakFileMounted2Time == 0.000008
[2021.07.11-02.13.20:223][  0]LogPakFile: PakFile PrimaryIndexSize=189
[2021.07.11-02.13.20:223][  0]LogPakFile: PakFile PathHashIndexSize=101
[2021.07.11-02.13.20:223][  0]LogPakFile: PakFile FullDirectoryIndexSize=152
[2021.07.11-02.13.20:223][  0]LogPakFile: OnPakFileMounted2Time == 0.000011
[2021.07.11-02.13.20:281][  0]LogPakFile: PakFile PrimaryIndexSize=191
[2021.07.11-02.13.20:281][  0]LogPakFile: PakFile PathHashIndexSize=101
[2021.07.11-02.13.20:281][  0]LogPakFile: PakFile FullDirectoryIndexSize=160
[2021.07.11-02.13.20:281][  0]LogPakFile: OnPakFileMounted2Time == 0.000015
[2021.07.11-02.13.20:306][  0]LogPakFile: PakFile PrimaryIndexSize=185
[2021.07.11-02.13.20:306][  0]LogPakFile: PakFile PathHashIndexSize=101
[2021.07.11-02.13.20:306][  0]LogPakFile: PakFile FullDirectoryIndexSize=148
[2021.07.11-02.13.20:306][  0]LogPakFile: OnPakFileMounted2Time == 0.000017
[2021.07.11-02.13.20:332][  0]LogPakFile: PakFile PrimaryIndexSize=190
[2021.07.11-02.13.20:332][  0]LogPakFile: PakFile PathHashIndexSize=101
[2021.07.11-02.13.20:332][  0]LogPakFile: PakFile FullDirectoryIndexSize=154
[2021.07.11-02.13.20:332][  0]LogPakFile: OnPakFileMounted2Time == 0.000019
[2021.07.11-02.13.20:334][  0]LogPakFile: PakFile PrimaryIndexSize=192
[2021.07.11-02.13.20:334][  0]LogPakFile: PakFile PathHashIndexSize=101
[2021.07.11-02.13.20:334][  0]LogPakFile: PakFile FullDirectoryIndexSize=158
[2021.07.11-02.13.20:334][  0]LogPakFile: OnPakFileMounted2Time == 0.000020
[2021.07.11-02.13.20:358][  0]LogPakFile: PakFile PrimaryIndexSize=182
[2021.07.11-02.13.20:358][  0]LogPakFile: PakFile PathHashIndexSize=101
[2021.07.11-02.13.20:358][  0]LogPakFile: PakFile FullDirectoryIndexSize=138
[2021.07.11-02.13.20:358][  0]LogPakFile: OnPakFileMounted2Time == 0.000024
[2021.07.11-02.13.20:391][  0]LogPakFile: PakFile PrimaryIndexSize=184
[2021.07.11-02.13.20:391][  0]LogPakFile: PakFile PathHashIndexSize=101
[2021.07.11-02.13.20:391][  0]LogPakFile: PakFile FullDirectoryIndexSize=142
[2021.07.11-02.13.20:391][  0]LogPakFile: OnPakFileMounted2Time == 0.000027
[2021.07.11-02.13.20:393][  0]LogPakFile: PakFile PrimaryIndexSize=188
[2021.07.11-02.13.20:394][  0]LogPakFile: PakFile PathHashIndexSize=101
[2021.07.11-02.13.20:394][  0]LogPakFile: PakFile FullDirectoryIndexSize=150
[2021.07.11-02.13.20:394][  0]LogPakFile: OnPakFileMounted2Time == 0.000028
[2021.07.11-02.13.20:427][  0]LogPakFile: PakFile PrimaryIndexSize=182
[2021.07.11-02.13.20:427][  0]LogPakFile: PakFile PathHashIndexSize=101
[2021.07.11-02.13.20:427][  0]LogPakFile: PakFile FullDirectoryIndexSize=138
[2021.07.11-02.13.20:427][  0]LogPakFile: OnPakFileMounted2Time == 0.000031
[2021.07.11-02.13.20:460][  0]LogPakFile: PakFile PrimaryIndexSize=184
[2021.07.11-02.13.20:460][  0]LogPakFile: PakFile PathHashIndexSize=101
[2021.07.11-02.13.20:460][  0]LogPakFile: PakFile FullDirectoryIndexSize=142
[2021.07.11-02.13.20:460][  0]LogPakFile: OnPakFileMounted2Time == 0.000034
[2021.07.11-02.13.20:469][  0]LogPakFile: PakFile PrimaryIndexSize=183
[2021.07.11-02.13.20:469][  0]LogPakFile: PakFile PathHashIndexSize=101
[2021.07.11-02.13.20:469][  0]LogPakFile: PakFile FullDirectoryIndexSize=140
[2021.07.11-02.13.20:469][  0]LogPakFile: OnPakFileMounted2Time == 0.000036
[2021.07.11-02.13.20:536][  0]LogPakFile: PakFile PrimaryIndexSize=185
[2021.07.11-02.13.20:536][  0]LogPakFile: PakFile PathHashIndexSize=101
[2021.07.11-02.13.20:536][  0]LogPakFile: PakFile FullDirectoryIndexSize=144
[2021.07.11-02.13.20:536][  0]LogPakFile: OnPakFileMounted2Time == 0.000039
[2021.07.11-02.13.20:547][  0]LogPakFile: PakFile PrimaryIndexSize=188
[2021.07.11-02.13.20:547][  0]LogPakFile: PakFile PathHashIndexSize=101
[2021.07.11-02.13.20:547][  0]LogPakFile: PakFile FullDirectoryIndexSize=150
[2021.07.11-02.13.20:547][  0]LogPakFile: OnPakFileMounted2Time == 0.000042
[2021.07.11-02.13.20:578][  0]LogPakFile: PakFile PrimaryIndexSize=190
[2021.07.11-02.13.20:578][  0]LogPakFile: PakFile PathHashIndexSize=101
[2021.07.11-02.13.20:578][  0]LogPakFile: PakFile FullDirectoryIndexSize=154
[2021.07.11-02.13.20:578][  0]LogPakFile: OnPakFileMounted2Time == 0.000046
[2021.07.11-02.13.20:604][  0]LogPakFile: PakFile PrimaryIndexSize=187
[2021.07.11-02.13.20:604][  0]LogPakFile: PakFile PathHashIndexSize=101
[2021.07.11-02.13.20:604][  0]LogPakFile: PakFile FullDirectoryIndexSize=148
[2021.07.11-02.13.20:604][  0]LogPakFile: OnPakFileMounted2Time == 0.000049
[2021.07.11-02.13.20:631][  0]LogPakFile: PakFile PrimaryIndexSize=189
[2021.07.11-02.13.20:631][  0]LogPakFile: PakFile PathHashIndexSize=101
[2021.07.11-02.13.20:631][  0]LogPakFile: PakFile FullDirectoryIndexSize=152
[2021.07.11-02.13.20:631][  0]LogPakFile: OnPakFileMounted2Time == 0.000053
[2021.07.11-02.13.20:633][  0]LogPakFile: PakFile PrimaryIndexSize=183
[2021.07.11-02.13.20:633][  0]LogPakFile: PakFile PathHashIndexSize=101
[2021.07.11-02.13.20:633][  0]LogPakFile: PakFile FullDirectoryIndexSize=140
[2021.07.11-02.13.20:633][  0]LogPakFile: OnPakFileMounted2Time == 0.000054
[2021.07.11-02.13.20:656][  0]LogPakFile: PakFile PrimaryIndexSize=185
[2021.07.11-02.13.20:656][  0]LogPakFile: PakFile PathHashIndexSize=101
[2021.07.11-02.13.20:656][  0]LogPakFile: PakFile FullDirectoryIndexSize=144
[2021.07.11-02.13.20:656][  0]LogPakFile: OnPakFileMounted2Time == 0.000056
[2021.07.11-02.13.20:683][  0]LogPakFile: PakFile PrimaryIndexSize=185
[2021.07.11-02.13.20:683][  0]LogPakFile: PakFile PathHashIndexSize=101
[2021.07.11-02.13.20:683][  0]LogPakFile: PakFile FullDirectoryIndexSize=144
[2021.07.11-02.13.20:683][  0]LogPakFile: OnPakFileMounted2Time == 0.000059
[2021.07.11-02.13.20:706][  0]LogPakFile: PakFile PrimaryIndexSize=187
[2021.07.11-02.13.20:706][  0]LogPakFile: PakFile PathHashIndexSize=101
[2021.07.11-02.13.20:706][  0]LogPakFile: PakFile FullDirectoryIndexSize=148
[2021.07.11-02.13.20:706][  0]LogPakFile: OnPakFileMounted2Time == 0.000061
[2021.07.11-02.13.20:709][  0]LogPakFile: PakFile PrimaryIndexSize=183
[2021.07.11-02.13.20:709][  0]LogPakFile: PakFile PathHashIndexSize=101
[2021.07.11-02.13.20:709][  0]LogPakFile: PakFile FullDirectoryIndexSize=140
[2021.07.11-02.13.20:709][  0]LogPakFile: OnPakFileMounted2Time == 0.000063
[2021.07.11-02.13.20:741][  0]LogPakFile: PakFile PrimaryIndexSize=186
[2021.07.11-02.13.20:741][  0]LogPakFile: PakFile PathHashIndexSize=101
[2021.07.11-02.13.20:741][  0]LogPakFile: PakFile FullDirectoryIndexSize=146
[2021.07.11-02.13.20:741][  0]LogPakFile: OnPakFileMounted2Time == 0.000065
[2021.07.11-02.13.20:744][  0]LogPakFile: PakFile PrimaryIndexSize=188
[2021.07.11-02.13.20:744][  0]LogPakFile: PakFile PathHashIndexSize=101
[2021.07.11-02.13.20:744][  0]LogPakFile: PakFile FullDirectoryIndexSize=150
[2021.07.11-02.13.20:744][  0]LogPakFile: OnPakFileMounted2Time == 0.000067
[2021.07.11-02.13.20:777][  0]LogPakFile: PakFile PrimaryIndexSize=185
[2021.07.11-02.13.20:777][  0]LogPakFile: PakFile PathHashIndexSize=101
[2021.07.11-02.13.20:777][  0]LogPakFile: PakFile FullDirectoryIndexSize=144
[2021.07.11-02.13.20:777][  0]LogPakFile: OnPakFileMounted2Time == 0.000070
[2021.07.11-02.13.20:810][  0]LogPakFile: PakFile PrimaryIndexSize=192
[2021.07.11-02.13.20:810][  0]LogPakFile: PakFile PathHashIndexSize=101
[2021.07.11-02.13.20:810][  0]LogPakFile: PakFile FullDirectoryIndexSize=158
[2021.07.11-02.13.20:810][  0]LogPakFile: OnPakFileMounted2Time == 0.000073
[2021.07.11-02.13.22:840][  0]LogNativeClassHierarchy: Verbose: Native class hierarchy updated for 'AddContentDialog' in 0.0003 seconds. Added 0 classes and 0 folders.
[2021.07.11-02.13.22:840][  0]LogNativeClassHierarchy: Verbose: Native class hierarchy updated for 'SceneOutliner' in 0.0002 seconds. Added 2 classes and 0 folders.
[2021.07.11-02.13.23:919][  0]LogNativeClassHierarchy: Verbose: Native class hierarchy updated for 'HierarchicalLODOutliner' in 0.0002 seconds. Added 0 classes and 0 folders.
[2021.07.11-02.13.23:919][  0]LogInput: Warning: Action SetDestination uses invalid key OculusGo_Left_Trigger_Click.
[2021.07.11-02.13.23:919][  0]LogInput: Warning: Action ResetVR uses invalid key OculusGo_Left_Back_Click.
[2021.07.11-02.13.23:919][  0]LogInput: Warning: Use -RemoveInvalidKeys to remove instances of these keys from the action mapping.
[2021.07.11-02.13.23:919][  0]LogLoad: (Engine Initialization) Total time: 77.70 seconds
[2021.07.11-02.13.23:919][  0]LogLoad: (Engine Initialization) Total Blueprint compile time: 0.00 seconds
[2021.07.11-02.13.23:919][  0]LogInit: First time updating LLM stats...
[2021.07.11-02.13.24:144][  0]LogContentStreaming: Texture pool size now 1000 MB
[2021.07.11-02.13.24:144][  0]LogSlate: Took 0.000117 seconds to synchronously load lazily loaded font '../../../Engine/Content/Slate/Fonts/Roboto-Regular.ttf' (155K)
[2021.07.11-02.13.24:146][  0]LogSlate: Took 0.000089 seconds to synchronously load lazily loaded font '../../../Engine/Content/Slate/Fonts/Roboto-Bold.ttf' (160K)
[2021.07.11-02.13.24:188][  0]LogSlate: Took 0.039150 seconds to synchronously load lazily loaded font '../../../Engine/Content/Editor/Slate/Fonts/FontAwesome.ttf' (139K)
[2021.07.11-02.13.24:803][  1]LogRenderer: Reallocating scene render targets to support 1224x360 Format 10 NumSamples 1 (Frame:1).
[2021.07.11-02.13.24:975][  1]LogAssetRegistry: Asset discovery search completed in 52.2544 seconds
[2021.07.11-02.13.24:977][  1]LogCollectionManager: Fixed up redirectors for 0 collections in 0.000003 seconds (updated 0 objects)
[2021.07.11-02.13.27:082][215]LogRenderer: Reallocating scene render targets to support 1224x796 Format 10 NumSamples 1 (Frame:216).
[2021.07.11-02.13.28:445][377]LogTemp: Repeating last play command: Selected Viewport
[2021.07.11-02.13.28:450][377]LogPlayLevel: PlayLevel: No blueprints needed recompiling
[2021.07.11-02.13.28:483][377]PIE: New page: PIE session: TopDownExampleMap (11 июл. 2021 г., 08:13:28)
[2021.07.11-02.13.28:484][377]LogOnline: OSS: Creating online subsystem instance for: NULL
[2021.07.11-02.13.28:485][377]LogOnline: OSS: TryLoadSubsystemAndSetDefault: Loaded subsystem for module [NULL]
[2021.07.11-02.13.28:485][377]LogPlayLevel: Creating play world package: /Game/TopDownCPP/Maps/UEDPIE_0_TopDownExampleMap
[2021.07.11-02.13.28:496][377]LogPlayLevel: PIE: StaticDuplicateObject took: (0.011554s)
[2021.07.11-02.13.28:497][377]LogAIModule: Creating AISystem for world TopDownExampleMap
[2021.07.11-02.13.28:498][377]LogPlayLevel: PIE: World Init took: (0.001124s)
[2021.07.11-02.13.28:498][377]LogPlayLevel: PIE: Created PIE world by copying editor world from /Game/TopDownCPP/Maps/TopDownExampleMap.TopDownExampleMap to /Game/TopDownCPP/Maps/UEDPIE_0_TopDownExampleMap.TopDownExampleMap (0.012851s)
[2021.07.11-02.13.28:503][377]LogUObjectHash: Compacting FUObjectHashTables data took   0.68ms
[2021.07.11-02.13.28:504][377]LogAudio: Display: Creating Audio Device:                 Id: 2, Scope: Unique, Realtime: True
[2021.07.11-02.13.28:504][377]LogAudioMixer: Display: Audio Mixer Platform Settings:
[2021.07.11-02.13.28:504][377]LogAudioMixer: Display: 	Sample Rate:						  48000
[2021.07.11-02.13.28:505][377]LogAudioMixer: Display: 	Callback Buffer Frame Size Requested: 1024
[2021.07.11-02.13.28:505][377]LogAudioMixer: Display: 	Callback Buffer Frame Size To Use:	  1024
[2021.07.11-02.13.28:505][377]LogAudioMixer: Display: 	Number of buffers to queue:			  2
[2021.07.11-02.13.28:505][377]LogAudioMixer: Display: 	Max Channels (voices):				  32
[2021.07.11-02.13.28:505][377]LogAudioMixer: Display: 	Number of Async Source Workers:		  0
[2021.07.11-02.13.28:505][377]LogAudio: Display: AudioDevice MaxSources: 32
[2021.07.11-02.13.28:505][377]LogAudio: Display: Using built-in audio occlusion.
[2021.07.11-02.13.28:505][377]LogAudioMixer: Display: Initializing audio mixer.
[2021.07.11-02.13.28:511][377]LogAudioMixer: Display: 0: FrontLeft
[2021.07.11-02.13.28:511][377]LogAudioMixer: Display: 1: FrontRight
[2021.07.11-02.13.28:511][377]LogAudioMixer: Display: 2: FrontCenter
[2021.07.11-02.13.28:511][377]LogAudioMixer: Display: 3: LowFrequency
[2021.07.11-02.13.28:511][377]LogAudioMixer: Display: 4: BackLeft
[2021.07.11-02.13.28:511][377]LogAudioMixer: Display: 5: BackRight
[2021.07.11-02.13.28:511][377]LogAudioMixer: Display: 6: SideLeft
[2021.07.11-02.13.28:511][377]LogAudioMixer: Display: 7: SideRight
[2021.07.11-02.13.28:548][377]LogAudioMixer: Display: Using Audio Device Динамики (3- Logitech PRO X Wireless Gaming Headset)
[2021.07.11-02.13.28:548][377]LogAudioMixer: Display: Initializing Sound Submixes...
[2021.07.11-02.13.28:548][377]LogAudioMixer: Display: Creating Master Submix 'MasterSubmixDefault'
[2021.07.11-02.13.28:548][377]LogAudioMixer: Display: Creating Master Submix 'MasterReverbSubmixDefault'
[2021.07.11-02.13.28:548][377]LogAudioMixer: Display: Creating Master Submix 'MasterEQSubmixDefault'
[2021.07.11-02.13.28:548][377]LogAudioMixer: FMixerPlatformXAudio2::StartAudioStream() called
[2021.07.11-02.13.28:548][377]LogAudioMixer: Display: Output buffers initialized: Frames=1024, Channels=8, Samples=8192
[2021.07.11-02.13.28:562][377]LogAudioMixer: Display: Starting AudioMixerPlatformInterface::RunInternal()
[2021.07.11-02.13.28:562][377]LogAudioMixer: Display: FMixerPlatformXAudio2::SubmitBuffer() called for the first time
[2021.07.11-02.13.28:562][377]LogInit: FAudioDevice initialized.
[2021.07.11-02.13.28:562][377]LogAudio: Display: Audio Device (ID: 2) registered with world 'TopDownExampleMap'.
[2021.07.11-02.13.28:572][377]LogLoad: Game class is 'MT_TKGameMode'
[2021.07.11-02.13.28:574][377]LogWorld: Bringing World /Game/TopDownCPP/Maps/UEDPIE_0_TopDownExampleMap.TopDownExampleMap up for play (max tick rate 0) at 2021.07.11-05.13.28
[2021.07.11-02.13.28:574][377]LogWorld: Bringing up level for play took: 0.000800
[2021.07.11-02.13.28:574][377]LogOnline: OSS: Creating online subsystem instance for: :Context_2
[2021.07.11-02.13.28:600][377]LogNativeClassHierarchy: Verbose: Native class hierarchy updated for 'MovieSceneCapture' in 0.0003 seconds. Added 20 classes and 0 folders.
[2021.07.11-02.13.28:610][377]PIE: Server logged in
[2021.07.11-02.13.28:611][377]PIE: Play in editor total start time 0,162 seconds.
